# 3ds Max Wavefront OBJ Exporter v0.97b - (c)2007 guruware
# File Created: 02.01.2021 20:09:05

#
# object doors
#

v  -0.0000 -1.0000 5.6585
v  -0.0000 -2.0000 5.6585
v  -0.5000 -2.0000 5.6585
v  -0.5000 -1.0000 5.6585
v  -0.0000 -0.0000 5.6585
v  -0.5000 -0.0000 5.6585
v  0.5000 -2.0000 5.6585
v  0.5000 -1.0000 5.6585
v  0.5000 -0.0000 5.6585
# 9 vertices

vn 0.0000 0.0000 -1.0000
# 1 vertex normals

vt 0.5000 0.1667 0.0000
vt 0.5000 0.0000 0.0000
vt 0.5833 0.0000 0.0000
vt 0.5833 0.1667 0.0000
vt 0.5000 0.3333 0.0000
vt 0.5833 0.3333 0.0000
vt 0.4167 0.0000 0.0000
vt 0.4167 0.1667 0.0000
vt 0.4167 0.3333 0.0000
# 9 texture coords

o doors
g doors
f 1/1/1 2/2/1 3/3/1 4/4/1 
f 5/5/1 1/1/1 4/4/1 6/6/1 
f 7/7/1 2/2/1 1/1/1 8/8/1 
f 8/8/1 1/1/1 5/5/1 9/9/1 
# 4 polygons

#
# object room_medium
#

v  0.0000 2.0000 4.5000
v  0.0000 2.0000 5.5000
v  -1.0000 2.0000 5.5000
v  -1.0000 2.0000 4.5000
v  -2.0000 2.0000 5.5000
v  -2.0000 2.0000 4.5000
v  -3.0000 2.0000 5.5000
v  -3.0000 2.0000 4.5000
v  -4.0000 2.0000 5.5000
v  -4.0000 2.0000 4.5000
v  -5.0000 2.0000 5.5000
v  -5.0000 2.0000 4.5000
v  -6.0000 2.0000 5.5000
v  -6.0000 2.0000 4.5000
v  0.0000 2.0000 3.5000
v  -1.0000 2.0000 3.5000
v  -2.0000 2.0000 3.5000
v  -3.0000 2.0000 3.5000
v  -4.0000 2.0000 3.5000
v  -5.0000 2.0000 3.5000
v  -6.0000 2.0000 3.5000
v  0.0000 2.0000 2.5000
v  -1.0000 2.0000 2.5000
v  -2.0000 2.0000 2.5000
v  -3.0000 2.0000 2.5000
v  -4.0000 2.0000 2.5000
v  -5.0000 2.0000 2.5000
v  -6.0000 2.0000 2.5000
v  0.0000 2.0000 1.5000
v  -1.0000 2.0000 1.5000
v  -2.0000 2.0000 1.5000
v  -3.0000 2.0000 1.5000
v  -4.0000 2.0000 1.5000
v  -5.0000 2.0000 1.5000
v  -6.0000 2.0000 1.5000
v  0.0000 2.0000 0.5000
v  -1.0000 2.0000 0.5000
v  -2.0000 2.0000 0.5000
v  -3.0000 2.0000 0.5000
v  -4.0000 2.0000 0.5000
v  -5.0000 2.0000 0.5000
v  -6.0000 2.0000 0.5000
v  0.0000 2.0000 -0.5000
v  -1.0000 2.0000 -0.5000
v  -2.0000 2.0000 -0.5000
v  -3.0000 2.0000 -0.5000
v  -4.0000 2.0000 -0.5000
v  -5.0000 2.0000 -0.5000
v  -6.0000 2.0000 -0.5000
v  6.0000 2.0000 4.5000
v  6.0000 2.0000 5.5000
v  5.0000 2.0000 5.5000
v  5.0000 2.0000 4.5000
v  4.0000 2.0000 5.5000
v  4.0000 2.0000 4.5000
v  3.0000 2.0000 5.5000
v  3.0000 2.0000 4.5000
v  2.0000 2.0000 5.5000
v  2.0000 2.0000 4.5000
v  1.0000 2.0000 5.5000
v  1.0000 2.0000 4.5000
v  6.0000 2.0000 3.5000
v  5.0000 2.0000 3.5000
v  4.0000 2.0000 3.5000
v  3.0000 2.0000 3.5000
v  2.0000 2.0000 3.5000
v  1.0000 2.0000 3.5000
v  6.0000 2.0000 2.5000
v  5.0000 2.0000 2.5000
v  4.0000 2.0000 2.5000
v  3.0000 2.0000 2.5000
v  2.0000 2.0000 2.5000
v  1.0000 2.0000 2.5000
v  6.0000 2.0000 1.5000
v  5.0000 2.0000 1.5000
v  4.0000 2.0000 1.5000
v  3.0000 2.0000 1.5000
v  2.0000 2.0000 1.5000
v  1.0000 2.0000 1.5000
v  6.0000 2.0000 0.5000
v  5.0000 2.0000 0.5000
v  4.0000 2.0000 0.5000
v  3.0000 2.0000 0.5000
v  2.0000 2.0000 0.5000
v  1.0000 2.0000 0.5000
v  6.0000 2.0000 -0.5000
v  5.0000 2.0000 -0.5000
v  4.0000 2.0000 -0.5000
v  3.0000 2.0000 -0.5000
v  2.0000 2.0000 -0.5000
v  1.0000 2.0000 -0.5000
v  0.0000 -1.0000 -6.5000
v  0.0000 -2.0000 -6.5000
v  1.0000 -2.0000 -6.5000
v  1.0000 -1.0000 -6.5000
v  2.0000 -2.0000 -6.5000
v  2.0000 -1.0000 -6.5000
v  3.0000 -2.0000 -6.5000
v  3.0000 -1.0000 -6.5000
v  4.0000 -2.0000 -6.5000
v  4.0000 -1.0000 -6.5000
v  5.0000 -2.0000 -6.5000
v  5.0000 -1.0000 -6.5000
v  0.0000 -0.0000 -6.5000
v  1.0000 -0.0000 -6.5000
v  2.0000 -0.0000 -6.5000
v  3.0000 -0.0000 -6.5000
v  4.0000 -0.0000 -6.5000
v  5.0000 -0.0000 -6.5000
v  0.0000 1.0000 -6.5000
v  1.0000 1.0000 -6.5000
v  2.0000 1.0000 -6.5000
v  3.0000 1.0000 -6.5000
v  4.0000 1.0000 -6.5000
v  5.0000 1.0000 -6.5000
v  0.0000 2.0000 -6.5000
v  1.0000 2.0000 -6.5000
v  2.0000 2.0000 -6.5000
v  3.0000 2.0000 -6.5000
v  4.0000 2.0000 -6.5000
v  5.0000 2.0000 -6.5000
v  -5.0000 -1.0000 -6.5000
v  -5.0000 -2.0000 -6.5000
v  -4.0000 -2.0000 -6.5000
v  -4.0000 -1.0000 -6.5000
v  -3.0000 -2.0000 -6.5000
v  -3.0000 -1.0000 -6.5000
v  -2.0000 -2.0000 -6.5000
v  -2.0000 -1.0000 -6.5000
v  -1.0000 -2.0000 -6.5000
v  -1.0000 -1.0000 -6.5000
v  -5.0000 -0.0000 -6.5000
v  -4.0000 -0.0000 -6.5000
v  -3.0000 -0.0000 -6.5000
v  -2.0000 -0.0000 -6.5000
v  -1.0000 -0.0000 -6.5000
v  -5.0000 1.0000 -6.5000
v  -4.0000 1.0000 -6.5000
v  -3.0000 1.0000 -6.5000
v  -2.0000 1.0000 -6.5000
v  -1.0000 1.0000 -6.5000
v  -5.0000 2.0000 -6.5000
v  -4.0000 2.0000 -6.5000
v  -3.0000 2.0000 -6.5000
v  -2.0000 2.0000 -6.5000
v  -1.0000 2.0000 -6.5000
v  -5.0000 -1.0000 5.5000
v  -5.0000 -2.0000 5.5000
v  -6.0000 -2.0000 4.5000
v  -6.0000 -1.0000 4.5000
v  -6.0000 -2.0000 3.5000
v  -6.0000 -1.0000 3.5000
v  -6.0000 -2.0000 2.5000
v  -6.0000 -1.0000 2.5000
v  -6.0000 -2.0000 1.5000
v  -6.0000 -1.0000 1.5000
v  -6.0000 -2.0000 0.5000
v  -6.0000 -1.0000 0.5000
v  -6.0000 -2.0000 -0.5000
v  -6.0000 -1.0000 -0.5000
v  -5.0000 -0.0000 5.5000
v  -6.0000 -0.0000 4.5000
v  -6.0000 -0.0000 3.5000
v  -6.0000 -0.0000 2.5000
v  -6.0000 -0.0000 1.5000
v  -6.0000 -0.0000 0.5000
v  -6.0000 -0.0000 -0.5000
v  -5.0000 1.0000 5.5000
v  -6.0000 1.0000 4.5000
v  -6.0000 1.0000 3.5000
v  -6.0000 1.0000 2.5000
v  -6.0000 1.0000 1.5000
v  -6.0000 1.0000 0.5000
v  -6.0000 1.0000 -0.5000
v  3.0000 -1.0000 5.5000
v  3.0000 -2.0000 5.5000
v  2.0000 -2.0000 5.5000
v  2.0000 -1.0000 5.5000
v  1.0000 -2.0000 5.5000
v  1.0000 -1.0000 5.5000
v  -1.0000 -1.0000 5.5000
v  -1.0000 -2.0000 5.5000
v  -2.0000 -2.0000 5.5000
v  -2.0000 -1.0000 5.5000
v  -3.0000 -2.0000 5.5000
v  -3.0000 -1.0000 5.5000
v  3.0000 -0.0000 5.5000
v  2.0000 -0.0000 5.5000
v  1.0000 -0.0000 5.5000
v  -1.0000 -0.0000 5.5000
v  -2.0000 -0.0000 5.5000
v  -3.0000 -0.0000 5.5000
v  3.0000 1.0000 5.5000
v  2.0000 1.0000 5.5000
v  1.0000 1.0000 5.5000
v  -1.0000 1.0000 5.5000
v  -2.0000 1.0000 5.5000
v  -3.0000 1.0000 5.5000
v  0.0000 1.0000 5.5000
v  1.0000 -1.0000 5.5938
v  1.0000 -2.0000 5.5938
v  0.5000 -2.0000 5.5938
v  0.5000 -1.0000 5.5938
v  1.0000 -0.0000 5.5938
v  0.5000 -0.0000 5.5938
v  1.0000 1.0000 5.5938
v  0.5000 1.0000 5.5938
v  0.0000 1.0000 5.5938
v  0.0000 -0.0000 5.5938
v  -0.5000 -0.0000 5.5938
v  -0.5000 1.0000 5.5938
v  -0.5000 -2.0000 5.5938
v  -1.0000 -2.0000 5.5938
v  -1.0000 -1.0000 5.5938
v  -0.5000 -1.0000 5.5938
v  -1.0000 -0.0000 5.5938
v  -1.0000 1.0000 5.5938
v  -0.5000 -0.0000 6.5000
v  0.5000 -0.0000 6.5000
v  0.5000 -1.0000 6.5000
v  0.5000 -2.0000 6.5000
v  -0.5000 -2.0000 6.5000
v  -0.5000 -1.0000 6.5000
v  -1.0000 1.0000 6.5000
v  0.0000 1.0000 6.5000
v  1.0000 1.0000 6.5000
v  1.0000 -0.0000 6.5000
v  1.0000 -1.0000 6.5000
v  1.0000 -2.0000 6.5000
v  0.0000 -2.0000 5.5000
v  0.0000 -2.0000 6.5000
v  -1.0000 -2.0000 6.5000
v  -1.0000 -1.0000 6.5000
v  -1.0000 -0.0000 6.5000
v  6.0000 -1.0000 4.5000
v  6.0000 -2.0000 4.5000
v  5.0000 -2.0000 5.5000
v  5.0000 -1.0000 5.5000
v  4.0000 -2.0000 5.5000
v  4.0000 -1.0000 5.5000
v  6.0000 -0.0000 4.5000
v  5.0000 -0.0000 5.5000
v  4.0000 -0.0000 5.5000
v  6.0000 1.0000 4.5000
v  5.0000 1.0000 5.5000
v  4.0000 1.0000 5.5000
v  -4.0000 -2.0000 5.5000
v  -4.0000 -1.0000 5.5000
v  -4.0000 -0.0000 5.5000
v  -4.0000 1.0000 5.5000
v  -6.0000 -2.0000 5.5000
v  -5.0000 -2.0000 4.5000
v  -4.0000 -2.0000 4.5000
v  -3.0000 -2.0000 4.5000
v  -2.0000 -2.0000 4.5000
v  -1.0000 -2.0000 4.5000
v  0.0000 -2.0000 4.5000
v  -5.0000 -2.0000 3.5000
v  -4.0000 -2.0000 3.5000
v  -3.0000 -2.0000 3.5000
v  -2.0000 -2.0000 3.5000
v  -1.0000 -2.0000 3.5000
v  0.0000 -2.0000 3.5000
v  -5.0000 -2.0000 2.5000
v  -4.0000 -2.0000 2.5000
v  -3.0000 -2.0000 2.5000
v  -2.0000 -2.0000 2.5000
v  -1.0000 -2.0000 2.5000
v  0.0000 -2.0000 2.5000
v  -5.0000 -2.0000 1.5000
v  -4.0000 -2.0000 1.5000
v  -3.0000 -2.0000 1.5000
v  -2.0000 -2.0000 1.5000
v  -1.0000 -2.0000 1.5000
v  0.0000 -2.0000 1.5000
v  -5.0000 -2.0000 0.5000
v  -4.0000 -2.0000 0.5000
v  -3.0000 -2.0000 0.5000
v  -2.0000 -2.0000 0.5000
v  -1.0000 -2.0000 0.5000
v  0.0000 -2.0000 0.5000
v  -5.0000 -2.0000 -0.5000
v  -4.0000 -2.0000 -0.5000
v  -3.0000 -2.0000 -0.5000
v  -2.0000 -2.0000 -0.5000
v  -1.0000 -2.0000 -0.5000
v  0.0000 -2.0000 -0.5000
v  1.0000 -2.0000 4.5000
v  2.0000 -2.0000 4.5000
v  3.0000 -2.0000 4.5000
v  4.0000 -2.0000 4.5000
v  5.0000 -2.0000 4.5000
v  6.0000 -2.0000 5.5000
v  1.0000 -2.0000 3.5000
v  2.0000 -2.0000 3.5000
v  3.0000 -2.0000 3.5000
v  4.0000 -2.0000 3.5000
v  5.0000 -2.0000 3.5000
v  6.0000 -2.0000 3.5000
v  1.0000 -2.0000 2.5000
v  2.0000 -2.0000 2.5000
v  3.0000 -2.0000 2.5000
v  4.0000 -2.0000 2.5000
v  5.0000 -2.0000 2.5000
v  6.0000 -2.0000 2.5000
v  1.0000 -2.0000 1.5000
v  2.0000 -2.0000 1.5000
v  3.0000 -2.0000 1.5000
v  4.0000 -2.0000 1.5000
v  5.0000 -2.0000 1.5000
v  6.0000 -2.0000 1.5000
v  1.0000 -2.0000 0.5000
v  2.0000 -2.0000 0.5000
v  3.0000 -2.0000 0.5000
v  4.0000 -2.0000 0.5000
v  5.0000 -2.0000 0.5000
v  6.0000 -2.0000 0.5000
v  1.0000 -2.0000 -0.5000
v  2.0000 -2.0000 -0.5000
v  3.0000 -2.0000 -0.5000
v  4.0000 -2.0000 -0.5000
v  5.0000 -2.0000 -0.5000
v  6.0000 -2.0000 -0.5000
v  6.0000 -1.0000 -0.5000
v  6.0000 -1.0000 0.5000
v  6.0000 -1.0000 1.5000
v  6.0000 -1.0000 2.5000
v  6.0000 -1.0000 3.5000
v  6.0000 -0.0000 -0.5000
v  6.0000 -0.0000 0.5000
v  6.0000 -0.0000 1.5000
v  6.0000 -0.0000 2.5000
v  6.0000 -0.0000 3.5000
v  6.0000 1.0000 -0.5000
v  6.0000 1.0000 0.5000
v  6.0000 1.0000 1.5000
v  6.0000 1.0000 2.5000
v  6.0000 1.0000 3.5000
v  -6.0000 -2.0000 -1.5000
v  -5.0000 -2.0000 -1.5000
v  -4.0000 -2.0000 -1.5000
v  -3.0000 -2.0000 -1.5000
v  -2.0000 -2.0000 -1.5000
v  -1.0000 -2.0000 -1.5000
v  0.0000 -2.0000 -1.5000
v  -6.0000 -2.0000 -2.5000
v  -5.0000 -2.0000 -2.5000
v  -4.0000 -2.0000 -2.5000
v  -3.0000 -2.0000 -2.5000
v  -2.0000 -2.0000 -2.5000
v  -1.0000 -2.0000 -2.5000
v  0.0000 -2.0000 -2.5000
v  -6.0000 -2.0000 -3.5000
v  -5.0000 -2.0000 -3.5000
v  -4.0000 -2.0000 -3.5000
v  -3.0000 -2.0000 -3.5000
v  -2.0000 -2.0000 -3.5000
v  -1.0000 -2.0000 -3.5000
v  0.0000 -2.0000 -3.5000
v  -6.0000 -2.0000 -4.5000
v  -5.0000 -2.0000 -4.5000
v  -4.0000 -2.0000 -4.5000
v  -3.0000 -2.0000 -4.5000
v  -2.0000 -2.0000 -4.5000
v  -1.0000 -2.0000 -4.5000
v  0.0000 -2.0000 -4.5000
v  -6.0000 -2.0000 -5.5000
v  -5.0000 -2.0000 -5.5000
v  -4.0000 -2.0000 -5.5000
v  -3.0000 -2.0000 -5.5000
v  -2.0000 -2.0000 -5.5000
v  -1.0000 -2.0000 -5.5000
v  0.0000 -2.0000 -5.5000
v  -6.0000 -2.0000 -6.5000
v  1.0000 -2.0000 -1.5000
v  2.0000 -2.0000 -1.5000
v  3.0000 -2.0000 -1.5000
v  4.0000 -2.0000 -1.5000
v  5.0000 -2.0000 -1.5000
v  6.0000 -2.0000 -1.5000
v  1.0000 -2.0000 -2.5000
v  2.0000 -2.0000 -2.5000
v  3.0000 -2.0000 -2.5000
v  4.0000 -2.0000 -2.5000
v  5.0000 -2.0000 -2.5000
v  6.0000 -2.0000 -2.5000
v  1.0000 -2.0000 -3.5000
v  2.0000 -2.0000 -3.5000
v  3.0000 -2.0000 -3.5000
v  4.0000 -2.0000 -3.5000
v  5.0000 -2.0000 -3.5000
v  6.0000 -2.0000 -3.5000
v  1.0000 -2.0000 -4.5000
v  2.0000 -2.0000 -4.5000
v  3.0000 -2.0000 -4.5000
v  4.0000 -2.0000 -4.5000
v  5.0000 -2.0000 -4.5000
v  6.0000 -2.0000 -4.5000
v  1.0000 -2.0000 -5.5000
v  2.0000 -2.0000 -5.5000
v  3.0000 -2.0000 -5.5000
v  4.0000 -2.0000 -5.5000
v  5.0000 -2.0000 -5.5000
v  6.0000 -2.0000 -5.5000
v  6.0000 -2.0000 -6.5000
v  0.0000 2.0000 -1.5000
v  -1.0000 2.0000 -1.5000
v  -2.0000 2.0000 -1.5000
v  -3.0000 2.0000 -1.5000
v  -4.0000 2.0000 -1.5000
v  -5.0000 2.0000 -1.5000
v  -6.0000 2.0000 -1.5000
v  0.0000 2.0000 -2.5000
v  -1.0000 2.0000 -2.5000
v  -2.0000 2.0000 -2.5000
v  -3.0000 2.0000 -2.5000
v  -4.0000 2.0000 -2.5000
v  -5.0000 2.0000 -2.5000
v  -6.0000 2.0000 -2.5000
v  0.0000 2.0000 -3.5000
v  -1.0000 2.0000 -3.5000
v  -2.0000 2.0000 -3.5000
v  -3.0000 2.0000 -3.5000
v  -4.0000 2.0000 -3.5000
v  -5.0000 2.0000 -3.5000
v  -6.0000 2.0000 -3.5000
v  0.0000 2.0000 -4.5000
v  -1.0000 2.0000 -4.5000
v  -2.0000 2.0000 -4.5000
v  -3.0000 2.0000 -4.5000
v  -4.0000 2.0000 -4.5000
v  -5.0000 2.0000 -4.5000
v  -6.0000 2.0000 -4.5000
v  0.0000 2.0000 -5.5000
v  -1.0000 2.0000 -5.5000
v  -2.0000 2.0000 -5.5000
v  -3.0000 2.0000 -5.5000
v  -4.0000 2.0000 -5.5000
v  -5.0000 2.0000 -5.5000
v  -6.0000 2.0000 -5.5000
v  -6.0000 2.0000 -6.5000
v  6.0000 2.0000 -1.5000
v  5.0000 2.0000 -1.5000
v  4.0000 2.0000 -1.5000
v  3.0000 2.0000 -1.5000
v  2.0000 2.0000 -1.5000
v  1.0000 2.0000 -1.5000
v  6.0000 2.0000 -2.5000
v  5.0000 2.0000 -2.5000
v  4.0000 2.0000 -2.5000
v  3.0000 2.0000 -2.5000
v  2.0000 2.0000 -2.5000
v  1.0000 2.0000 -2.5000
v  6.0000 2.0000 -3.5000
v  5.0000 2.0000 -3.5000
v  4.0000 2.0000 -3.5000
v  3.0000 2.0000 -3.5000
v  2.0000 2.0000 -3.5000
v  1.0000 2.0000 -3.5000
v  6.0000 2.0000 -4.5000
v  5.0000 2.0000 -4.5000
v  4.0000 2.0000 -4.5000
v  3.0000 2.0000 -4.5000
v  2.0000 2.0000 -4.5000
v  1.0000 2.0000 -4.5000
v  6.0000 2.0000 -5.5000
v  5.0000 2.0000 -5.5000
v  4.0000 2.0000 -5.5000
v  3.0000 2.0000 -5.5000
v  2.0000 2.0000 -5.5000
v  1.0000 2.0000 -5.5000
v  6.0000 2.0000 -6.5000
v  -6.0000 -1.0000 -1.5000
v  -6.0000 -1.0000 -2.5000
v  -6.0000 -1.0000 -3.5000
v  -6.0000 -1.0000 -4.5000
v  -6.0000 -1.0000 -5.5000
v  -6.0000 -0.0000 -1.5000
v  -6.0000 -0.0000 -2.5000
v  -6.0000 -0.0000 -3.5000
v  -6.0000 -0.0000 -4.5000
v  -6.0000 -0.0000 -5.5000
v  -6.0000 1.0000 -1.5000
v  -6.0000 1.0000 -2.5000
v  -6.0000 1.0000 -3.5000
v  -6.0000 1.0000 -4.5000
v  -6.0000 1.0000 -5.5000
v  6.0000 -1.0000 -5.5000
v  6.0000 -1.0000 -4.5000
v  6.0000 -1.0000 -3.5000
v  6.0000 -1.0000 -2.5000
v  6.0000 -1.0000 -1.5000
v  6.0000 -0.0000 -5.5000
v  6.0000 -0.0000 -4.5000
v  6.0000 -0.0000 -3.5000
v  6.0000 -0.0000 -2.5000
v  6.0000 -0.0000 -1.5000
v  6.0000 1.0000 -5.5000
v  6.0000 1.0000 -4.5000
v  6.0000 1.0000 -3.5000
v  6.0000 1.0000 -2.5000
v  6.0000 1.0000 -1.5000
# 502 vertices

vn 0.0000 -1.0000 -0.0000
vn 0.0000 0.0000 1.0000
vn 0.7071 0.0000 -0.7071
vn 0.9239 0.0000 -0.3827
vn 1.0000 0.0000 -0.0000
vn 1.0000 0.0000 0.0000
vn 0.0000 0.0000 -1.0000
vn 0.7071 -0.7071 -0.0000
vn -0.7071 -0.7071 -0.0000
vn -1.0000 0.0000 -0.0000
vn -0.7071 0.7071 -0.0000
vn -0.0000 1.0000 -0.0000
vn 0.7071 0.7071 -0.0000
vn -0.7071 0.0000 -0.7071
vn -0.3826 0.0000 -0.9239
vn -0.3827 0.0000 -0.9239
vn 0.0000 1.0000 -0.0000
vn -1.0000 -0.0000 -0.0000
vn 0.9239 0.0000 0.3826
vn 0.9239 0.0000 0.3827
vn 0.7071 0.0000 0.7071
vn -0.7071 0.0000 0.7071
vn -0.9239 0.0000 0.3827
vn -0.9239 0.0000 0.3826
# 24 vertex normals

vt 0.0000 0.1667 0.0000
vt 0.0000 0.0000 0.0000
vt 0.1667 0.0000 0.0000
vt 0.1667 0.1667 0.0000
vt 0.3333 0.0000 0.0000
vt 0.3333 0.1667 0.0000
vt 0.5000 0.0000 0.0000
vt 0.5000 0.1667 0.0000
vt 0.6667 0.0000 0.0000
vt 0.6667 0.1667 0.0000
vt 0.8333 0.0000 0.0000
vt 0.8333 0.1667 0.0000
vt 1.0000 0.0000 0.0000
vt 1.0000 0.1667 0.0000
vt 0.0000 0.3333 0.0000
vt 0.1667 0.3333 0.0000
vt 0.3333 0.3333 0.0000
vt 0.5000 0.3333 0.0000
vt 0.6667 0.3333 0.0000
vt 0.8333 0.3333 0.0000
vt 1.0000 0.3333 0.0000
vt 0.0000 0.5000 0.0000
vt 0.1667 0.5000 0.0000
vt 0.3333 0.5000 0.0000
vt 0.5000 0.5000 0.0000
vt 0.6667 0.5000 0.0000
vt 0.8333 0.5000 0.0000
vt 1.0000 0.5000 0.0000
vt 0.0000 0.6667 0.0000
vt 0.1667 0.6667 0.0000
vt 0.3333 0.6667 0.0000
vt 0.5000 0.6667 0.0000
vt 0.6667 0.6667 0.0000
vt 0.8333 0.6667 0.0000
vt 1.0000 0.6667 0.0000
vt 0.0000 0.8333 0.0000
vt 0.1667 0.8333 0.0000
vt 0.3333 0.8333 0.0000
vt 0.5000 0.8333 0.0000
vt 0.6667 0.8333 0.0000
vt 0.8333 0.8333 0.0000
vt 1.0000 0.8333 0.0000
vt 0.0000 1.0000 0.0000
vt 0.1667 1.0000 0.0000
vt 0.3333 1.0000 0.0000
vt 0.5000 1.0000 0.0000
vt 0.6667 1.0000 0.0000
vt 0.8333 1.0000 0.0000
vt 1.0000 1.0000 0.0000
vt 0.4167 0.0000 0.0000
vt 0.4167 0.1667 0.0000
vt 0.4167 0.3333 0.0000
vt 0.4167 0.5000 0.0000
vt 0.5833 0.3333 0.0000
vt 0.5833 0.5000 0.0000
vt 0.5833 0.0000 0.0000
vt 0.5833 0.1667 0.0000
vt 0.1667 0.1510 0.0000
vt 0.3333 0.1510 0.0000
vt 0.5000 0.1510 0.0000
# 60 texture coords

o room_medium
g room_medium
f 10/10/2 11/11/2 12/12/2 13/13/2 
f 13/13/2 12/12/2 14/14/2 15/15/2 
f 15/15/2 14/14/2 16/16/2 17/17/2 
f 17/17/2 16/16/2 18/18/2 19/19/2 
f 19/19/2 18/18/2 20/20/2 21/21/2 
f 21/21/2 20/20/2 22/22/2 23/23/2 
f 24/24/2 10/10/2 13/13/2 25/25/2 
f 25/25/2 13/13/2 15/15/2 26/26/2 
f 26/26/2 15/15/2 17/17/2 27/27/2 
f 27/27/2 17/17/2 19/19/2 28/28/2 
f 28/28/2 19/19/2 21/21/2 29/29/2 
f 29/29/2 21/21/2 23/23/2 30/30/2 
f 31/31/2 24/24/2 25/25/2 32/32/2 
f 32/32/2 25/25/2 26/26/2 33/33/2 
f 33/33/2 26/26/2 27/27/2 34/34/2 
f 34/34/2 27/27/2 28/28/2 35/35/2 
f 35/35/2 28/28/2 29/29/2 36/36/2 
f 36/36/2 29/29/2 30/30/2 37/37/2 
f 38/38/2 31/31/2 32/32/2 39/39/2 
f 39/39/2 32/32/2 33/33/2 40/40/2 
f 40/40/2 33/33/2 34/34/2 41/41/2 
f 41/41/2 34/34/2 35/35/2 42/42/2 
f 42/42/2 35/35/2 36/36/2 43/43/2 
f 43/43/2 36/36/2 37/37/2 44/44/2 
f 45/45/2 38/38/2 39/39/2 46/46/2 
f 46/46/2 39/39/2 40/40/2 47/47/2 
f 47/47/2 40/40/2 41/41/2 48/48/2 
f 48/48/2 41/41/2 42/42/2 49/49/2 
f 49/49/2 42/42/2 43/43/2 50/50/2 
f 50/50/2 43/43/2 44/44/2 51/51/2 
f 52/52/2 45/45/2 46/46/2 53/53/2 
f 53/53/2 46/46/2 47/47/2 54/54/2 
f 54/54/2 47/47/2 48/48/2 55/55/2 
f 55/55/2 48/48/2 49/49/2 56/56/2 
f 56/56/2 49/49/2 50/50/2 57/57/2 
f 57/57/2 50/50/2 51/51/2 58/58/2 
f 59/10/2 60/11/2 61/12/2 62/13/2 
f 62/13/2 61/12/2 63/14/2 64/15/2 
f 64/15/2 63/14/2 65/16/2 66/17/2 
f 66/17/2 65/16/2 67/18/2 68/19/2 
f 68/19/2 67/18/2 69/20/2 70/21/2 
f 70/21/2 69/20/2 11/22/2 10/23/2 
f 71/24/2 59/10/2 62/13/2 72/25/2 
f 72/25/2 62/13/2 64/15/2 73/26/2 
f 73/26/2 64/15/2 66/17/2 74/27/2 
f 74/27/2 66/17/2 68/19/2 75/28/2 
f 75/28/2 68/19/2 70/21/2 76/29/2 
f 76/29/2 70/21/2 10/23/2 24/30/2 
f 77/31/2 71/24/2 72/25/2 78/32/2 
f 78/32/2 72/25/2 73/26/2 79/33/2 
f 79/33/2 73/26/2 74/27/2 80/34/2 
f 80/34/2 74/27/2 75/28/2 81/35/2 
f 81/35/2 75/28/2 76/29/2 82/36/2 
f 82/36/2 76/29/2 24/30/2 31/37/2 
f 83/38/2 77/31/2 78/32/2 84/39/2 
f 84/39/2 78/32/2 79/33/2 85/40/2 
f 85/40/2 79/33/2 80/34/2 86/41/2 
f 86/41/2 80/34/2 81/35/2 87/42/2 
f 87/42/2 81/35/2 82/36/2 88/43/2 
f 88/43/2 82/36/2 31/37/2 38/44/2 
f 89/45/2 83/38/2 84/39/2 90/46/2 
f 90/46/2 84/39/2 85/40/2 91/47/2 
f 91/47/2 85/40/2 86/41/2 92/48/2 
f 92/48/2 86/41/2 87/42/2 93/49/2 
f 93/49/2 87/42/2 88/43/2 94/50/2 
f 94/50/2 88/43/2 38/44/2 45/51/2 
f 95/52/2 89/45/2 90/46/2 96/53/2 
f 96/53/2 90/46/2 91/47/2 97/54/2 
f 97/54/2 91/47/2 92/48/2 98/55/2 
f 98/55/2 92/48/2 93/49/2 99/56/2 
f 99/56/2 93/49/2 94/50/2 100/57/2 
f 100/57/2 94/50/2 45/51/2 52/58/2 
f 101/10/3 102/11/3 103/12/3 104/13/3 
f 104/13/3 103/12/3 105/14/3 106/15/3 
f 106/15/3 105/14/3 107/16/3 108/17/3 
f 108/17/3 107/16/3 109/18/3 110/19/3 
f 110/19/3 109/18/3 111/20/3 112/21/3 
f 113/24/3 101/10/3 104/13/3 114/25/3 
f 114/25/3 104/13/3 106/15/3 115/26/3 
f 115/26/3 106/15/3 108/17/3 116/27/3 
f 116/27/3 108/17/3 110/19/3 117/28/3 
f 117/28/3 110/19/3 112/21/3 118/29/3 
f 119/31/3 113/24/3 114/25/3 120/32/3 
f 120/32/3 114/25/3 115/26/3 121/33/3 
f 121/33/3 115/26/3 116/27/3 122/34/3 
f 122/34/3 116/27/3 117/28/3 123/35/3 
f 123/35/3 117/28/3 118/29/3 124/36/3 
f 125/38/3 119/31/3 120/32/3 126/39/3 
f 126/39/3 120/32/3 121/33/3 127/40/3 
f 127/40/3 121/33/3 122/34/3 128/41/3 
f 128/41/3 122/34/3 123/35/3 129/42/3 
f 129/42/3 123/35/3 124/36/3 130/43/3 
f 131/13/3 132/12/3 133/14/3 134/15/3 
f 134/15/3 133/14/3 135/16/3 136/17/3 
f 136/17/3 135/16/3 137/18/3 138/19/3 
f 138/19/3 137/18/3 139/20/3 140/21/3 
f 140/21/3 139/20/3 102/22/3 101/23/3 
f 141/25/3 131/13/3 134/15/3 142/26/3 
f 142/26/3 134/15/3 136/17/3 143/27/3 
f 143/27/3 136/17/3 138/19/3 144/28/3 
f 144/28/3 138/19/3 140/21/3 145/29/3 
f 145/29/3 140/21/3 101/23/3 113/30/3 
f 146/32/3 141/25/3 142/26/3 147/33/3 
f 147/33/3 142/26/3 143/27/3 148/34/3 
f 148/34/3 143/27/3 144/28/3 149/35/3 
f 149/35/3 144/28/3 145/29/3 150/36/3 
f 150/36/3 145/29/3 113/30/3 119/37/3 
f 151/39/3 146/32/3 147/33/3 152/40/3 
f 152/40/3 147/33/3 148/34/3 153/41/3 
f 153/41/3 148/34/3 149/35/3 154/42/3 
f 154/42/3 149/35/3 150/36/3 155/43/3 
f 155/43/3 150/36/3 119/37/3 125/44/3 
f 156/10/4 157/11/4 158/12/5 159/13/5 
f 159/13/5 158/12/5 160/14/6 161/15/6 
f 161/15/6 160/14/6 162/16/6 163/17/6 
f 163/17/6 162/16/6 164/18/7 165/19/6 
f 165/19/6 164/18/7 166/20/7 167/21/7 
f 167/21/7 166/20/7 168/22/6 169/23/7 
f 170/24/4 156/10/4 159/13/5 171/25/5 
f 171/25/5 159/13/5 161/15/6 172/26/6 
f 172/26/6 161/15/6 163/17/6 173/27/6 
f 173/27/6 163/17/6 165/19/6 174/28/6 
f 174/28/6 165/19/6 167/21/7 175/29/6 
f 175/29/6 167/21/7 169/23/7 176/30/6 
f 177/31/4 170/24/4 171/25/5 178/32/5 
f 178/32/5 171/25/5 172/26/6 179/33/6 
f 179/33/6 172/26/6 173/27/6 180/34/6 
f 180/34/6 173/27/6 174/28/6 181/35/6 
f 181/35/6 174/28/6 175/29/6 182/36/6 
f 182/36/6 175/29/6 176/30/6 183/37/6 
f 20/38/4 177/31/4 178/32/5 23/39/5 
f 23/39/5 178/32/5 179/33/6 30/40/6 
f 30/40/6 179/33/6 180/34/6 37/41/6 
f 37/41/6 180/34/6 181/35/6 44/42/6 
f 44/42/6 181/35/6 182/36/6 51/43/6 
f 51/43/6 182/36/6 183/37/6 58/44/6 
f 184/10/8 185/11/8 186/12/8 187/13/8 
f 187/13/8 186/12/8 188/14/8 189/15/8 
f 190/19/8 191/18/8 192/20/8 193/21/8 
f 193/21/8 192/20/8 194/22/8 195/23/8 
f 196/24/8 184/10/8 187/13/8 197/25/8 
f 197/25/8 187/13/8 189/15/8 198/26/8 
f 199/28/8 190/19/8 193/21/8 200/29/8 
f 200/29/8 193/21/8 195/23/8 201/30/8 
f 202/31/8 196/24/8 197/25/8 203/32/8 
f 203/32/8 197/25/8 198/26/8 204/33/8 
f 205/35/8 199/28/8 200/29/8 206/36/8 
f 206/36/8 200/29/8 201/30/8 207/37/8 
f 65/38/8 202/31/8 203/32/8 67/39/8 
f 67/39/8 203/32/8 204/33/8 69/40/8 
f 69/40/8 204/33/8 208/34/8 11/41/8 
f 11/41/8 208/34/8 205/35/8 12/42/8 
f 12/42/8 205/35/8 206/36/8 14/43/8 
f 14/43/8 206/36/8 207/37/8 16/44/8 
f 209/15/8 210/14/8 211/59/8 212/60/8 
f 213/26/8 209/15/8 212/60/8 214/61/8 
f 215/33/8 213/26/8 214/61/8 216/62/8 
f 217/34/8 218/27/8 219/63/8 220/64/8 
f 221/65/8 222/18/8 223/19/8 224/66/8 
f 224/66/8 223/19/8 225/28/8 219/63/8 
f 214/61/8 218/27/8 217/34/8 216/62/8 
f 219/63/8 225/28/8 226/35/8 220/64/8 
f 227/67/9 219/12/9 214/14/10 228/68/10 
f 228/67/10 214/12/10 212/14/11 229/68/11 
f 229/68/11 212/14/11 211/16/11 230/69/11 
f 231/68/6 221/14/6 224/16/6 232/69/6 
f 232/68/6 224/14/6 219/16/9 227/69/9 
f 233/13/9 205/12/9 208/14/2 234/15/2 
f 234/15/2 208/14/2 204/16/10 235/17/10 
f 235/13/10 204/12/10 198/14/11 236/15/11 
f 236/15/11 198/14/11 189/16/11 237/17/11 
f 237/15/11 189/14/11 188/16/12 238/17/12 
f 238/13/12 188/12/12 239/14/13 240/15/13 
f 240/15/13 239/14/13 191/16/14 241/17/14 
f 241/13/14 191/12/14 190/14/6 242/15/6 
f 242/15/6 190/14/6 199/16/6 243/17/6 
f 243/15/6 199/14/6 205/16/9 233/17/9 
f 244/10/15 245/11/15 246/12/16 247/13/17 
f 247/13/17 246/12/16 248/14/8 249/15/8 
f 249/15/8 248/14/8 185/16/8 184/17/8 
f 250/24/15 244/10/15 247/13/17 251/25/17 
f 251/25/17 247/13/17 249/15/8 252/26/8 
f 252/26/8 249/15/8 184/17/8 196/27/8 
f 253/31/15 250/24/15 251/25/17 254/32/17 
f 254/32/17 251/25/17 252/26/8 255/33/8 
f 255/33/8 252/26/8 196/27/8 202/34/8 
f 59/38/15 253/31/15 254/32/17 61/39/17 
f 61/39/17 254/32/17 255/33/8 63/40/8 
f 63/40/8 255/33/8 202/34/8 65/41/8 
f 195/17/8 194/16/8 256/18/8 257/19/8 
f 257/19/8 256/18/8 157/20/8 156/21/8 
f 201/27/8 195/17/8 257/19/8 258/28/8 
f 258/28/8 257/19/8 156/21/8 170/29/8 
f 207/34/8 201/27/8 258/28/8 259/35/8 
f 259/35/8 258/28/8 170/29/8 177/36/8 
f 16/41/8 207/34/8 259/35/8 18/42/8 
f 18/42/8 259/35/8 177/36/8 20/43/8 
f 158/10/13 260/11/13 157/12/13 261/13/13 
f 261/13/13 157/12/13 256/14/13 262/15/13 
f 262/15/13 256/14/13 194/16/18 263/17/18 
f 263/17/18 194/16/18 192/18/13 264/19/13 
f 264/19/13 192/18/13 191/20/13 265/21/13 
f 265/21/13 191/20/13 239/22/13 266/23/13 
f 160/24/13 158/10/13 261/13/13 267/25/13 
f 267/25/13 261/13/13 262/15/13 268/26/13 
f 268/26/13 262/15/13 263/17/18 269/27/18 
f 269/27/18 263/17/18 264/19/13 270/28/13 
f 270/28/13 264/19/13 265/21/13 271/29/13 
f 271/29/13 265/21/13 266/23/13 272/30/13 
f 162/31/13 160/24/13 267/25/13 273/32/13 
f 273/32/13 267/25/13 268/26/13 274/33/13 
f 274/33/13 268/26/13 269/27/18 275/34/18 
f 275/34/18 269/27/18 270/28/13 276/35/13 
f 276/35/13 270/28/13 271/29/13 277/36/13 
f 277/36/13 271/29/13 272/30/13 278/37/13 
f 164/38/13 162/31/13 273/32/13 279/39/13 
f 279/39/13 273/32/13 274/33/13 280/40/13 
f 280/40/13 274/33/13 275/34/18 281/41/18 
f 281/41/18 275/34/18 276/35/13 282/42/13 
f 282/42/13 276/35/13 277/36/13 283/43/13 
f 283/43/13 277/36/13 278/37/13 284/44/13 
f 166/45/13 164/38/13 279/39/13 285/46/13 
f 285/46/13 279/39/13 280/40/13 286/47/13 
f 286/47/13 280/40/13 281/41/18 287/48/18 
f 287/48/18 281/41/18 282/42/13 288/49/13 
f 288/49/13 282/42/13 283/43/13 289/50/13 
f 289/50/13 283/43/13 284/44/13 290/51/13 
f 168/52/13 166/45/13 285/46/13 291/53/13 
f 291/53/13 285/46/13 286/47/13 292/54/13 
f 292/54/13 286/47/13 287/48/18 293/55/18 
f 293/55/18 287/48/18 288/49/13 294/56/13 
f 294/56/13 288/49/13 289/50/13 295/57/13 
f 295/57/13 289/50/13 290/51/13 296/58/13 
f 266/10/18 239/11/18 188/12/13 297/13/13 
f 297/13/13 188/12/13 186/14/13 298/15/13 
f 298/15/13 186/14/13 185/16/18 299/17/18 
f 299/17/18 185/16/18 248/18/13 300/19/13 
f 300/19/13 248/18/13 246/20/13 301/21/13 
f 301/21/13 246/20/13 302/22/13 245/23/13 
f 272/24/18 266/10/18 297/13/13 303/25/13 
f 303/25/13 297/13/13 298/15/13 304/26/13 
f 304/26/13 298/15/13 299/17/18 305/27/18 
f 305/27/18 299/17/18 300/19/13 306/28/13 
f 306/28/13 300/19/13 301/21/13 307/29/13 
f 307/29/13 301/21/13 245/23/13 308/30/13 
f 278/31/18 272/24/18 303/25/13 309/32/13 
f 309/32/13 303/25/13 304/26/13 310/33/13 
f 310/33/13 304/26/13 305/27/18 311/34/18 
f 311/34/18 305/27/18 306/28/13 312/35/13 
f 312/35/13 306/28/13 307/29/13 313/36/13 
f 313/36/13 307/29/13 308/30/13 314/37/13 
f 284/38/18 278/31/18 309/32/13 315/39/13 
f 315/39/13 309/32/13 310/33/13 316/40/13 
f 316/40/13 310/33/13 311/34/18 317/41/18 
f 317/41/18 311/34/18 312/35/13 318/42/13 
f 318/42/13 312/35/13 313/36/13 319/43/13 
f 319/43/13 313/36/13 314/37/13 320/44/13 
f 290/45/18 284/38/18 315/39/13 321/46/13 
f 321/46/13 315/39/13 316/40/13 322/47/13 
f 322/47/13 316/40/13 317/41/18 323/48/18 
f 323/48/18 317/41/18 318/42/13 324/49/13 
f 324/49/13 318/42/13 319/43/13 325/50/13 
f 325/50/13 319/43/13 320/44/13 326/51/13 
f 296/52/18 290/45/18 321/46/13 327/53/13 
f 327/53/13 321/46/13 322/47/13 328/54/13 
f 328/54/13 322/47/13 323/48/18 329/55/18 
f 329/55/18 323/48/18 324/49/13 330/56/13 
f 330/56/13 324/49/13 325/50/13 331/57/13 
f 331/57/13 325/50/13 326/51/13 332/58/13 
f 333/10/19 332/11/19 326/12/19 334/13/19 
f 334/13/19 326/12/19 320/14/19 335/15/19 
f 335/15/19 320/14/19 314/16/19 336/17/19 
f 336/17/19 314/16/19 308/18/19 337/19/19 
f 337/19/19 308/18/19 245/20/19 244/21/19 
f 338/24/11 333/10/19 334/13/19 339/25/11 
f 339/25/11 334/13/19 335/15/19 340/26/11 
f 340/26/11 335/15/19 336/17/19 341/27/11 
f 341/27/11 336/17/19 337/19/19 342/28/11 
f 342/28/11 337/19/19 244/21/19 250/29/11 
f 343/31/11 338/24/11 339/25/11 344/32/11 
f 344/32/11 339/25/11 340/26/11 345/33/11 
f 345/33/11 340/26/11 341/27/11 346/34/11 
f 346/34/11 341/27/11 342/28/11 347/35/11 
f 347/35/11 342/28/11 250/29/11 253/36/11 
f 95/38/11 343/31/11 344/32/11 89/39/11 
f 89/39/11 344/32/11 345/33/11 83/40/11 
f 83/40/11 345/33/11 346/34/11 77/41/11 
f 77/41/11 346/34/11 347/35/11 71/42/11 
f 71/42/11 347/35/11 253/36/11 59/43/11 
f 348/10/13 168/11/13 291/12/13 349/13/13 
f 349/13/13 291/12/13 292/14/13 350/15/13 
f 350/15/13 292/14/13 293/16/18 351/17/18 
f 351/17/18 293/16/18 294/18/13 352/19/13 
f 352/19/13 294/18/13 295/20/13 353/21/13 
f 353/21/13 295/20/13 296/22/13 354/23/13 
f 355/24/13 348/10/13 349/13/13 356/25/13 
f 356/25/13 349/13/13 350/15/13 357/26/13 
f 357/26/13 350/15/13 351/17/18 358/27/18 
f 358/27/18 351/17/18 352/19/13 359/28/13 
f 359/28/13 352/19/13 353/21/13 360/29/13 
f 360/29/13 353/21/13 354/23/13 361/30/13 
f 362/31/13 355/24/13 356/25/13 363/32/13 
f 363/32/13 356/25/13 357/26/13 364/33/13 
f 364/33/13 357/26/13 358/27/18 365/34/18 
f 365/34/18 358/27/18 359/28/13 366/35/13 
f 366/35/13 359/28/13 360/29/13 367/36/13 
f 367/36/13 360/29/13 361/30/13 368/37/13 
f 369/38/13 362/31/13 363/32/13 370/39/13 
f 370/39/13 363/32/13 364/33/13 371/40/13 
f 371/40/13 364/33/13 365/34/18 372/41/18 
f 372/41/18 365/34/18 366/35/13 373/42/13 
f 373/42/13 366/35/13 367/36/13 374/43/13 
f 374/43/13 367/36/13 368/37/13 375/44/13 
f 376/45/13 369/38/13 370/39/13 377/46/13 
f 377/46/13 370/39/13 371/40/13 378/47/13 
f 378/47/13 371/40/13 372/41/18 379/48/18 
f 379/48/18 372/41/18 373/42/13 380/49/13 
f 380/49/13 373/42/13 374/43/13 381/50/13 
f 381/50/13 374/43/13 375/44/13 382/51/13 
f 383/52/13 376/45/13 377/46/13 132/53/13 
f 132/53/13 377/46/13 378/47/13 133/54/13 
f 133/54/13 378/47/13 379/48/18 135/55/18 
f 135/55/18 379/48/18 380/49/13 137/56/13 
f 137/56/13 380/49/13 381/50/13 139/57/13 
f 139/57/13 381/50/13 382/51/13 102/58/13 
f 354/10/18 296/11/18 327/12/13 384/13/13 
f 384/13/13 327/12/13 328/14/13 385/15/13 
f 385/15/13 328/14/13 329/16/18 386/17/18 
f 386/17/18 329/16/18 330/18/13 387/19/13 
f 387/19/13 330/18/13 331/20/13 388/21/13 
f 388/21/13 331/20/13 332/22/13 389/23/13 
f 361/24/18 354/10/18 384/13/13 390/25/13 
f 390/25/13 384/13/13 385/15/13 391/26/13 
f 391/26/13 385/15/13 386/17/18 392/27/18 
f 392/27/18 386/17/18 387/19/13 393/28/13 
f 393/28/13 387/19/13 388/21/13 394/29/13 
f 394/29/13 388/21/13 389/23/13 395/30/13 
f 368/31/18 361/24/18 390/25/13 396/32/13 
f 396/32/13 390/25/13 391/26/13 397/33/13 
f 397/33/13 391/26/13 392/27/18 398/34/18 
f 398/34/18 392/27/18 393/28/13 399/35/13 
f 399/35/13 393/28/13 394/29/13 400/36/13 
f 400/36/13 394/29/13 395/30/13 401/37/13 
f 375/38/18 368/31/18 396/32/13 402/39/13 
f 402/39/13 396/32/13 397/33/13 403/40/13 
f 403/40/13 397/33/13 398/34/18 404/41/18 
f 404/41/18 398/34/18 399/35/13 405/42/13 
f 405/42/13 399/35/13 400/36/13 406/43/13 
f 406/43/13 400/36/13 401/37/13 407/44/13 
f 382/45/18 375/38/18 402/39/13 408/46/13 
f 408/46/13 402/39/13 403/40/13 409/47/13 
f 409/47/13 403/40/13 404/41/18 410/48/18 
f 410/48/18 404/41/18 405/42/13 411/49/13 
f 411/49/13 405/42/13 406/43/13 412/50/13 
f 412/50/13 406/43/13 407/44/13 413/51/13 
f 102/52/18 382/45/18 408/46/13 103/53/13 
f 103/53/13 408/46/13 409/47/13 105/54/13 
f 105/54/13 409/47/13 410/48/18 107/55/18 
f 107/55/18 410/48/18 411/49/13 109/56/13 
f 109/56/13 411/49/13 412/50/13 111/57/13 
f 111/57/13 412/50/13 413/51/13 414/58/13 
f 415/10/2 52/11/2 53/12/2 416/13/2 
f 416/13/2 53/12/2 54/14/2 417/15/2 
f 417/15/2 54/14/2 55/16/2 418/17/2 
f 418/17/2 55/16/2 56/18/2 419/19/2 
f 419/19/2 56/18/2 57/20/2 420/21/2 
f 420/21/2 57/20/2 58/22/2 421/23/2 
f 422/24/2 415/10/2 416/13/2 423/25/2 
f 423/25/2 416/13/2 417/15/2 424/26/2 
f 424/26/2 417/15/2 418/17/2 425/27/2 
f 425/27/2 418/17/2 419/19/2 426/28/2 
f 426/28/2 419/19/2 420/21/2 427/29/2 
f 427/29/2 420/21/2 421/23/2 428/30/2 
f 429/31/2 422/24/2 423/25/2 430/32/2 
f 430/32/2 423/25/2 424/26/2 431/33/2 
f 431/33/2 424/26/2 425/27/2 432/34/2 
f 432/34/2 425/27/2 426/28/2 433/35/2 
f 433/35/2 426/28/2 427/29/2 434/36/2 
f 434/36/2 427/29/2 428/30/2 435/37/2 
f 436/38/2 429/31/2 430/32/2 437/39/2 
f 437/39/2 430/32/2 431/33/2 438/40/2 
f 438/40/2 431/33/2 432/34/2 439/41/2 
f 439/41/2 432/34/2 433/35/2 440/42/2 
f 440/42/2 433/35/2 434/36/2 441/43/2 
f 441/43/2 434/36/2 435/37/2 442/44/2 
f 443/45/2 436/38/2 437/39/2 444/46/2 
f 444/46/2 437/39/2 438/40/2 445/47/2 
f 445/47/2 438/40/2 439/41/2 446/48/2 
f 446/48/2 439/41/2 440/42/2 447/49/2 
f 447/49/2 440/42/2 441/43/2 448/50/2 
f 448/50/2 441/43/2 442/44/2 449/51/2 
f 125/52/2 443/45/2 444/46/2 155/53/2 
f 155/53/2 444/46/2 445/47/2 154/54/2 
f 154/54/2 445/47/2 446/48/2 153/55/2 
f 153/55/2 446/48/2 447/49/2 152/56/2 
f 152/56/2 447/49/2 448/50/2 151/57/2 
f 151/57/2 448/50/2 449/51/2 450/58/2 
f 451/10/2 95/11/2 96/12/2 452/13/2 
f 452/13/2 96/12/2 97/14/2 453/15/2 
f 453/15/2 97/14/2 98/16/2 454/17/2 
f 454/17/2 98/16/2 99/18/2 455/19/2 
f 455/19/2 99/18/2 100/20/2 456/21/2 
f 456/21/2 100/20/2 52/22/2 415/23/2 
f 457/24/2 451/10/2 452/13/2 458/25/2 
f 458/25/2 452/13/2 453/15/2 459/26/2 
f 459/26/2 453/15/2 454/17/2 460/27/2 
f 460/27/2 454/17/2 455/19/2 461/28/2 
f 461/28/2 455/19/2 456/21/2 462/29/2 
f 462/29/2 456/21/2 415/23/2 422/30/2 
f 463/31/2 457/24/2 458/25/2 464/32/2 
f 464/32/2 458/25/2 459/26/2 465/33/2 
f 465/33/2 459/26/2 460/27/2 466/34/2 
f 466/34/2 460/27/2 461/28/2 467/35/2 
f 467/35/2 461/28/2 462/29/2 468/36/2 
f 468/36/2 462/29/2 422/30/2 429/37/2 
f 469/38/2 463/31/2 464/32/2 470/39/2 
f 470/39/2 464/32/2 465/33/2 471/40/2 
f 471/40/2 465/33/2 466/34/2 472/41/2 
f 472/41/2 466/34/2 467/35/2 473/42/2 
f 473/42/2 467/35/2 468/36/2 474/43/2 
f 474/43/2 468/36/2 429/37/2 436/44/2 
f 475/45/2 469/38/2 470/39/2 476/46/2 
f 476/46/2 470/39/2 471/40/2 477/47/2 
f 477/47/2 471/40/2 472/41/2 478/48/2 
f 478/48/2 472/41/2 473/42/2 479/49/2 
f 479/49/2 473/42/2 474/43/2 480/50/2 
f 480/50/2 474/43/2 436/44/2 443/51/2 
f 481/52/2 475/45/2 476/46/2 130/53/2 
f 130/53/2 476/46/2 477/47/2 129/54/2 
f 129/54/2 477/47/2 478/48/2 128/55/2 
f 128/55/2 478/48/2 479/49/2 127/56/2 
f 127/56/2 479/49/2 480/50/2 126/57/2 
f 126/57/2 480/50/2 443/51/2 125/58/2 
f 169/10/6 168/11/6 348/12/6 482/13/6 
f 482/13/6 348/12/6 355/14/6 483/15/6 
f 483/15/6 355/14/6 362/16/6 484/17/6 
f 484/17/6 362/16/6 369/18/6 485/19/6 
f 485/19/6 369/18/6 376/20/20 486/21/21 
f 486/21/21 376/20/20 132/22/22 131/23/22 
f 176/24/6 169/10/6 482/13/6 487/25/6 
f 487/25/6 482/13/6 483/15/6 488/26/6 
f 488/26/6 483/15/6 484/17/6 489/27/6 
f 489/27/6 484/17/6 485/19/6 490/28/6 
f 490/28/6 485/19/6 486/21/21 491/29/21 
f 491/29/21 486/21/21 131/23/22 141/30/22 
f 183/31/6 176/24/6 487/25/6 492/32/6 
f 492/32/6 487/25/6 488/26/6 493/33/6 
f 493/33/6 488/26/6 489/27/6 494/34/6 
f 494/34/6 489/27/6 490/28/6 495/35/6 
f 495/35/6 490/28/6 491/29/21 496/36/21 
f 496/36/21 491/29/21 141/30/22 146/37/22 
f 58/38/6 183/31/6 492/32/6 421/39/6 
f 421/39/6 492/32/6 493/33/6 428/40/6 
f 428/40/6 493/33/6 494/34/6 435/41/6 
f 435/41/6 494/34/6 495/35/6 442/42/6 
f 442/42/6 495/35/6 496/36/21 449/43/21 
f 449/43/21 496/36/21 146/37/22 151/44/22 
f 112/10/23 111/11/23 413/12/24 497/13/24 
f 497/13/24 413/12/24 407/14/11 498/15/11 
f 498/15/11 407/14/11 401/16/11 499/17/11 
f 499/17/11 401/16/11 395/18/11 500/19/11 
f 500/19/11 395/18/11 389/20/11 501/21/11 
f 501/21/11 389/20/11 332/22/11 333/23/11 
f 118/24/23 112/10/23 497/13/24 502/25/24 
f 502/25/24 497/13/24 498/15/11 503/26/11 
f 503/26/11 498/15/11 499/17/11 504/27/11 
f 504/27/11 499/17/11 500/19/11 505/28/11 
f 505/28/11 500/19/11 501/21/11 506/29/11 
f 506/29/11 501/21/11 333/23/11 338/30/11 
f 124/31/23 118/24/23 502/25/24 507/32/24 
f 507/32/24 502/25/24 503/26/11 508/33/11 
f 508/33/11 503/26/11 504/27/11 509/34/11 
f 509/34/11 504/27/11 505/28/11 510/35/11 
f 510/35/11 505/28/11 506/29/11 511/36/11 
f 511/36/11 506/29/11 338/30/11 343/37/11 
f 130/38/23 124/31/23 507/32/24 475/39/25 
f 475/39/25 507/32/24 508/33/11 469/40/11 
f 469/40/11 508/33/11 509/34/11 463/41/11 
f 463/41/11 509/34/11 510/35/11 457/42/11 
f 457/42/11 510/35/11 511/36/11 451/43/11 
f 451/43/11 511/36/11 343/37/11 95/44/11 
# 481 polygons

