%YAML 1.1
%TAG !u! tag:unity3d.com,2011:
--- !u!1001 &3839334718846149933
PrefabInstance:
  m_ObjectHideFlags: 0
  serializedVersion: 2
  m_Modification:
    m_TransformParent: {fileID: 0}
    m_Modifications:
    - target: {fileID: 379819888195205089, guid: 41ae806b6bfd2444aa73f08d612feb9c,
        type: 3}
      propertyPath: m_Name
      value: Pathway (DISABLED)
      objectReference: {fileID: 0}
    - target: {fileID: 379819888195205089, guid: 41ae806b6bfd2444aa73f08d612feb9c,
        type: 3}
      propertyPath: m_IsActive
      value: 0
      objectReference: {fileID: 0}
    - target: {fileID: 1024707758301503376, guid: 41ae806b6bfd2444aa73f08d612feb9c,
        type: 3}
      propertyPath: m_Size.y
      value: 8.134279
      objectReference: {fileID: 0}
    - target: {fileID: 1024707758301503376, guid: 41ae806b6bfd2444aa73f08d612feb9c,
        type: 3}
      propertyPath: m_Center.x
      value: 1.9526453
      objectReference: {fileID: 0}
    - target: {fileID: 1024707758301503376, guid: 41ae806b6bfd2444aa73f08d612feb9c,
        type: 3}
      propertyPath: m_Center.y
      value: -0.2267189
      objectReference: {fileID: 0}
    - target: {fileID: 1497495544179100551, guid: 41ae806b6bfd2444aa73f08d612feb9c,
        type: 3}
      propertyPath: m_LocalPosition.x
      value: 3.524
      objectReference: {fileID: 0}
    - target: {fileID: 1497495544179100551, guid: 41ae806b6bfd2444aa73f08d612feb9c,
        type: 3}
      propertyPath: m_LocalPosition.y
      value: -0.99994004
      objectReference: {fileID: 0}
    - target: {fileID: 1497495544179100551, guid: 41ae806b6bfd2444aa73f08d612feb9c,
        type: 3}
      propertyPath: m_LocalPosition.z
      value: -2.968
      objectReference: {fileID: 0}
    - target: {fileID: 1497495544179100551, guid: 41ae806b6bfd2444aa73f08d612feb9c,
        type: 3}
      propertyPath: m_LocalRotation.w
      value: 0.9984557
      objectReference: {fileID: 0}
    - target: {fileID: 1497495544179100551, guid: 41ae806b6bfd2444aa73f08d612feb9c,
        type: 3}
      propertyPath: m_LocalRotation.y
      value: 0.055553444
      objectReference: {fileID: 0}
    - target: {fileID: 1497495544179100551, guid: 41ae806b6bfd2444aa73f08d612feb9c,
        type: 3}
      propertyPath: m_LocalEulerAnglesHint.y
      value: 6.3690004
      objectReference: {fileID: 0}
    - target: {fileID: 1761910850521414091, guid: 41ae806b6bfd2444aa73f08d612feb9c,
        type: 3}
      propertyPath: m_LocalPosition.z
      value: 0
      objectReference: {fileID: 0}
    - target: {fileID: 3357382375170365371, guid: 41ae806b6bfd2444aa73f08d612feb9c,
        type: 3}
      propertyPath: m_Name
      value: room_small Variant (Item Room)
      objectReference: {fileID: 0}
    - target: {fileID: 3357382375170365372, guid: 41ae806b6bfd2444aa73f08d612feb9c,
        type: 3}
      propertyPath: m_RootOrder
      value: 0
      objectReference: {fileID: 0}
    - target: {fileID: 3357382375170365372, guid: 41ae806b6bfd2444aa73f08d612feb9c,
        type: 3}
      propertyPath: m_LocalPosition.x
      value: 0
      objectReference: {fileID: 0}
    - target: {fileID: 3357382375170365372, guid: 41ae806b6bfd2444aa73f08d612feb9c,
        type: 3}
      propertyPath: m_LocalPosition.y
      value: 0
      objectReference: {fileID: 0}
    - target: {fileID: 3357382375170365372, guid: 41ae806b6bfd2444aa73f08d612feb9c,
        type: 3}
      propertyPath: m_LocalPosition.z
      value: 0
      objectReference: {fileID: 0}
    - target: {fileID: 3357382375170365372, guid: 41ae806b6bfd2444aa73f08d612feb9c,
        type: 3}
      propertyPath: m_LocalRotation.w
      value: 1
      objectReference: {fileID: 0}
    - target: {fileID: 3357382375170365372, guid: 41ae806b6bfd2444aa73f08d612feb9c,
        type: 3}
      propertyPath: m_LocalRotation.x
      value: -0
      objectReference: {fileID: 0}
    - target: {fileID: 3357382375170365372, guid: 41ae806b6bfd2444aa73f08d612feb9c,
        type: 3}
      propertyPath: m_LocalRotation.y
      value: -0
      objectReference: {fileID: 0}
    - target: {fileID: 3357382375170365372, guid: 41ae806b6bfd2444aa73f08d612feb9c,
        type: 3}
      propertyPath: m_LocalRotation.z
      value: -0
      objectReference: {fileID: 0}
    - target: {fileID: 3357382375170365372, guid: 41ae806b6bfd2444aa73f08d612feb9c,
        type: 3}
      propertyPath: m_LocalEulerAnglesHint.x
      value: 0
      objectReference: {fileID: 0}
    - target: {fileID: 3357382375170365372, guid: 41ae806b6bfd2444aa73f08d612feb9c,
        type: 3}
      propertyPath: m_LocalEulerAnglesHint.y
      value: 0
      objectReference: {fileID: 0}
    - target: {fileID: 3357382375170365372, guid: 41ae806b6bfd2444aa73f08d612feb9c,
        type: 3}
      propertyPath: m_LocalEulerAnglesHint.z
      value: 0
      objectReference: {fileID: 0}
    - target: {fileID: 3730474366036947889, guid: 41ae806b6bfd2444aa73f08d612feb9c,
        type: 3}
      propertyPath: pathWays.Array.size
      value: 1
      objectReference: {fileID: 0}
    - target: {fileID: 3730474366036947889, guid: 41ae806b6bfd2444aa73f08d612feb9c,
        type: 3}
      propertyPath: pathWays.Array.data[0]
      value: 
      objectReference: {fileID: 2645014706624343752}
    - target: {fileID: 4208676332475527365, guid: 41ae806b6bfd2444aa73f08d612feb9c,
        type: 3}
      propertyPath: m_LocalPosition.x
      value: 3.3478732
      objectReference: {fileID: 0}
    - target: {fileID: 4208676332475527365, guid: 41ae806b6bfd2444aa73f08d612feb9c,
        type: 3}
      propertyPath: m_LocalPosition.z
      value: -3.498169
      objectReference: {fileID: 0}
    - target: {fileID: 4208676332475527365, guid: 41ae806b6bfd2444aa73f08d612feb9c,
        type: 3}
      propertyPath: m_LocalRotation.w
      value: 0.7630699
      objectReference: {fileID: 0}
    - target: {fileID: 4208676332475527365, guid: 41ae806b6bfd2444aa73f08d612feb9c,
        type: 3}
      propertyPath: m_LocalRotation.y
      value: -0.64631593
      objectReference: {fileID: 0}
    - target: {fileID: 4208676332475527365, guid: 41ae806b6bfd2444aa73f08d612feb9c,
        type: 3}
      propertyPath: m_LocalEulerAnglesHint.y
      value: -80.52901
      objectReference: {fileID: 0}
    - target: {fileID: 5190989299054589094, guid: 41ae806b6bfd2444aa73f08d612feb9c,
        type: 3}
      propertyPath: m_Name
      value: Pathway
      objectReference: {fileID: 0}
    - target: {fileID: 5190989299054589094, guid: 41ae806b6bfd2444aa73f08d612feb9c,
        type: 3}
      propertyPath: m_IsActive
      value: 1
      objectReference: {fileID: 0}
    m_RemovedComponents: []
  m_SourcePrefab: {fileID: 100100000, guid: 41ae806b6bfd2444aa73f08d612feb9c, type: 3}
--- !u!4 &2008570175037239953 stripped
Transform:
  m_CorrespondingSourceObject: {fileID: 3357382375170365372, guid: 41ae806b6bfd2444aa73f08d612feb9c,
    type: 3}
  m_PrefabInstance: {fileID: 3839334718846149933}
  m_PrefabAsset: {fileID: 0}
--- !u!114 &2645014706624343752 stripped
MonoBehaviour:
  m_CorrespondingSourceObject: {fileID: 1296179388565490661, guid: 41ae806b6bfd2444aa73f08d612feb9c,
    type: 3}
  m_PrefabInstance: {fileID: 3839334718846149933}
  m_PrefabAsset: {fileID: 0}
  m_GameObject: {fileID: 0}
  m_Enabled: 1
  m_EditorHideFlags: 0
  m_Script: {fileID: 11500000, guid: e99ae58be9ce0e545bc4c3ad8fee5074, type: 3}
  m_Name: 
  m_EditorClassIdentifier: 
--- !u!1001 &6754108913186014384
PrefabInstance:
  m_ObjectHideFlags: 0
  serializedVersion: 2
  m_Modification:
    m_TransformParent: {fileID: 2008570175037239953}
    m_Modifications:
    - target: {fileID: 3071211892906891577, guid: 6d5bb3458abf36b4595d454a6e7090c2,
        type: 3}
      propertyPath: m_RootOrder
      value: 2
      objectReference: {fileID: 0}
    - target: {fileID: 3071211892906891577, guid: 6d5bb3458abf36b4595d454a6e7090c2,
        type: 3}
      propertyPath: m_LocalPosition.x
      value: -0.000002861
      objectReference: {fileID: 0}
    - target: {fileID: 3071211892906891577, guid: 6d5bb3458abf36b4595d454a6e7090c2,
        type: 3}
      propertyPath: m_LocalPosition.y
      value: -0.0010106
      objectReference: {fileID: 0}
    - target: {fileID: 3071211892906891577, guid: 6d5bb3458abf36b4595d454a6e7090c2,
        type: 3}
      propertyPath: m_LocalPosition.z
      value: 4.501
      objectReference: {fileID: 0}
    - target: {fileID: 3071211892906891577, guid: 6d5bb3458abf36b4595d454a6e7090c2,
        type: 3}
      propertyPath: m_LocalRotation.w
      value: 0.70710784
      objectReference: {fileID: 0}
    - target: {fileID: 3071211892906891577, guid: 6d5bb3458abf36b4595d454a6e7090c2,
        type: 3}
      propertyPath: m_LocalRotation.x
      value: -0
      objectReference: {fileID: 0}
    - target: {fileID: 3071211892906891577, guid: 6d5bb3458abf36b4595d454a6e7090c2,
        type: 3}
      propertyPath: m_LocalRotation.y
      value: 0.7071058
      objectReference: {fileID: 0}
    - target: {fileID: 3071211892906891577, guid: 6d5bb3458abf36b4595d454a6e7090c2,
        type: 3}
      propertyPath: m_LocalRotation.z
      value: -0
      objectReference: {fileID: 0}
    - target: {fileID: 3071211892906891577, guid: 6d5bb3458abf36b4595d454a6e7090c2,
        type: 3}
      propertyPath: m_LocalEulerAnglesHint.x
      value: 0
      objectReference: {fileID: 0}
    - target: {fileID: 3071211892906891577, guid: 6d5bb3458abf36b4595d454a6e7090c2,
        type: 3}
      propertyPath: m_LocalEulerAnglesHint.y
      value: 90.00001
      objectReference: {fileID: 0}
    - target: {fileID: 3071211892906891577, guid: 6d5bb3458abf36b4595d454a6e7090c2,
        type: 3}
      propertyPath: m_LocalEulerAnglesHint.z
      value: 0
      objectReference: {fileID: 0}
    - target: {fileID: 3382180338206885109, guid: 6d5bb3458abf36b4595d454a6e7090c2,
        type: 3}
      propertyPath: m_Name
      value: door_temporary_will_delete_later_BROKEN
      objectReference: {fileID: 0}
    - target: {fileID: 4439282640048217747, guid: 6d5bb3458abf36b4595d454a6e7090c2,
        type: 3}
      propertyPath: m_LocalPosition.z
      value: 0
      objectReference: {fileID: 0}
    - target: {fileID: 9192354247235506811, guid: 6d5bb3458abf36b4595d454a6e7090c2,
        type: 3}
      propertyPath: rootObj
      value: 
      objectReference: {fileID: 2008570175037239953}
    - target: {fileID: 9192354247235506811, guid: 6d5bb3458abf36b4595d454a6e7090c2,
        type: 3}
      propertyPath: pathWays.Array.size
      value: 1
      objectReference: {fileID: 0}
    - target: {fileID: 9192354247235506811, guid: 6d5bb3458abf36b4595d454a6e7090c2,
        type: 3}
      propertyPath: pathWays.Array.data[0]
      value: 
      objectReference: {fileID: 2645014706624343752}
    m_RemovedComponents: []
  m_SourcePrefab: {fileID: 100100000, guid: 6d5bb3458abf36b4595d454a6e7090c2, type: 3}
