# 3ds Max Wavefront OBJ Exporter v0.97b - (c)2007 guruware
# File Created: 14.01.2021 21:25:35

#
# object floor_diagonal040
#

v  3.0000 -2.0000 -0.0000
v  4.0000 -2.0000 0.0000
v  4.0000 -2.0000 -1.0000
v  3.0000 -2.0000 -1.0000
v  4.0000 -2.0000 -2.0000
v  3.0000 -2.0000 -2.0000
v  4.0000 -2.0000 -3.0000
v  3.0000 -2.0000 -3.0000
v  4.0000 -2.0000 -4.0000
v  3.0000 -2.0000 -4.0000
v  2.0000 -2.0000 -0.0000
v  2.0000 -2.0000 -1.0000
v  2.0000 -2.0000 -2.0000
v  2.0000 -2.0000 -3.0000
v  2.0000 -2.0000 -4.0000
v  1.0000 -2.0000 -0.0000
v  1.0000 -2.0000 -1.0000
v  1.0000 -2.0000 -2.0000
v  1.0000 -2.0000 -3.0000
v  1.0000 -2.0000 -4.0000
v  -0.0000 -2.0000 -0.0000
v  -0.0000 -2.0000 -1.0000
v  -0.0000 -2.0000 -2.0000
v  -0.0000 -2.0000 -3.0000
v  -0.0000 -2.0000 -4.0000
v  3.0000 -2.0000 4.0000
v  4.0000 -2.0000 4.0000
v  4.0000 -2.0000 3.0000
v  3.0000 -2.0000 3.0000
v  4.0000 -2.0000 2.0000
v  3.0000 -2.0000 2.0000
v  4.0000 -2.0000 1.0000
v  3.0000 -2.0000 1.0000
v  2.0000 -2.0000 4.0000
v  2.0000 -2.0000 3.0000
v  2.0000 -2.0000 2.0000
v  2.0000 -2.0000 1.0000
v  1.0000 -2.0000 4.0000
v  1.0000 -2.0000 3.0000
v  1.0000 -2.0000 2.0000
v  1.0000 -2.0000 1.0000
v  -0.0000 -2.0000 4.0000
v  -0.0000 -2.0000 3.0000
v  -0.0000 -2.0000 2.0000
v  -0.0000 -2.0000 1.0000
# 45 vertices

vn 0.0000 1.0000 -0.0000
# 1 vertex normals

vt 0.0000 0.2500 0.0000
vt 0.0000 0.0000 0.0000
vt 0.2500 0.0000 0.0000
vt 0.2500 0.2500 0.0000
vt 0.5000 0.0000 0.0000
vt 0.5000 0.2500 0.0000
vt 0.7500 0.0000 0.0000
vt 0.7500 0.2500 0.0000
vt 1.0000 0.0000 0.0000
vt 1.0000 0.2500 0.0000
vt 0.0000 0.5000 0.0000
vt 0.2500 0.5000 0.0000
vt 0.5000 0.5000 0.0000
vt 0.7500 0.5000 0.0000
vt 1.0000 0.5000 0.0000
vt 0.0000 0.7500 0.0000
vt 0.2500 0.7500 0.0000
vt 0.5000 0.7500 0.0000
vt 0.7500 0.7500 0.0000
vt 1.0000 0.7500 0.0000
vt 0.0000 1.0000 0.0000
vt 0.2500 1.0000 0.0000
vt 0.5000 1.0000 0.0000
vt 0.7500 1.0000 0.0000
vt 1.0000 1.0000 0.0000
# 25 texture coords

o floor_diagonal040
g floor_diagonal040
f 1/1/1 2/2/1 3/3/1 4/4/1 
f 4/4/1 3/3/1 5/5/1 6/6/1 
f 6/6/1 5/5/1 7/7/1 8/8/1 
f 8/8/1 7/7/1 9/9/1 10/10/1 
f 11/11/1 1/1/1 4/4/1 12/12/1 
f 12/12/1 4/4/1 6/6/1 13/13/1 
f 13/13/1 6/6/1 8/8/1 14/14/1 
f 14/14/1 8/8/1 10/10/1 15/15/1 
f 16/16/1 11/11/1 12/12/1 17/17/1 
f 17/17/1 12/12/1 13/13/1 18/18/1 
f 18/18/1 13/13/1 14/14/1 19/19/1 
f 19/19/1 14/14/1 15/15/1 20/20/1 
f 21/21/1 16/16/1 17/17/1 22/22/1 
f 22/22/1 17/17/1 18/18/1 23/23/1 
f 23/23/1 18/18/1 19/19/1 24/24/1 
f 24/24/1 19/19/1 20/20/1 25/25/1 
f 26/1/1 27/2/1 28/3/1 29/4/1 
f 29/4/1 28/3/1 30/5/1 31/6/1 
f 31/6/1 30/5/1 32/7/1 33/8/1 
f 33/8/1 32/7/1 2/9/1 1/10/1 
f 34/11/1 26/1/1 29/4/1 35/12/1 
f 35/12/1 29/4/1 31/6/1 36/13/1 
f 36/13/1 31/6/1 33/8/1 37/14/1 
f 37/14/1 33/8/1 1/10/1 11/15/1 
f 38/16/1 34/11/1 35/12/1 39/17/1 
f 39/17/1 35/12/1 36/13/1 40/18/1 
f 40/18/1 36/13/1 37/14/1 41/19/1 
f 41/19/1 37/14/1 11/15/1 16/20/1 
f 42/21/1 38/16/1 39/17/1 43/22/1 
f 43/22/1 39/17/1 40/18/1 44/23/1 
f 44/23/1 40/18/1 41/19/1 45/24/1 
f 45/24/1 41/19/1 16/20/1 21/25/1 
# 32 polygons

#
# object floor_diagonal044
#

v  -3.0000 -2.0000 -0.0000
v  -3.0000 -2.0000 1.0000
v  -4.0000 -2.0000 -0.0000
v  -2.0000 -2.0000 -0.0000
v  -2.0000 -2.0000 1.0000
v  -2.0000 -2.0000 2.0000
v  -1.0000 -2.0000 -0.0000
v  -1.0000 -2.0000 1.0000
v  -1.0000 -2.0000 2.0000
v  -1.0000 -2.0000 3.0000
v  -0.0000 -2.0000 -0.0000
v  -0.0000 -2.0000 1.0000
v  -0.0000 -2.0000 2.0000
v  -0.0000 -2.0000 3.0000
v  -0.0000 -2.0000 4.0000
v  -4.0000 -2.0000 -1.0000
v  -3.0000 -2.0000 -1.0000
v  -2.0000 -2.0000 -1.0000
v  -1.0000 -2.0000 -1.0000
v  -0.0000 -2.0000 -1.0000
v  -4.0000 -2.0000 -2.0000
v  -3.0000 -2.0000 -2.0000
v  -2.0000 -2.0000 -2.0000
v  -1.0000 -2.0000 -2.0000
v  -0.0000 -2.0000 -2.0000
v  -4.0000 -2.0000 -3.0000
v  -3.0000 -2.0000 -3.0000
v  -2.0000 -2.0000 -3.0000
v  -1.0000 -2.0000 -3.0000
v  -0.0000 -2.0000 -3.0000
v  -4.0000 -2.0000 -4.0000
v  -3.0000 -2.0000 -4.0000
v  -2.0000 -2.0000 -4.0000
v  -1.0000 -2.0000 -4.0000
v  -0.0000 -2.0000 -4.0000
# 35 vertices

vn -0.0000 1.0000 0.0000
# 1 vertex normals

vt 0.0000 0.2500 0.0000
vt 0.2500 0.2500 0.0000
vt 0.0000 0.0000 0.0000
vt 0.0000 0.5000 0.0000
vt 0.2500 0.5000 0.0000
vt 0.5000 0.5000 0.0000
vt 0.0000 0.7500 0.0000
vt 0.2500 0.7500 0.0000
vt 0.5000 0.7500 0.0000
vt 0.7500 0.7500 0.0000
vt 0.0000 1.0000 0.0000
vt 0.2500 1.0000 0.0000
vt 0.5000 1.0000 0.0000
vt 0.7500 1.0000 0.0000
vt 1.0000 1.0000 0.0000
vt 0.2500 0.0000 0.0000
vt 0.5000 0.2500 0.0000
vt 0.5000 0.0000 0.0000
vt 0.7500 0.2500 0.0000
vt 0.7500 0.0000 0.0000
vt 1.0000 0.2500 0.0000
vt 1.0000 0.0000 0.0000
vt 0.7500 0.5000 0.0000
vt 1.0000 0.5000 0.0000
vt 1.0000 0.7500 0.0000
# 25 texture coords

o floor_diagonal044
g floor_diagonal044
f 48/28/2 47/27/2 46/26/2 
f 46/26/2 47/27/2 50/30/2 49/29/2 
f 47/27/2 51/31/2 50/30/2 
f 49/29/2 50/30/2 53/33/2 52/32/2 
f 50/30/2 51/31/2 54/34/2 53/33/2 
f 51/31/2 55/35/2 54/34/2 
f 52/32/2 53/33/2 57/37/2 56/36/2 
f 53/33/2 54/34/2 58/38/2 57/37/2 
f 54/34/2 55/35/2 59/39/2 58/38/2 
f 55/35/2 60/40/2 59/39/2 
f 48/28/2 46/41/2 62/27/2 61/26/2 
f 46/41/2 49/43/2 63/42/2 62/27/2 
f 49/43/2 52/45/2 64/44/2 63/42/2 
f 52/45/2 56/47/2 65/46/2 64/44/2 
f 61/26/2 62/27/2 67/30/2 66/29/2 
f 62/27/2 63/42/2 68/31/2 67/30/2 
f 63/42/2 64/44/2 69/48/2 68/31/2 
f 64/44/2 65/46/2 70/49/2 69/48/2 
f 66/29/2 67/30/2 72/33/2 71/32/2 
f 67/30/2 68/31/2 73/34/2 72/33/2 
f 68/31/2 69/48/2 74/35/2 73/34/2 
f 69/48/2 70/49/2 75/50/2 74/35/2 
f 71/32/2 72/33/2 77/37/2 76/36/2 
f 72/33/2 73/34/2 78/38/2 77/37/2 
f 73/34/2 74/35/2 79/39/2 78/38/2 
f 74/35/2 75/50/2 80/40/2 79/39/2 
# 22 polygons - 4 triangles

#
# object wall_basic036
#

v  -3.0000 -1.0000 -4.0000
v  -3.0000 0.0000 -4.0000
v  -4.0000 0.0000 -4.0000
v  -4.0000 -1.0000 -4.0000
v  -2.0000 -1.0000 -4.0000
v  -2.0000 0.0000 -4.0000
v  -1.0000 -1.0000 -4.0000
v  -1.0000 0.0000 -4.0000
v  -0.0000 -1.0000 -4.0000
v  -0.0000 0.0000 -4.0000
v  -3.0000 1.0000 -4.0000
v  -4.0000 1.0000 -4.0000
v  -4.0000 -2.0000 -4.0000
v  -3.0000 -2.0000 -4.0000
v  -2.0000 1.0000 -4.0000
v  -2.0000 -2.0000 -4.0000
v  -1.0000 1.0000 -4.0000
v  -1.0000 -2.0000 -4.0000
v  -0.0000 1.0000 -4.0000
v  -0.0000 -2.0000 -4.0000
v  4.0000 -1.0000 -3.0000
v  4.0000 0.0000 -3.0000
v  4.0000 0.0000 -4.0000
v  4.0000 -1.0000 -4.0000
v  4.0000 -1.0000 -2.0000
v  4.0000 0.0000 -2.0000
v  4.0000 -1.0000 -1.0000
v  4.0000 0.0000 -1.0000
v  4.0000 -1.0000 -0.0000
v  4.0000 0.0000 -0.0000
v  4.0000 1.0000 -3.0000
v  4.0000 1.0000 -4.0000
v  4.0000 -2.0000 -4.0000
v  4.0000 -2.0000 -3.0000
v  4.0000 1.0000 -2.0000
v  4.0000 -2.0000 -2.0000
v  4.0000 1.0000 -1.0000
v  4.0000 -2.0000 -1.0000
v  4.0000 1.0000 -0.0000
v  4.0000 -2.0000 -0.0000
v  4.0000 -1.0000 1.0000
v  4.0000 0.0000 1.0000
v  4.0000 -1.0000 2.0000
v  4.0000 0.0000 2.0000
v  4.0000 -1.0000 3.0000
v  4.0000 0.0000 3.0000
v  4.0000 -1.0000 4.0000
v  4.0000 0.0000 4.0000
v  4.0000 1.0000 1.0000
v  4.0000 -2.0000 1.0000
v  4.0000 1.0000 2.0000
v  4.0000 -2.0000 2.0000
v  4.0000 1.0000 3.0000
v  4.0000 -2.0000 3.0000
v  4.0000 1.0000 4.0000
v  4.0000 -2.0000 4.0000
v  -0.9992 -1.0000 3.0008
v  -0.9992 0.0000 3.0008
v  -0.0000 0.0000 4.0000
v  -0.0000 -1.0000 4.0000
v  -1.9983 -1.0000 2.0017
v  -1.9983 -0.0000 2.0017
v  -2.9975 -1.0000 1.0025
v  -2.9975 0.0000 1.0025
v  -4.0000 -1.0000 -0.0000
v  -4.0000 0.0000 -0.0000
v  -0.9992 0.9864 3.0008
v  -0.0000 0.9864 4.0000
v  -0.0000 -2.0000 4.0000
v  -0.9992 -2.0000 3.0008
v  -1.9983 0.9864 2.0017
v  -1.9983 -2.0000 2.0017
v  -2.9975 0.9864 1.0025
v  -2.9975 -2.0000 1.0025
v  -4.0000 0.9955 -0.0000
v  -4.0000 -2.0000 -0.0000
v  -4.0000 -1.0000 -1.0000
v  -4.0000 0.0000 -1.0000
v  -4.0000 -1.0000 -2.0000
v  -4.0000 0.0000 -2.0000
v  -4.0000 -1.0000 -3.0000
v  -4.0000 0.0000 -3.0000
v  -4.0000 1.0000 -1.0000
v  -4.0000 -2.0000 -1.0000
v  -4.0000 1.0000 -2.0000
v  -4.0000 -2.0000 -2.0000
v  -4.0000 1.0000 -3.0000
v  -4.0000 -2.0000 -3.0000
v  -1.0000 1.0000 -0.0000
v  -1.0000 2.0000 -0.0000
v  -0.0000 2.0000 -0.0000
v  -0.0000 1.0000 -0.0000
v  -2.0000 1.0000 -0.0000
v  -2.0000 2.0000 -0.0000
v  -3.0000 1.0000 -0.0000
v  -3.0000 2.0000 -0.0000
v  -4.0000 2.0000 -0.0000
v  -0.0000 1.0000 -3.0000
v  -0.0000 2.0000 -3.0000
v  -0.0000 2.0000 -4.0000
v  -0.0000 1.0000 -2.0000
v  -0.0000 2.0000 -2.0000
v  -0.0000 1.0000 -1.0000
v  -0.0000 2.0000 -1.0000
v  -3.0000 2.0000 -4.0000
v  -4.0000 2.0000 -4.0000
v  -2.0000 2.0000 -4.0000
v  -1.0000 2.0000 -4.0000
v  -4.0000 2.0000 -1.0000
v  -4.0000 2.0000 -2.0000
v  -4.0000 2.0000 -3.0000
# 111 vertices

vn 0.0000 -0.0000 1.0000
vn 0.0000 0.0000 1.0000
vn 0.7071 0.0000 0.7071
vn 0.7071 -0.0000 0.7071
vn -0.0000 0.0000 1.0000
vn -0.0000 -0.0000 1.0000
vn -0.4472 0.0000 0.8944
vn -1.0000 0.0000 0.0000
vn -1.0000 0.0000 -0.0000
vn 0.7071 -0.0000 -0.7071
vn 0.9239 -0.0000 -0.3827
vn 0.8466 -0.0000 -0.5322
vn 1.0000 -0.0000 0.0000
vn 1.0000 0.0000 0.0000
vn 1.0000 0.0000 -0.0000
vn 1.0000 -0.0000 -0.0000
vn -0.0000 0.0000 -1.0000
vn -0.7071 0.0000 -0.7071
vn 0.0000 -0.0000 -1.0000
vn -0.0000 -0.0000 -1.0000
vn -0.7071 0.0000 0.7071
# 21 vertex normals

vt 0.2500 0.3333 0.0000
vt 0.2500 0.6667 0.0000
vt 0.0000 0.6667 0.0000
vt 0.0000 0.3333 0.0000
vt 0.5000 0.3333 0.0000
vt 0.5000 0.6667 0.0000
vt 0.7500 0.3333 0.0000
vt 0.7500 0.6667 0.0000
vt 1.0000 0.3333 0.0000
vt 1.0000 0.6667 0.0000
vt 0.2500 1.0000 0.0000
vt 0.0000 1.0000 0.0000
vt 0.0000 0.0000 0.0000
vt 0.2500 0.0000 0.0000
vt 0.5000 1.0000 0.0000
vt 0.5000 0.0000 0.0000
vt 0.7500 1.0000 0.0000
vt 0.7500 0.0000 0.0000
vt 1.0000 1.0000 0.0000
vt 1.0000 0.0000 0.0000
vt 0.2500 0.8362 0.0000
vt -0.0000 0.8362 0.0000
vt 0.5000 0.8362 0.0000
vt 0.7500 0.8362 0.0000
vt 1.0000 0.8362 0.0000
# 25 texture coords

o wall_basic036
g wall_basic036
f 81/51/3 82/52/4 83/53/5 84/54/6 
f 85/55/4 86/56/7 82/52/4 81/51/3 
f 87/57/8 88/58/7 86/56/7 85/55/4 
f 89/59/8 90/60/4 88/58/7 87/57/8 
f 82/52/4 91/61/4 92/62/5 83/53/5 
f 84/54/6 93/63/5 94/64/4 81/51/3 
f 86/56/7 95/65/4 91/61/4 82/52/4 
f 81/51/3 94/64/4 96/66/4 85/55/4 
f 88/58/7 97/67/4 95/65/4 86/56/7 
f 85/55/4 96/66/4 98/68/4 87/57/8 
f 90/60/4 99/69/9 97/67/4 88/58/7 
f 87/57/8 98/68/4 100/70/3 89/59/8 
f 101/51/10 102/52/10 103/53/10 104/54/10 
f 105/55/10 106/56/10 102/52/10 101/51/10 
f 107/57/11 108/58/11 106/56/10 105/55/10 
f 109/59/11 110/60/11 108/58/11 107/57/11 
f 102/52/10 111/61/10 112/62/10 103/53/10 
f 104/54/10 113/63/10 114/64/10 101/51/10 
f 106/56/10 115/65/10 111/61/10 102/52/10 
f 101/51/10 114/64/10 116/66/10 105/55/10 
f 108/58/11 117/67/11 115/65/10 106/56/10 
f 105/55/10 116/66/10 118/68/11 107/57/11 
f 110/60/11 119/69/11 117/67/11 108/58/11 
f 107/57/11 118/68/11 120/70/11 109/59/11 
f 121/51/10 122/52/10 110/53/11 109/54/11 
f 123/55/10 124/56/10 122/52/10 121/51/10 
f 125/57/10 126/58/10 124/56/10 123/55/10 
f 127/59/10 128/60/10 126/58/10 125/57/10 
f 122/52/10 129/61/10 119/62/11 110/53/11 
f 109/54/11 120/63/11 130/64/10 121/51/10 
f 124/56/10 131/65/10 129/61/10 122/52/10 
f 121/51/10 130/64/10 132/66/10 123/55/10 
f 126/58/10 133/67/10 131/65/10 124/56/10 
f 123/55/10 132/66/10 134/68/10 125/57/10 
f 128/60/10 135/69/10 133/67/10 126/58/10 
f 125/57/10 134/68/10 136/70/10 127/59/10 
f 137/51/12 138/52/12 139/53/12 140/54/12 
f 141/55/12 142/56/12 138/52/12 137/51/12 
f 143/57/12 144/58/12 142/56/12 141/55/12 
f 145/59/13 146/60/13 144/58/12 143/57/12 
f 138/52/12 147/61/12 148/62/12 139/53/12 
f 140/54/12 149/63/12 150/64/12 137/51/12 
f 142/56/12 151/65/12 147/61/12 138/52/12 
f 137/51/12 150/64/12 152/66/12 141/55/12 
f 144/58/12 153/67/12 151/65/12 142/56/12 
f 141/55/12 152/66/12 154/68/12 143/57/12 
f 146/60/13 155/69/14 153/67/12 144/58/12 
f 143/57/12 154/68/12 156/70/13 145/59/13 
f 157/51/15 158/52/16 146/53/13 145/54/13 
f 159/55/17 160/56/17 158/52/16 157/51/15 
f 161/57/18 162/58/17 160/56/17 159/55/17 
f 84/59/6 83/60/5 162/58/17 161/57/18 
f 158/52/16 163/61/16 155/62/14 146/53/13 
f 145/54/13 156/63/13 164/64/15 157/51/15 
f 160/56/17 165/65/16 163/61/16 158/52/16 
f 157/51/15 164/64/15 166/66/17 159/55/17 
f 162/58/17 167/67/17 165/65/16 160/56/17 
f 159/55/17 166/66/17 168/68/18 161/57/18 
f 83/60/5 92/69/5 167/67/17 162/58/17 
f 161/57/18 168/68/18 93/70/5 84/59/6 
f 169/71/19 170/61/19 171/62/20 172/72/20 
f 173/73/19 174/65/21 170/61/19 169/71/19 
f 175/74/22 176/67/22 174/65/21 173/73/19 
f 155/75/14 177/69/12 176/67/22 175/74/22 
f 178/71/11 179/61/11 180/62/23 99/72/9 
f 181/73/10 182/65/10 179/61/11 178/71/11 
f 183/74/10 184/67/10 182/65/10 181/73/10 
f 172/75/20 171/69/20 184/67/10 183/74/10 
f 91/71/4 185/61/4 186/62/5 92/72/5 
f 95/73/4 187/65/4 185/61/4 91/71/4 
f 97/74/4 188/67/4 187/65/4 95/73/4 
f 99/75/9 180/69/23 188/67/4 97/74/4 
f 163/71/16 189/61/16 177/62/12 155/72/14 
f 165/73/16 190/65/17 189/61/16 163/71/16 
f 167/74/17 191/67/17 190/65/17 165/73/16 
f 92/75/5 186/69/5 191/67/17 167/74/17 
# 76 polygons

#
# object inset051
#

v  3.5000 -1.0000 4.4116
v  3.5000 0.0000 4.4116
v  4.0000 0.0000 4.0000
v  4.0000 -1.0000 4.0000
v  -0.0000 -1.0000 4.0000
v  -0.0000 0.0000 4.0000
v  0.5000 0.0000 4.4116
v  0.5000 -1.0000 4.4116
v  0.5000 0.0000 5.0000
v  0.5000 -1.0000 5.0000
v  3.5000 -1.0000 5.0000
v  3.5000 0.0000 5.0000
v  3.0000 -1.0000 5.0000
v  3.0000 0.0000 5.0000
v  2.0000 -1.0000 5.0000
v  2.0000 0.0000 5.0000
v  1.0000 -1.0000 5.0000
v  1.0000 0.0000 5.0000
v  3.5000 1.0000 4.4116
v  4.0000 1.0000 4.0000
v  4.0000 -2.0000 4.0000
v  3.5000 -2.0000 4.4116
v  -0.0000 1.0000 4.0000
v  0.5000 1.0000 4.4116
v  0.5000 -2.0000 4.4116
v  -0.0000 -2.0000 4.0000
v  0.5000 1.0000 5.0000
v  0.5000 -2.0000 5.0000
v  3.5000 -2.0000 5.0000
v  3.5000 1.0000 5.0000
v  3.0000 1.0000 5.0000
v  3.0000 -2.0000 5.0000
v  2.0000 1.0000 5.0000
v  2.0000 -2.0000 5.0000
v  1.0000 1.0000 5.0000
v  1.0000 -2.0000 5.0000
v  0.5000 -1.0000 -4.4116
v  0.5000 0.0000 -4.4116
v  0.0000 0.0000 -4.0000
v  0.0000 -1.0000 -4.0000
v  4.0000 -1.0000 -4.0000
v  4.0000 0.0000 -4.0000
v  3.5000 0.0000 -4.4116
v  3.5000 -1.0000 -4.4116
v  3.5000 0.0000 -5.0000
v  3.5000 -1.0000 -5.0000
v  0.5000 -1.0000 -5.0000
v  0.5000 0.0000 -5.0000
v  1.0000 -1.0000 -5.0000
v  1.0000 0.0000 -5.0000
v  2.0000 -1.0000 -5.0000
v  2.0000 0.0000 -5.0000
v  3.0000 -1.0000 -5.0000
v  3.0000 0.0000 -5.0000
v  0.5000 1.0000 -4.4116
v  0.0000 1.0000 -4.0000
v  0.0000 -2.0000 -4.0000
v  0.5000 -2.0000 -4.4116
v  4.0000 1.0000 -4.0000
v  3.5000 1.0000 -4.4116
v  3.5000 -2.0000 -4.4116
v  4.0000 -2.0000 -4.0000
v  3.5000 1.0000 -5.0000
v  3.5000 -2.0000 -5.0000
v  0.5000 -2.0000 -5.0000
v  0.5000 1.0000 -5.0000
v  1.0000 1.0000 -5.0000
v  1.0000 -2.0000 -5.0000
v  2.0000 1.0000 -5.0000
v  2.0000 -2.0000 -5.0000
v  3.0000 1.0000 -5.0000
v  3.0000 -2.0000 -5.0000
# 72 vertices

vn -0.9043 0.0000 -0.4269
vn -0.6356 0.0000 -0.7720
vn 0.6356 -0.0000 -0.7720
vn 0.9043 -0.0000 -0.4269
vn 0.7071 0.0000 -0.7071
vn -0.7071 -0.0000 -0.7071
vn -0.0000 -0.0000 -1.0000
vn 0.7071 -0.0000 -0.7071
vn 0.9043 0.0000 0.4269
vn 0.6356 0.0000 0.7720
vn -0.6356 -0.0000 0.7720
vn -0.9043 0.0000 0.4269
vn -0.9043 -0.0000 0.4269
vn -0.7071 0.0000 0.7071
vn -0.7071 -0.0000 0.7071
vn 0.7071 -0.0000 0.7071
vn -0.0000 -0.0000 1.0000
vn -0.0000 0.0000 1.0000
vn 0.0000 -0.0000 1.0000
vn 0.0000 0.0000 1.0000
vn -0.6356 0.0000 0.7720
vn 0.7071 0.0000 0.7071
# 22 vertex normals

vt 0.1029 0.3333 0.0000
vt 0.1029 0.6667 0.0000
vt 0.0000 0.6667 0.0000
vt 0.0000 0.3333 0.0000
vt 1.0000 0.3333 0.0000
vt 1.0000 0.6667 0.0000
vt 0.8971 0.6667 0.0000
vt 0.8971 0.3333 0.0000
vt 0.1471 0.3333 0.0000
vt 0.1471 0.6667 0.0000
vt -0.0000 0.6667 0.0000
vt -0.0000 0.3333 0.0000
vt 0.2500 0.3333 0.0000
vt 0.2500 0.6667 0.0000
vt 0.5000 0.3333 0.0000
vt 0.5000 0.6667 0.0000
vt 0.7500 0.3333 0.0000
vt 0.7500 0.6667 0.0000
vt 0.1029 1.0000 0.0000
vt 0.0000 1.0000 0.0000
vt 0.0000 0.0000 0.0000
vt 0.1029 0.0000 0.0000
vt 1.0000 1.0000 0.0000
vt 0.8971 1.0000 0.0000
vt 0.8971 0.0000 0.0000
vt 1.0000 0.0000 0.0000
vt 0.1471 1.0000 0.0000
vt -0.0000 1.0000 0.0000
vt 0.1471 -0.0000 0.0000
vt 0.1471 0.0000 0.0000
vt 0.2500 1.0000 0.0000
vt 0.2500 0.0000 0.0000
vt 0.5000 1.0000 0.0000
vt 0.5000 0.0000 0.0000
vt 0.7500 1.0000 0.0000
vt 0.7500 0.0000 0.0000
# 36 texture coords

o inset051
g inset051
f 192/76/24 193/77/24 194/78/25 195/79/25 
f 196/80/26 197/81/26 198/82/27 199/83/27 
f 199/84/27 198/85/27 200/86/28 201/87/28 
f 193/85/24 192/84/24 202/79/29 203/78/29 
f 204/88/30 205/89/30 203/86/29 202/87/29 
f 206/90/30 207/91/30 205/89/30 204/88/30 
f 208/92/30 209/93/30 207/91/30 206/90/30 
f 201/80/28 200/81/28 209/93/30 208/92/30 
f 193/77/24 210/94/24 211/95/25 194/78/25 
f 195/79/25 212/96/25 213/97/24 192/76/24 
f 197/81/26 214/98/26 215/99/27 198/82/27 
f 199/83/27 216/100/27 217/101/26 196/80/26 
f 198/85/27 215/102/27 218/103/31 200/86/28 
f 201/87/28 219/96/31 216/104/27 199/84/27 
f 192/84/24 213/105/24 220/96/29 202/79/29 
f 203/78/29 221/95/29 210/102/24 193/85/24 
f 205/89/30 222/106/30 221/103/29 203/86/29 
f 202/87/29 220/96/29 223/107/30 204/88/30 
f 207/91/30 224/108/30 222/106/30 205/89/30 
f 204/88/30 223/107/30 225/109/30 206/90/30 
f 209/93/30 226/110/30 224/108/30 207/91/30 
f 206/90/30 225/109/30 227/111/30 208/92/30 
f 200/81/28 218/98/31 226/110/30 209/93/30 
f 208/92/30 227/111/30 219/101/31 201/80/28 
f 228/76/32 229/77/32 230/78/33 231/79/33 
f 232/80/34 233/81/34 234/82/35 235/83/36 
f 235/84/36 234/85/35 236/86/37 237/87/38 
f 229/85/32 228/84/32 238/79/39 239/78/39 
f 240/88/40 241/89/41 239/86/39 238/87/39 
f 242/90/42 243/91/43 241/89/41 240/88/40 
f 244/92/43 245/93/42 243/91/43 242/90/42 
f 237/80/38 236/81/37 245/93/42 244/92/43 
f 229/77/32 246/94/32 247/95/33 230/78/33 
f 231/79/33 248/96/33 249/97/32 228/76/32 
f 233/81/34 250/98/44 251/99/35 234/82/35 
f 235/83/36 252/100/36 253/101/34 232/80/34 
f 234/85/35 251/102/35 254/103/37 236/86/37 
f 237/87/38 255/96/38 252/104/36 235/84/36 
f 228/84/32 249/105/32 256/96/45 238/79/39 
f 239/78/39 257/95/39 246/102/32 229/85/32 
f 241/89/41 258/106/43 257/103/39 239/86/39 
f 238/87/39 256/96/45 259/107/42 240/88/40 
f 243/91/43 260/108/41 258/106/43 241/89/41 
f 240/88/40 259/107/42 261/109/40 242/90/42 
f 245/93/42 262/110/40 260/108/41 243/91/43 
f 242/90/42 261/109/40 263/111/43 244/92/43 
f 236/81/37 254/98/37 262/110/40 245/93/42 
f 244/92/43 263/111/43 255/101/38 237/80/38 
# 48 polygons

#
# object Object044
#

v  3.0000 -2.0000 -4.0000
v  4.0000 -2.0000 -4.0000
v  3.5000 -2.0000 -4.4116
v  3.0000 -2.0000 -4.4116
v  2.0000 -2.0000 -4.0000
v  2.0000 -2.0000 -4.4116
v  1.0000 -2.0000 -4.0000
v  1.0000 -2.0000 -4.4116
v  0.0000 -2.0000 -4.0000
v  0.5000 -2.0000 -4.4116
v  3.0000 -2.0000 -5.0000
v  2.0000 -2.0000 -5.0000
v  1.0000 -2.0000 -5.0000
v  0.5000 -2.0000 -5.0000
v  3.5000 -2.0000 -5.0000
v  1.0000 -2.0000 4.0000
v  -0.0000 -2.0000 4.0000
v  0.5000 -2.0000 4.4116
v  1.0000 -2.0000 4.4116
v  2.0000 -2.0000 4.0000
v  2.0000 -2.0000 4.4116
v  3.0000 -2.0000 4.0000
v  3.0000 -2.0000 4.4116
v  4.0000 -2.0000 4.0000
v  3.5000 -2.0000 4.4116
v  1.0000 -2.0000 5.0000
v  2.0000 -2.0000 5.0000
v  3.0000 -2.0000 5.0000
v  3.5000 -2.0000 5.0000
v  0.5000 -2.0000 5.0000
# 30 vertices

vn -0.0000 1.0000 -0.0000
vn 0.0000 1.0000 -0.0000
vn 0.0000 1.0000 0.0000
vn -0.0000 1.0000 0.0000
# 4 vertex normals

vt 0.0000 0.2500 0.0000
vt 0.0000 0.0000 0.0000
vt 0.1029 0.1250 0.0000
vt 0.1029 0.2500 0.0000
vt 0.0000 0.5000 0.0000
vt 0.1029 0.5000 0.0000
vt 0.0000 0.7500 0.0000
vt 0.1029 0.7500 0.0000
vt 0.0000 1.0000 0.0000
vt 0.1029 0.8750 0.0000
vt 0.2500 0.2500 0.0000
vt 0.2500 0.5000 0.0000
vt 0.2500 0.7500 0.0000
vt 0.2500 0.8750 0.0000
vt 0.2500 0.1250 0.0000
# 15 texture coords

o Object044
g Object044
f 264/112/46 265/113/47 266/114/46 267/115/46 
f 268/116/46 264/112/46 267/115/46 269/117/47 
f 270/118/47 268/116/46 269/117/47 271/119/47 
f 272/120/47 270/118/47 271/119/47 273/121/47 
f 267/115/46 274/122/47 275/123/47 269/117/47 
f 269/117/47 275/123/47 276/124/47 271/119/47 
f 271/119/47 276/124/47 277/125/47 273/121/47 
f 278/126/47 274/122/47 267/115/46 266/114/46 
f 279/112/48 280/113/49 281/114/48 282/115/48 
f 283/116/48 279/112/48 282/115/48 284/117/48 
f 285/118/48 283/116/48 284/117/48 286/119/48 
f 287/120/48 285/118/48 286/119/48 288/121/48 
f 282/115/48 289/122/48 290/123/48 284/117/48 
f 284/117/48 290/123/48 291/124/48 286/119/48 
f 286/119/48 291/124/48 292/125/48 288/121/48 
f 293/126/48 289/122/48 282/115/48 281/114/48 
# 16 polygons

#
# object door
#

#
# object ceiling_basic059
#

v  -0.0000 1.0000 -3.0000
v  -0.0000 1.0000 -4.0000
v  1.0000 1.0000 -4.0000
v  1.0000 1.0000 -3.0000
v  2.0000 1.0000 -4.0000
v  2.0000 1.0000 -3.0000
v  3.0000 1.0000 -4.0000
v  3.0000 1.0000 -3.0000
v  4.0000 1.0000 -4.0000
v  4.0000 1.0000 -3.0000
v  -0.0000 1.0000 -2.0000
v  1.0000 1.0000 -2.0000
v  2.0000 1.0000 -2.0000
v  3.0000 1.0000 -2.0000
v  4.0000 1.0000 -2.0000
v  -0.0000 1.0000 -1.0000
v  1.0000 1.0000 -1.0000
v  2.0000 1.0000 -1.0000
v  3.0000 1.0000 -1.0000
v  4.0000 1.0000 -1.0000
v  -0.0000 1.0000 0.0000
v  1.0000 1.0000 0.0000
v  2.0000 1.0000 0.0000
v  3.0000 1.0000 0.0000
v  4.0000 1.0000 0.0000
v  -4.0000 2.0000 -3.0000
v  -4.0000 2.0000 -4.0000
v  -3.0000 2.0000 -4.0000
v  -3.0000 2.0000 -3.0000
v  -2.0000 2.0000 -4.0000
v  -2.0000 2.0000 -3.0000
v  -1.0000 2.0000 -4.0000
v  -1.0000 2.0000 -3.0000
v  -0.0000 2.0000 -4.0000
v  -0.0000 2.0000 -3.0000
v  -4.0000 2.0000 -2.0000
v  -3.0000 2.0000 -2.0000
v  -2.0000 2.0000 -2.0000
v  -1.0000 2.0000 -2.0000
v  -0.0000 2.0000 -2.0000
v  -4.0000 2.0000 -1.0000
v  -3.0000 2.0000 -1.0000
v  -2.0000 2.0000 -1.0000
v  -1.0000 2.0000 -1.0000
v  -0.0000 2.0000 -1.0000
v  -4.0000 2.0000 0.0000
v  -3.0000 2.0000 0.0000
v  -2.0000 2.0000 0.0000
v  -1.0000 2.0000 0.0000
v  -0.0000 2.0000 0.0000
v  -0.0000 1.0000 3.0000
v  -0.0000 1.0000 4.0000
v  -1.0000 1.0000 3.0000
v  -0.0000 1.0000 2.0000
v  -1.0000 1.0000 2.0000
v  -2.0000 1.0000 2.0000
v  -0.0000 1.0000 1.0000
v  -1.0000 1.0000 1.0000
v  -2.0000 1.0000 1.0000
v  -3.0000 1.0000 1.0000
v  -1.0000 1.0000 0.0000
v  -2.0000 1.0000 0.0000
v  -3.0000 1.0000 0.0000
v  -4.0000 1.0000 0.0000
v  1.0000 1.0000 1.0000
v  2.0000 1.0000 1.0000
v  3.0000 1.0000 1.0000
v  4.0000 1.0000 1.0000
v  1.0000 1.0000 2.0000
v  2.0000 1.0000 2.0000
v  3.0000 1.0000 2.0000
v  4.0000 1.0000 2.0000
v  1.0000 1.0000 3.0000
v  2.0000 1.0000 3.0000
v  3.0000 1.0000 3.0000
v  4.0000 1.0000 3.0000
v  1.0000 1.0000 4.0000
v  2.0000 1.0000 4.0000
v  3.0000 1.0000 4.0000
v  4.0000 1.0000 4.0000
v  3.0000 1.0000 4.4116
v  3.0000 1.0000 5.0000
v  2.0000 1.0000 5.0000
v  2.0000 1.0000 4.4116
v  1.0000 1.0000 5.0000
v  1.0000 1.0000 4.4116
v  0.5000 1.0000 5.0000
v  0.5000 1.0000 4.4116
v  3.5000 1.0000 5.0000
v  3.5000 1.0000 4.4116
v  1.0000 1.0000 -4.4116
v  1.0000 1.0000 -5.0000
v  2.0000 1.0000 -5.0000
v  2.0000 1.0000 -4.4116
v  3.0000 1.0000 -5.0000
v  3.0000 1.0000 -4.4116
v  3.5000 1.0000 -5.0000
v  3.5000 1.0000 -4.4116
v  0.5000 1.0000 -5.0000
v  0.5000 1.0000 -4.4116
v  0.0000 1.0000 -4.0000
# 101 vertices

vn 0.0000 -1.0000 -0.0000
vn 0.0000 -1.0000 0.0000
vn -0.0000 -1.0000 0.0000
vn -0.0000 -1.0000 -0.0000
# 4 vertex normals

vt 0.0000 0.2500 0.0000
vt 0.0000 0.0000 0.0000
vt 0.2500 0.0000 0.0000
vt 0.2500 0.2500 0.0000
vt 0.5000 0.0000 0.0000
vt 0.5000 0.2500 0.0000
vt 0.7500 0.0000 0.0000
vt 0.7500 0.2500 0.0000
vt 1.0000 0.0000 0.0000
vt 1.0000 0.2500 0.0000
vt 0.0000 0.5000 0.0000
vt 0.2500 0.5000 0.0000
vt 0.5000 0.5000 0.0000
vt 0.7500 0.5000 0.0000
vt 1.0000 0.5000 0.0000
vt 0.0000 0.7500 0.0000
vt 0.2500 0.7500 0.0000
vt 0.5000 0.7500 0.0000
vt 0.7500 0.7500 0.0000
vt 1.0000 0.7500 0.0000
vt 0.0000 1.0000 0.0000
vt 0.2500 1.0000 0.0000
vt 0.5000 1.0000 0.0000
vt 0.7500 1.0000 0.0000
vt 1.0000 1.0000 0.0000
vt 0.2500 0.8971 0.0000
vt 0.5000 0.8971 0.0000
vt 0.7500 0.8971 0.0000
vt 0.8750 0.7500 0.0000
vt 0.8750 0.8971 0.0000
vt 0.1250 0.7500 0.0000
vt 0.1250 0.8971 0.0000
# 32 texture coords

o ceiling_basic059
g ceiling_basic059
f 294/127/50 295/128/50 296/129/50 297/130/50 
f 297/130/50 296/129/50 298/131/50 299/132/50 
f 299/132/50 298/131/50 300/133/50 301/134/50 
f 301/134/50 300/133/50 302/135/50 303/136/50 
f 304/137/50 294/127/50 297/130/50 305/138/50 
f 305/138/50 297/130/50 299/132/50 306/139/50 
f 306/139/50 299/132/50 301/134/50 307/140/50 
f 307/140/50 301/134/50 303/136/50 308/141/50 
f 309/142/51 304/137/50 305/138/50 310/143/50 
f 310/143/50 305/138/50 306/139/50 311/144/50 
f 311/144/50 306/139/50 307/140/50 312/145/50 
f 312/145/50 307/140/50 308/141/50 313/146/50 
f 314/147/52 309/142/51 310/143/50 315/148/53 
f 315/148/53 310/143/50 311/144/50 316/149/50 
f 316/149/50 311/144/50 312/145/50 317/150/50 
f 317/150/50 312/145/50 313/146/50 318/151/50 
f 319/127/50 320/128/50 321/129/50 322/130/50 
f 322/130/50 321/129/50 323/131/50 324/132/50 
f 324/132/50 323/131/50 325/133/50 326/134/50 
f 326/134/50 325/133/50 327/135/50 328/136/50 
f 329/137/50 319/127/50 322/130/50 330/138/50 
f 330/138/50 322/130/50 324/132/50 331/139/50 
f 331/139/50 324/132/50 326/134/50 332/140/50 
f 332/140/50 326/134/50 328/136/50 333/141/50 
f 334/142/50 329/137/50 330/138/50 335/143/50 
f 335/143/50 330/138/50 331/139/50 336/144/50 
f 336/144/50 331/139/50 332/140/50 337/145/50 
f 337/145/50 332/140/50 333/141/50 338/146/50 
f 339/147/50 334/142/50 335/143/50 340/148/50 
f 340/148/50 335/143/50 336/144/50 341/149/50 
f 341/149/50 336/144/50 337/145/50 342/150/50 
f 342/150/50 337/145/50 338/146/50 343/151/50 
f 344/127/53 345/128/53 346/130/53 
f 347/137/53 344/127/53 346/130/53 348/138/53 
f 348/138/53 346/130/53 349/139/53 
f 350/142/52 347/137/53 348/138/53 351/143/53 
f 351/143/53 348/138/53 349/139/53 352/144/53 
f 352/144/53 349/139/53 353/145/50 
f 314/147/52 350/142/52 351/143/53 354/148/53 
f 354/148/53 351/143/53 352/144/53 355/149/53 
f 355/149/53 352/144/53 353/145/50 356/150/50 
f 356/150/50 353/145/50 357/151/50 
f 350/127/52 314/128/52 315/129/53 358/130/53 
f 358/130/53 315/129/53 316/131/50 359/132/50 
f 359/132/50 316/131/50 317/133/50 360/134/50 
f 360/134/50 317/133/50 318/135/50 361/136/50 
f 347/137/53 350/127/52 358/130/53 362/138/53 
f 362/138/53 358/130/53 359/132/50 363/139/50 
f 363/139/50 359/132/50 360/134/50 364/140/50 
f 364/140/50 360/134/50 361/136/50 365/141/50 
f 344/142/53 347/137/53 362/138/53 366/143/53 
f 366/143/53 362/138/53 363/139/50 367/144/50 
f 367/144/50 363/139/50 364/140/50 368/145/50 
f 368/145/50 364/140/50 365/141/50 369/146/50 
f 345/147/53 344/142/53 366/143/53 370/148/53 
f 370/148/53 366/143/53 367/144/50 371/149/50 
f 371/149/50 367/144/50 368/145/50 372/150/50 
f 372/150/50 368/145/50 369/146/50 373/151/50 
f 374/152/51 375/143/51 376/144/51 377/153/51 
f 377/153/51 376/144/51 378/145/51 379/154/51 
f 379/154/51 378/145/51 380/155/51 381/156/50 
f 382/157/51 375/143/51 374/152/51 383/158/50 
f 373/147/50 383/158/50 374/152/51 372/148/50 
f 372/148/50 374/152/51 377/153/51 371/149/51 
f 371/149/51 377/153/51 379/154/51 370/150/53 
f 345/151/53 370/150/53 379/154/51 381/156/50 
f 384/152/50 385/143/50 386/144/50 387/153/53 
f 387/153/53 386/144/50 388/145/50 389/154/53 
f 389/154/53 388/145/50 390/155/50 391/156/50 
f 392/157/50 385/143/50 384/152/50 393/158/50 
f 394/147/53 393/158/50 384/152/50 296/148/53 
f 296/148/53 384/152/50 387/153/53 298/149/53 
f 298/149/53 387/153/53 389/154/53 300/150/50 
f 302/151/50 300/150/50 389/154/53 391/156/50 
# 70 polygons - 4 triangles

