# 3ds Max Wavefront OBJ Exporter v0.97b - (c)2007 guruware
# File Created: 01.02.2021 20:46:26

mtllib room_hallway_medium.mtl

#
# object floor_diagonal061
#

v  6.0000 -2.0000 -2.0000
v  6.0000 -2.0000 -3.0000
v  5.0000 -2.0000 -3.0000
v  5.0000 -2.0000 -2.0000
v  4.0000 -2.0000 -3.0000
v  4.0000 -2.0000 -2.0000
v  3.0000 -2.0000 -3.0000
v  3.0000 -2.0000 -2.0000
v  2.0000 -2.0000 -3.0000
v  2.0000 -2.0000 -2.0000
v  6.0000 -2.0000 -1.0000
v  5.0000 -2.0000 -1.0000
v  4.0000 -2.0000 -1.0000
v  3.0000 -2.0000 -1.0000
v  2.0000 -2.0000 -1.0000
v  6.0000 -2.0000 -0.0000
v  5.0000 -2.0000 -0.0000
v  4.0000 -2.0000 -0.0000
v  3.0000 -2.0000 -0.0000
v  2.0000 -2.0000 -0.0000
v  6.0000 -2.0000 1.0000
v  5.0000 -2.0000 1.0000
v  4.0000 -2.0000 1.0000
v  3.0000 -2.0000 1.0000
v  2.0000 -2.0000 1.0000
# 25 vertices

vn 0.0000 1.0000 -0.0000
# 1 vertex normals

vt 0.0000 0.2500 0.0000
vt 0.0000 0.0000 0.0000
vt 0.2500 0.0000 0.0000
vt 0.2500 0.2500 0.0000
vt 0.5000 0.0000 0.0000
vt 0.5000 0.2500 0.0000
vt 0.7500 0.0000 0.0000
vt 0.7500 0.2500 0.0000
vt 1.0000 0.0000 0.0000
vt 1.0000 0.2500 0.0000
vt 0.0000 0.5000 0.0000
vt 0.2500 0.5000 0.0000
vt 0.5000 0.5000 0.0000
vt 0.7500 0.5000 0.0000
vt 1.0000 0.5000 0.0000
vt 0.0000 0.7500 0.0000
vt 0.2500 0.7500 0.0000
vt 0.5000 0.7500 0.0000
vt 0.7500 0.7500 0.0000
vt 1.0000 0.7500 0.0000
vt 0.0000 1.0000 0.0000
vt 0.2500 1.0000 0.0000
vt 0.5000 1.0000 0.0000
vt 0.7500 1.0000 0.0000
vt 1.0000 1.0000 0.0000
# 25 texture coords

o floor_diagonal061
g floor_diagonal061
usemtl 15___Default
f 1/1/1 2/2/1 3/3/1 4/4/1 
f 4/4/1 3/3/1 5/5/1 6/6/1 
f 6/6/1 5/5/1 7/7/1 8/8/1 
f 8/8/1 7/7/1 9/9/1 10/10/1 
f 11/11/1 1/1/1 4/4/1 12/12/1 
f 12/12/1 4/4/1 6/6/1 13/13/1 
f 13/13/1 6/6/1 8/8/1 14/14/1 
f 14/14/1 8/8/1 10/10/1 15/15/1 
f 16/16/1 11/11/1 12/12/1 17/17/1 
f 17/17/1 12/12/1 13/13/1 18/18/1 
f 18/18/1 13/13/1 14/14/1 19/19/1 
f 19/19/1 14/14/1 15/15/1 20/20/1 
f 21/21/1 16/16/1 17/17/1 22/22/1 
f 22/22/1 17/17/1 18/18/1 23/23/1 
f 23/23/1 18/18/1 19/19/1 24/24/1 
f 24/24/1 19/19/1 20/20/1 25/25/1 
# 16 polygons

#
# object Object126
#

v  0.0000 -2.0000 -3.0000
v  1.0000 -2.0000 -3.0000
v  0.5000 -2.0000 -3.4116
v  0.0000 -2.0000 -3.4116
v  -1.0000 -2.0000 -3.0000
v  -1.0000 -2.0000 -3.4116
v  -2.0000 -2.0000 -3.0000
v  -2.0000 -2.0000 -3.4117
v  -3.0000 -2.0000 -3.0000
v  -2.5000 -2.0000 -3.4117
v  0.0000 -2.0000 -4.0000
v  -1.0000 -2.0000 -4.0000
v  -2.0000 -2.0000 -4.0000
v  -2.5000 -2.0000 -4.0000
v  0.5000 -2.0000 -4.0000
v  3.0000 -2.0000 1.0000
v  2.0000 -2.0000 1.0000
v  2.5000 -2.0000 1.4116
v  3.0000 -2.0000 1.4116
v  4.0000 -2.0000 1.0000
v  4.0000 -2.0000 1.4116
v  5.0000 -2.0000 1.0000
v  5.0000 -2.0000 1.4116
v  6.0000 -2.0000 1.0000
v  5.5000 -2.0000 1.4116
v  3.0000 -2.0000 2.0000
v  4.0000 -2.0000 2.0000
v  5.0000 -2.0000 2.0000
v  5.5000 -2.0000 2.0000
v  2.5000 -2.0000 2.0000
v  -5.0000 -2.0000 3.4116
v  -6.0000 -2.0000 3.4116
v  -6.0000 -2.0000 4.0000
v  -5.0000 -2.0000 4.0000
v  -7.0000 -2.0000 3.4116
v  -7.0000 -2.0000 4.0000
v  -7.5000 -2.0000 3.4116
v  -7.5000 -2.0000 4.0000
v  -4.0000 -2.0000 4.0000
v  -4.0000 -2.0000 3.4116
v  -4.0000 -2.0000 3.0000
v  -5.0000 -2.0000 3.0000
v  -6.0000 -2.0000 3.0000
v  -7.0000 -2.0000 3.0000
v  -8.0000 -2.0000 3.0000
v  -1.0000 -2.0000 3.4116
v  -2.0000 -2.0000 3.4116
v  -2.0000 -2.0000 4.0000
v  -1.0000 -2.0000 4.0000
v  -3.0000 -2.0000 3.4116
v  -3.0000 -2.0000 4.0000
v  -0.5000 -2.0000 4.0000
v  -0.5000 -2.0000 3.4116
v  0.0000 -2.0000 3.0000
v  -1.0000 -2.0000 3.0000
v  -2.0000 -2.0000 3.0000
v  -3.0000 -2.0000 3.0000
# 57 vertices

vn 0.0000 1.0000 -0.0000
vn -0.0000 1.0000 -0.0000
vn -0.0000 1.0000 0.0000
vn 0.0000 1.0000 0.0000
# 4 vertex normals

vt 0.0000 0.2500 0.0000
vt 0.0000 0.0000 0.0000
vt 0.1029 0.1250 0.0000
vt 0.1029 0.2500 0.0000
vt 0.0000 0.5000 0.0000
vt 0.1029 0.5000 0.0000
vt 0.0000 0.7500 0.0000
vt 0.1029 0.7500 0.0000
vt 0.0000 1.0000 0.0000
vt 0.1029 0.8750 0.0000
vt 0.2500 0.2500 0.0000
vt 0.2500 0.5000 0.0000
vt 0.2500 0.7500 0.0000
vt 0.2500 0.8750 0.0000
vt 0.2500 0.1250 0.0000
vt 0.2500 0.8971 0.0000
vt 0.5000 0.8971 0.0000
vt 0.5000 0.7500 0.0000
vt 0.7500 0.8971 0.0000
vt 0.7500 0.7500 0.0000
vt 0.8750 0.8971 0.0000
vt 0.8750 0.7500 0.0000
vt 0.0000 0.8971 0.0000
vt 0.2500 1.0000 0.0000
vt 0.5000 1.0000 0.0000
vt 0.7500 1.0000 0.0000
vt 1.0000 1.0000 0.0000
vt 1.0000 0.8971 0.0000
vt 1.0000 0.7500 0.0000
vt 0.1250 0.7500 0.0000
vt 0.1250 0.8971 0.0000
# 31 texture coords

o Object126
g Object126
usemtl 03___Default
f 26/26/2 27/27/2 28/28/3 29/29/2 
f 30/30/3 26/26/2 29/29/2 31/31/2 
f 32/32/2 30/30/3 31/31/2 33/33/2 
f 34/34/2 32/32/2 33/33/2 35/35/2 
f 29/29/2 36/36/2 37/37/2 31/31/2 
f 31/31/2 37/37/2 38/38/2 33/33/2 
f 33/33/2 38/38/2 39/39/2 35/35/2 
f 40/40/2 36/36/2 29/29/2 28/28/3 
f 41/26/4 42/27/4 43/28/4 44/29/4 
f 45/30/5 41/26/4 44/29/4 46/31/4 
f 47/32/4 45/30/5 46/31/4 48/33/4 
f 49/34/4 47/32/4 48/33/4 50/35/4 
f 44/29/4 51/36/4 52/37/4 46/31/4 
f 46/31/4 52/37/4 53/38/4 48/33/4 
f 48/33/4 53/38/4 54/39/4 50/35/4 
f 55/40/4 51/36/4 44/29/4 43/28/4 
usemtl 08___Default
f 56/41/4 57/42/2 58/43/2 59/38/2 
f 57/42/2 60/44/4 61/45/2 58/43/2 
f 60/44/4 62/46/4 63/47/2 61/45/2 
f 64/32/2 65/48/4 56/41/4 59/38/2 
f 66/34/4 67/49/4 56/41/4 65/48/4 
f 67/49/4 68/50/4 57/42/2 56/41/4 
f 68/50/4 69/51/5 60/44/4 57/42/2 
f 70/52/5 62/46/4 60/44/4 69/51/5 
f 71/41/5 72/42/2 73/43/2 74/38/2 
f 72/42/2 75/44/4 76/45/2 73/43/2 
f 75/44/4 65/53/4 64/54/2 76/45/2 
f 77/55/2 78/56/4 71/41/5 74/38/2 
f 79/34/4 80/49/4 71/41/5 78/56/4 
f 80/49/4 81/50/4 72/42/2 71/41/5 
f 81/50/4 82/51/5 75/44/4 72/42/2 
f 66/52/4 65/53/4 75/44/4 82/51/5 
# 32 polygons

#
# object Object158
#

v  -0.5000 -1.0000 3.4116
v  -0.5000 -0.0000 3.4116
v  0.0000 -0.0000 3.0000
v  0.0000 -1.0000 3.0000
v  -0.5000 -1.0000 4.0000
v  -0.5000 -0.0000 4.0000
v  -1.0000 -1.0000 4.0000
v  -1.0000 -0.0000 4.0000
v  -2.0000 -1.0000 4.0000
v  -2.0000 -0.0000 4.0000
v  -3.0000 -1.0000 4.0000
v  -3.0000 -0.0000 4.0000
v  -4.0000 -1.0000 4.0000
v  -4.0000 -0.0000 4.0000
v  -0.5000 1.0000 3.4116
v  0.0000 1.0000 3.0000
v  0.0000 -2.0000 3.0000
v  -0.5000 -2.0000 3.4116
v  -0.5000 -2.0000 4.0000
v  -0.5000 1.0000 4.0000
v  -1.0000 1.0000 4.0000
v  -1.0000 -2.0000 4.0000
v  -2.0000 1.0000 4.0000
v  -2.0000 -2.0000 4.0000
v  -3.0000 1.0000 4.0000
v  -3.0000 -2.0000 4.0000
v  -4.0000 1.0000 4.0000
v  -4.0000 -2.0000 4.0000
v  -8.0000 -1.0000 3.0000
v  -8.0000 -0.0000 3.0000
v  -7.5000 -0.0000 3.4116
v  -7.5000 -1.0000 3.4116
v  -7.5000 -0.0000 4.0000
v  -7.5000 -1.0000 4.0000
v  -5.0000 -1.0000 4.0000
v  -5.0000 -0.0000 4.0000
v  -6.0000 -1.0000 4.0000
v  -6.0000 -0.0000 4.0000
v  -7.0000 -1.0000 4.0000
v  -7.0000 -0.0000 4.0000
v  -8.0000 1.0000 3.0000
v  -7.5000 1.0000 3.4116
v  -7.5000 -2.0000 3.4116
v  -8.0000 -2.0000 3.0000
v  -7.5000 1.0000 4.0000
v  -7.5000 -2.0000 4.0000
v  -5.0000 1.0000 4.0000
v  -5.0000 -2.0000 4.0000
v  -6.0000 1.0000 4.0000
v  -6.0000 -2.0000 4.0000
v  -7.0000 1.0000 4.0000
v  -7.0000 -2.0000 4.0000
v  5.5000 -1.0000 1.4116
v  5.5000 -0.0000 1.4116
v  6.0000 -0.0000 1.0000
v  6.0000 -1.0000 1.0000
v  2.0000 -1.0000 1.0000
v  2.0000 -0.0000 1.0000
v  2.5000 -0.0000 1.4116
v  2.5000 -1.0000 1.4116
v  2.5000 -0.0000 2.0000
v  2.5000 -1.0000 2.0000
v  5.5000 -1.0000 2.0000
v  5.5000 -0.0000 2.0000
v  5.0000 -1.0000 2.0000
v  5.0000 -0.0000 2.0000
v  4.0000 -1.0000 2.0000
v  4.0000 -0.0000 2.0000
v  3.0000 -1.0000 2.0000
v  3.0000 -0.0000 2.0000
v  5.5000 1.0000 1.4116
v  6.0000 1.0000 1.0000
v  6.0000 -2.0000 1.0000
v  5.5000 -2.0000 1.4116
v  2.0000 1.0000 1.0000
v  2.5000 1.0000 1.4116
v  2.5000 -2.0000 1.4116
v  2.0000 -2.0000 1.0000
v  2.5000 1.0000 2.0000
v  2.5000 -2.0000 2.0000
v  5.5000 -2.0000 2.0000
v  5.5000 1.0000 2.0000
v  5.0000 1.0000 2.0000
v  5.0000 -2.0000 2.0000
v  4.0000 1.0000 2.0000
v  4.0000 -2.0000 2.0000
v  3.0000 1.0000 2.0000
v  3.0000 -2.0000 2.0000
v  -2.5000 -1.0000 -3.4116
v  -2.5000 -0.0000 -3.4116
v  -3.0000 -0.0000 -3.0000
v  -3.0000 -1.0000 -3.0000
v  1.0000 -1.0000 -3.0000
v  1.0000 -0.0000 -3.0000
v  0.5000 -0.0000 -3.4116
v  0.5000 -1.0000 -3.4116
v  0.5000 -0.0000 -4.0000
v  0.5000 -1.0000 -4.0000
v  -2.5000 -1.0000 -4.0000
v  -2.5000 -0.0000 -4.0000
v  -2.0000 -1.0000 -4.0000
v  -2.0000 -0.0000 -4.0000
v  -1.0000 -1.0000 -4.0000
v  -1.0000 -0.0000 -4.0000
v  0.0000 -1.0000 -4.0000
v  0.0000 -0.0000 -4.0000
v  -2.5000 1.0000 -3.4116
v  -3.0000 1.0000 -3.0000
v  -3.0000 -2.0000 -3.0000
v  -2.5000 -2.0000 -3.4116
v  1.0000 1.0000 -3.0000
v  0.5000 1.0000 -3.4116
v  0.5000 -2.0000 -3.4116
v  1.0000 -2.0000 -3.0000
v  0.5000 1.0000 -4.0000
v  0.5000 -2.0000 -4.0000
v  -2.5000 -2.0000 -4.0000
v  -2.5000 1.0000 -4.0000
v  -2.0000 1.0000 -4.0000
v  -2.0000 -2.0000 -4.0000
v  -1.0000 1.0000 -4.0000
v  -1.0000 -2.0000 -4.0000
v  0.0000 1.0000 -4.0000
v  0.0000 -2.0000 -4.0000
# 124 vertices

vn -0.9043 0.0000 -0.4269
vn -0.6356 -0.0000 -0.7720
vn -0.7071 -0.0000 -0.7071
vn 0.0000 -0.0000 -1.0000
vn -0.0000 -0.0000 -1.0000
vn -0.9043 -0.0000 -0.4268
vn -0.6356 0.0000 -0.7720
vn -0.9043 -0.0000 -0.4269
vn 0.6356 -0.0000 -0.7720
vn 0.6356 0.0000 -0.7720
vn 0.9043 -0.0000 -0.4269
vn 0.7071 -0.0000 -0.7071
vn 0.9043 0.0000 0.4269
vn 0.6356 -0.0000 0.7720
vn -0.6356 0.0000 0.7720
vn -0.6356 -0.0000 0.7720
vn -0.9043 -0.0000 0.4269
vn -0.7071 -0.0000 0.7071
vn 0.7071 -0.0000 0.7071
vn -0.0000 -0.0000 1.0000
vn -0.0000 0.0000 1.0000
vn 0.9043 0.0000 0.4268
vn 0.6356 0.0000 0.7720
vn -0.9043 0.0000 0.4269
vn -0.9043 -0.0000 0.4268
vn 0.7071 0.0000 0.7071
# 26 vertex normals

vt 0.1029 0.3333 0.0000
vt 0.1029 0.6667 0.0000
vt 0.0000 0.6667 0.0000
vt 0.0000 0.3333 0.0000
vt 0.1471 0.6667 0.0000
vt 0.1471 0.3333 0.0000
vt 0.2500 0.3333 0.0000
vt 0.2500 0.6667 0.0000
vt -0.0000 0.6667 0.0000
vt -0.0000 0.3333 0.0000
vt 0.5000 0.3333 0.0000
vt 0.5000 0.6667 0.0000
vt 0.7500 0.3333 0.0000
vt 0.7500 0.6667 0.0000
vt 1.0000 0.3333 0.0000
vt 1.0000 0.6667 0.0000
vt 0.1029 1.0000 0.0000
vt 0.0000 1.0000 0.0000
vt 0.0000 0.0000 0.0000
vt 0.1029 0.0000 0.0000
vt 0.1471 0.0000 0.0000
vt 0.1471 1.0000 0.0000
vt 0.2500 1.0000 0.0000
vt -0.0000 1.0000 0.0000
vt 0.2500 0.0000 0.0000
vt 0.5000 1.0000 0.0000
vt 0.5000 0.0000 0.0000
vt 0.7500 1.0000 0.0000
vt 0.7500 0.0000 0.0000
vt 1.0000 1.0000 0.0000
vt 1.0000 0.0000 0.0000
vt 0.8971 0.6667 0.0000
vt 0.8971 0.3333 0.0000
vt 0.8971 1.0000 0.0000
vt 0.8971 0.0000 0.0000
vt 0.1471 -0.0000 0.0000
# 36 texture coords

o Object158
g Object158
usemtl 07___Default
f 83/57/6 84/58/6 85/59/7 86/60/7 
f 84/61/6 83/62/6 87/60/8 88/59/8 
f 89/63/9 90/64/9 88/65/8 87/66/8 
f 91/67/9 92/68/9 90/64/9 89/63/9 
f 93/69/9 94/70/9 92/68/9 91/67/9 
f 95/71/10 96/72/10 94/70/9 93/69/9 
f 84/58/6 97/73/11 98/74/12 85/59/7 
f 86/60/7 99/75/12 100/76/13 83/57/6 
f 83/62/6 100/77/13 101/75/8 87/60/8 
f 88/59/8 102/74/8 97/78/11 84/61/6 
f 90/64/9 103/79/9 102/80/8 88/65/8 
f 87/66/8 101/75/8 104/81/9 89/63/9 
f 92/68/9 105/82/9 103/79/9 90/64/9 
f 89/63/9 104/81/9 106/83/9 91/67/9 
f 94/70/9 107/84/9 105/82/9 92/68/9 
f 91/67/9 106/83/9 108/85/9 93/69/9 
f 96/72/10 109/86/10 107/84/9 94/70/9 
f 93/69/9 108/85/9 110/87/10 95/71/10 
f 111/71/14 112/72/15 113/88/16 114/89/16 
f 114/62/16 113/61/16 115/59/17 116/60/17 
f 117/63/10 118/64/10 96/65/10 95/66/10 
f 119/67/9 120/68/9 118/64/10 117/63/10 
f 121/69/9 122/70/9 120/68/9 119/67/9 
f 116/71/17 115/72/17 122/70/9 121/69/9 
f 112/72/15 123/86/14 124/90/16 113/88/16 
f 114/89/16 125/91/16 126/87/14 111/71/14 
f 113/61/16 124/78/16 127/74/17 115/59/17 
f 116/60/17 128/75/17 125/92/16 114/62/16 
f 118/64/10 129/79/10 109/80/10 96/65/10 
f 95/66/10 110/75/10 130/81/10 117/63/10 
f 120/68/9 131/82/9 129/79/10 118/64/10 
f 117/63/10 130/81/10 132/83/9 119/67/9 
f 122/70/9 133/84/9 131/82/9 120/68/9 
f 119/67/9 132/83/9 134/85/9 121/69/9 
f 115/72/17 127/86/17 133/84/9 122/70/9 
f 121/69/9 134/85/9 128/87/17 116/71/17 
f 135/57/6 136/58/6 137/59/7 138/60/7 
f 139/71/14 140/72/14 141/88/16 142/89/16 
f 142/62/16 141/61/16 143/59/17 144/60/17 
f 136/61/6 135/62/6 145/60/8 146/59/8 
f 147/63/9 148/64/9 146/65/8 145/66/8 
f 149/67/9 150/68/9 148/64/9 147/63/9 
f 151/69/9 152/70/9 150/68/9 149/67/9 
f 144/71/17 143/72/17 152/70/9 151/69/9 
f 136/58/6 153/73/11 154/74/12 137/59/7 
f 138/60/7 155/75/12 156/76/13 135/57/6 
f 140/72/14 157/86/14 158/90/16 141/88/16 
f 142/89/16 159/91/16 160/87/14 139/71/14 
f 141/61/16 158/78/16 161/74/17 143/59/17 
f 144/60/17 162/75/17 159/92/16 142/62/16 
f 135/62/6 156/77/13 163/75/8 145/60/8 
f 146/59/8 164/74/8 153/78/11 136/61/6 
f 148/64/9 165/79/9 164/80/8 146/65/8 
f 145/66/8 163/75/8 166/81/9 147/63/9 
f 150/68/9 167/82/9 165/79/9 148/64/9 
f 147/63/9 166/81/9 168/83/9 149/67/9 
f 152/70/9 169/84/9 167/82/9 150/68/9 
f 149/67/9 168/83/9 170/85/9 151/69/9 
f 143/72/17 161/86/17 169/84/9 152/70/9 
f 151/69/9 170/85/9 162/87/17 144/71/17 
f 171/57/18 172/58/18 173/59/19 174/60/19 
f 175/71/20 176/72/21 177/88/22 178/89/22 
f 178/62/22 177/61/22 179/59/23 180/60/23 
f 172/61/18 171/62/18 181/60/24 182/59/24 
f 183/63/25 184/64/25 182/65/24 181/66/24 
f 185/67/25 186/68/26 184/64/25 183/63/25 
f 187/69/25 188/70/26 186/68/26 185/67/25 
f 180/71/23 179/72/23 188/70/26 187/69/25 
f 172/58/18 189/73/27 190/74/28 173/59/19 
f 174/60/19 191/75/28 192/76/18 171/57/18 
f 176/72/21 193/86/21 194/90/29 177/88/22 
f 178/89/22 195/91/30 196/87/21 175/71/20 
f 177/61/22 194/78/29 197/74/23 179/59/23 
f 180/60/23 198/75/23 195/92/30 178/62/22 
f 171/62/18 192/77/18 199/75/31 181/60/24 
f 182/59/24 200/74/31 189/78/27 172/61/18 
f 184/64/25 201/79/26 200/80/31 182/65/24 
f 181/66/24 199/75/31 202/81/26 183/63/25 
f 186/68/26 203/82/26 201/79/26 184/64/25 
f 183/63/25 202/81/26 204/83/25 185/67/25 
f 188/70/26 205/84/26 203/82/26 186/68/26 
f 185/67/25 204/83/25 206/85/25 187/69/25 
f 179/72/23 197/86/23 205/84/26 188/70/26 
f 187/69/25 206/85/25 198/87/23 180/71/23 
# 84 polygons

#
# object Object127
#

v  -8.0000 -1.0000 3.0000
v  -8.0000 -2.0000 3.0000
v  -8.0000 -2.0000 2.0000
v  -8.0000 -1.0000 2.0000
v  -8.0000 -2.0000 1.0000
v  -8.0000 -1.0000 1.0000
v  -8.0000 -2.0000 -0.0000
v  -8.0000 -1.0000 -0.0000
v  -8.0000 -2.0000 -1.0000
v  -8.0000 -1.0000 -1.0000
v  -8.0000 0.0000 3.0000
v  -8.0000 0.0000 2.0000
v  -8.0000 0.0000 1.0000
v  -8.0000 0.0000 -0.0000
v  -8.0000 0.0000 -1.0000
v  -8.0000 1.0000 3.0000
v  -8.0000 1.0000 2.0000
v  -8.0000 1.0000 1.0000
v  -8.0000 1.0000 -0.0000
v  -8.0000 1.0000 -1.0000
v  -8.0000 2.0000 3.0000
v  -8.0000 2.0000 2.0000
v  -8.0000 2.0000 1.0000
v  -8.0000 2.0000 -0.0000
v  -8.0000 2.0000 -1.0000
v  -7.0000 -2.0000 -1.0000
v  -7.0000 -1.0000 -1.0000
v  -6.0000 -2.0000 -1.0000
v  -6.0000 -1.0000 -1.0000
v  -5.0000 -2.0000 -1.0000
v  -5.0000 -1.0000 -1.0000
v  -4.5000 -2.0000 -1.5000
v  -4.5000 -1.0000 -1.5000
v  -7.0000 0.0000 -1.0000
v  -6.0000 0.0000 -1.0000
v  -5.0000 0.0000 -1.0000
v  -4.5000 0.0000 -1.5000
v  -7.0000 1.0000 -1.0000
v  -6.0000 1.0000 -1.0000
v  -5.0000 1.0000 -1.0000
v  -4.5000 1.0000 -1.5000
v  -7.0000 2.0000 -1.0000
v  -6.0000 2.0000 -1.0000
v  -5.0000 2.0000 -1.0000
v  -4.5000 2.0000 -1.5000
v  -4.0000 -2.0000 -2.0000
v  -4.0000 -1.0000 -2.0000
v  -4.0000 -2.0000 -3.0000
v  -4.0000 -1.0000 -3.0000
v  -4.0000 0.0000 -2.0000
v  -4.0000 0.0000 -3.0000
v  -4.0000 1.0000 -2.0000
v  -4.0000 1.0000 -3.0000
v  -4.0000 2.0000 -2.0000
v  -4.0000 2.0000 -3.0000
v  1.0000 -1.0000 -3.0000
v  1.0000 -2.0000 -3.0000
v  2.0000 -2.0000 -3.0000
v  2.0000 -1.0000 -3.0000
v  3.0000 -2.0000 -3.0000
v  3.0000 -1.0000 -3.0000
v  4.0000 -2.0000 -3.0000
v  4.0000 -1.0000 -3.0000
v  1.0000 0.0000 -3.0000
v  2.0000 0.0000 -3.0000
v  3.0000 0.0000 -3.0000
v  4.0000 0.0000 -3.0000
v  1.0000 1.0000 -3.0000
v  2.0000 1.0000 -3.0000
v  3.0000 1.0000 -3.0000
v  4.0000 1.0000 -3.0000
v  0.0000 2.0000 -3.0000
v  0.0000 1.0000 -3.0000
v  1.0000 2.0000 -3.0000
v  2.0000 2.0000 -3.0000
v  3.0000 2.0000 -3.0000
v  4.0000 2.0000 -3.0000
v  5.0000 -2.0000 -3.0000
v  5.0000 -1.0000 -3.0000
v  6.0000 -2.0000 -3.0000
v  6.0000 -1.0000 -3.0000
v  7.0000 -2.0000 -3.0000
v  7.0000 -1.0000 -3.0000
v  8.0000 -2.0000 -3.0000
v  8.0000 -1.0000 -3.0000
v  5.0000 0.0000 -3.0000
v  6.0000 0.0000 -3.0000
v  7.0000 0.0000 -3.0000
v  8.0000 0.0000 -3.0000
v  5.0000 1.0000 -3.0000
v  6.0000 1.0000 -3.0000
v  7.0000 1.0000 -3.0000
v  8.0000 1.0000 -3.0000
v  5.0000 2.0000 -3.0000
v  6.0000 2.0000 -3.0000
v  7.0000 2.0000 -3.0000
v  8.0000 2.0000 -3.0000
v  -3.0000 -2.0000 -3.0000
v  -3.0000 -1.0000 -3.0000
v  -3.0000 0.0000 -3.0000
v  -3.0000 1.0000 -3.0000
v  -3.0000 2.0000 -3.0000
v  -2.0000 1.0000 -3.0000
v  -2.0000 2.0000 -3.0000
v  -1.0000 1.0000 -3.0000
v  -1.0000 2.0000 -3.0000
v  8.0000 -1.0000 1.0000
v  8.0000 -2.0000 1.0000
v  7.0000 -2.0000 1.0000
v  7.0000 -1.0000 1.0000
v  6.0000 -2.0000 1.0000
v  6.0000 -1.0000 1.0000
v  8.0000 0.0000 1.0000
v  7.0000 0.0000 1.0000
v  6.0000 0.0000 1.0000
v  8.0000 1.0000 1.0000
v  7.0000 1.0000 1.0000
v  6.0000 1.0000 1.0000
v  8.0000 2.0000 1.0000
v  7.0000 2.0000 1.0000
v  6.0000 2.0000 1.0000
v  5.0000 1.0000 1.0000
v  5.0000 2.0000 1.0000
v  4.0000 1.0000 1.0000
v  4.0000 2.0000 1.0000
v  2.0000 -1.0000 1.0000
v  2.0000 -2.0000 1.0000
v  1.0000 -2.0000 1.0000
v  1.0000 -1.0000 1.0000
v  2.0000 0.0000 1.0000
v  1.0000 0.0000 1.0000
v  0.0000 -1.0000 1.0000
v  0.0000 0.0000 1.0000
v  2.0000 1.0000 1.0000
v  1.0000 1.0000 1.0000
v  0.0000 1.0000 1.0000
v  3.0000 1.0000 1.0000
v  3.0000 2.0000 1.0000
v  2.0000 2.0000 1.0000
v  1.0000 2.0000 1.0000
v  0.0000 2.0000 1.0000
v  0.0000 -2.0000 1.0000
v  0.0000 -2.0000 2.0000
v  0.0000 -1.0000 2.0000
v  0.0000 -2.0000 3.0000
v  0.0000 -1.0000 3.0000
v  0.0000 0.0000 2.0000
v  0.0000 0.0000 3.0000
v  0.0000 1.0000 2.0000
v  0.0000 1.0000 3.0000
v  0.0000 2.0000 2.0000
v  0.0000 2.0000 3.0000
v  -1.0000 1.0000 3.0000
v  -1.0000 2.0000 3.0000
v  -2.0000 1.0000 3.0000
v  -2.0000 2.0000 3.0000
v  -3.0000 1.0000 3.0000
v  -3.0000 2.0000 3.0000
v  -4.0000 1.0000 3.0000
v  -4.0000 2.0000 3.0000
v  -5.0000 1.0000 3.0000
v  -5.0000 2.0000 3.0000
v  -6.0000 1.0000 3.0000
v  -6.0000 2.0000 3.0000
v  -7.0000 1.0000 3.0000
v  -7.0000 2.0000 3.0000
v  8.0000 -1.0000 -5.0000
v  8.0000 -2.0000 -5.0000
v  9.0000 -2.0000 -5.0000
v  9.0000 -1.0000 -5.0000
v  10.0000 -2.0000 -5.0000
v  10.0000 -1.0000 -5.0000
v  11.0000 -2.0000 -5.0000
v  11.0000 -1.0000 -5.0000
v  12.0000 -2.0000 -5.0000
v  12.0000 -1.0000 -5.0000
v  8.0000 0.0000 -5.0000
v  9.0000 0.0000 -5.0000
v  10.0000 0.0000 -5.0000
v  11.0000 0.0000 -5.0000
v  12.0000 0.0000 -5.0000
v  8.0000 1.0000 -5.0000
v  9.0000 1.0000 -5.0000
v  10.0000 1.0000 -5.0000
v  11.0000 1.0000 -5.0000
v  12.0000 1.0000 -5.0000
v  8.0000 2.0000 -5.0000
v  9.0000 2.0000 -5.0000
v  10.0000 2.0000 -5.0000
v  11.0000 2.0000 -5.0000
v  12.0000 2.0000 -5.0000
v  13.0000 -2.0000 -5.0000
v  13.0000 -1.0000 -5.0000
v  14.0000 -2.0000 -5.0000
v  14.0000 -1.0000 -5.0000
v  15.0000 -2.0000 -5.0000
v  15.0000 -1.0000 -5.0000
v  16.0000 -2.0000 -5.0000
v  16.0000 -1.0000 -5.0000
v  13.0000 0.0000 -5.0000
v  14.0000 0.0000 -5.0000
v  15.0000 0.0000 -5.0000
v  16.0000 0.0000 -5.0000
v  13.0000 1.0000 -5.0000
v  14.0000 1.0000 -5.0000
v  15.0000 1.0000 -5.0000
v  16.0000 1.0000 -5.0000
v  13.0000 2.0000 -5.0000
v  14.0000 2.0000 -5.0000
v  15.0000 2.0000 -5.0000
v  16.0000 2.0000 -5.0000
v  12.0000 -1.0000 1.0000
v  12.0000 -2.0000 1.0000
v  11.0000 -2.0000 1.0000
v  11.0000 -1.0000 1.0000
v  10.0000 -2.0000 1.0000
v  10.0000 -1.0000 1.0000
v  9.0000 -2.0000 1.0000
v  9.0000 -1.0000 1.0000
v  12.0000 0.0000 1.0000
v  11.0000 0.0000 1.0000
v  10.0000 0.0000 1.0000
v  9.0000 0.0000 1.0000
v  12.0000 1.0000 1.0000
v  11.0000 1.0000 1.0000
v  10.0000 1.0000 1.0000
v  9.0000 1.0000 1.0000
v  12.0000 2.0000 1.0000
v  11.0000 2.0000 1.0000
v  10.0000 2.0000 1.0000
v  9.0000 2.0000 1.0000
v  16.0000 -1.0000 -1.0000
v  16.0000 -2.0000 -1.0000
v  15.0000 -2.0000 -1.0000
v  15.0000 -1.0000 -1.0000
v  14.0000 -2.0000 -1.0000
v  14.0000 -1.0000 -1.0000
v  13.0000 -2.0000 -1.0000
v  13.0000 -1.0000 -1.0000
v  12.0000 -2.0000 -1.0000
v  12.0000 -1.0000 -1.0000
v  16.0000 0.0000 -1.0000
v  15.0000 0.0000 -1.0000
v  14.0000 0.0000 -1.0000
v  13.0000 0.0000 -1.0000
v  12.0000 0.0000 -1.0000
v  16.0000 1.0000 -1.0000
v  15.0000 1.0000 -1.0000
v  14.0000 1.0000 -1.0000
v  13.0000 1.0000 -1.0000
v  12.0000 1.0000 -1.0000
v  16.0000 2.0000 -1.0000
v  15.0000 2.0000 -1.0000
v  14.0000 2.0000 -1.0000
v  13.0000 2.0000 -1.0000
v  12.0000 2.0000 -1.0000
v  8.0000 -2.0000 -4.0000
v  8.0000 -1.0000 -4.0000
v  8.0000 0.0000 -4.0000
v  8.0000 1.0000 -4.0000
v  8.0000 2.0000 -4.0000
v  12.0000 -2.0000 -0.0000
v  12.0000 -1.0000 -0.0000
v  12.0000 0.0000 -0.0000
v  12.0000 1.0000 -0.0000
v  12.0000 2.0000 -0.0000
v  16.0000 -2.0000 -4.0000
v  16.0000 -1.0000 -4.0000
v  16.0000 -2.0000 -3.0000
v  16.0000 -1.0000 -3.0000
v  16.0000 -2.0000 -2.0000
v  16.0000 -1.0000 -2.0000
v  16.0000 0.0000 -4.0000
v  16.0000 0.0000 -3.0000
v  16.0000 0.0000 -2.0000
v  16.0000 1.0000 -4.0000
v  16.0000 1.0000 -3.0000
v  16.0000 1.0000 -2.0000
v  16.0000 2.0000 -4.0000
v  16.0000 2.0000 -3.0000
v  16.0000 2.0000 -2.0000
# 281 vertices

vn 1.0000 -0.0000 -0.0000
vn 1.0000 -0.0000 0.0000
vn 1.0000 0.0000 0.0000
vn 0.7071 -0.0000 0.7071
vn 0.8944 0.0000 -0.4472
vn 0.7071 0.0000 0.7071
vn 0.7071 -0.0000 -0.7071
vn 0.0000 0.0000 1.0000
vn 0.3827 0.0000 0.9239
vn 0.9239 -0.0000 0.3827
vn 0.9239 0.0000 0.3827
vn -0.0000 -0.0000 1.0000
vn 0.0000 -0.0000 1.0000
vn -0.0000 0.0000 -1.0000
vn -0.0000 -0.0000 -1.0000
vn 0.0000 0.0000 -1.0000
vn 0.0000 -0.0000 -1.0000
vn -0.7071 0.0000 -0.7071
vn -0.7071 -0.0000 -0.7071
vn -1.0000 -0.0000 0.0000
vn -1.0000 -0.0000 -0.0000
vn -1.0000 0.0000 0.0000
vn -1.0000 0.0000 -0.0000
vn -0.8944 0.0000 -0.4472
vn -0.0000 0.0000 1.0000
vn -0.7071 -0.0000 0.7071
vn -0.7071 0.0000 0.7071
vn 1.0000 0.0000 -0.0000
# 28 vertex normals

vt 0.0000 0.2500 0.0000
vt 0.0000 0.0000 0.0000
vt 0.2500 0.0000 0.0000
vt 0.2500 0.2500 0.0000
vt 0.5000 0.0000 0.0000
vt 0.5000 0.2500 0.0000
vt 0.7500 0.0000 0.0000
vt 0.7500 0.2500 0.0000
vt 1.0000 0.0000 0.0000
vt 1.0000 0.2500 0.0000
vt 0.0000 0.5000 0.0000
vt 0.2500 0.5000 0.0000
vt 0.5000 0.5000 0.0000
vt 0.7500 0.5000 0.0000
vt 1.0000 0.5000 0.0000
vt 0.0000 0.7500 0.0000
vt 0.2500 0.7500 0.0000
vt 0.5000 0.7500 0.0000
vt 0.7500 0.7500 0.0000
vt 1.0000 0.7500 0.0000
vt 0.0000 1.0000 0.0000
vt 0.2500 1.0000 0.0000
vt 0.5000 1.0000 0.0000
vt 0.7500 1.0000 0.0000
vt 1.0000 1.0000 0.0000
# 25 texture coords

o Object127
g Object127
usemtl 19___Default
f 207/93/32 208/94/32 209/95/33 210/96/32 
f 210/96/32 209/95/33 211/97/34 212/98/34 
f 212/98/34 211/97/34 213/99/32 214/100/32 
f 214/100/32 213/99/32 215/101/35 216/102/35 
f 217/103/34 207/93/32 210/96/32 218/104/32 
f 218/104/32 210/96/32 212/98/34 219/105/33 
f 219/105/33 212/98/34 214/100/32 220/106/32 
f 220/106/32 214/100/32 216/102/35 221/107/35 
f 222/108/36 217/103/34 218/104/32 223/109/33 
f 223/109/33 218/104/32 219/105/33 224/110/33 
f 224/110/33 219/105/33 220/106/32 225/111/32 
f 225/111/32 220/106/32 221/107/35 226/112/37 
f 227/113/38 222/108/36 223/109/33 228/114/33 
f 228/114/33 223/109/33 224/110/33 229/115/34 
f 229/115/34 224/110/33 225/111/32 230/116/32 
f 230/116/32 225/111/32 226/112/37 231/117/37 
f 216/93/35 215/94/35 232/95/39 233/96/39 
f 233/96/39 232/95/39 234/97/39 235/98/39 
f 235/98/39 234/97/39 236/99/40 237/100/40 
f 237/100/40 236/99/40 238/101/37 239/102/35 
f 221/103/35 216/93/35 233/96/39 240/104/39 
f 240/104/39 233/96/39 235/98/39 241/105/39 
f 241/105/39 235/98/39 237/100/40 242/106/40 
f 242/106/40 237/100/40 239/102/35 243/107/37 
f 226/108/37 221/103/35 240/104/39 244/109/39 
f 244/109/39 240/104/39 241/105/39 245/110/39 
f 245/110/39 241/105/39 242/106/40 246/111/40 
f 246/111/40 242/106/40 243/107/37 247/112/37 
f 231/113/37 226/108/37 244/109/39 248/114/39 
f 248/114/39 244/109/39 245/110/39 249/115/39 
f 249/115/39 245/110/39 246/111/40 250/116/40 
f 250/116/40 246/111/40 247/112/37 251/117/37 
f 239/98/35 238/97/37 252/99/41 253/100/41 
f 253/100/41 252/99/41 254/101/35 255/102/35 
f 243/105/37 239/98/35 253/100/41 256/106/42 
f 256/106/42 253/100/41 255/102/35 257/107/35 
f 247/110/37 243/105/37 256/106/42 258/111/42 
f 258/111/42 256/106/42 257/107/35 259/112/35 
f 251/115/37 247/110/37 258/111/42 260/116/42 
f 260/116/42 258/111/42 259/112/35 261/117/35 
f 262/96/43 263/95/43 264/97/43 265/98/43 
f 265/98/43 264/97/43 266/99/43 267/100/43 
f 267/100/43 266/99/43 268/101/43 269/102/43 
f 270/104/43 262/96/43 265/98/43 271/105/43 
f 271/105/43 265/98/43 267/100/43 272/106/43 
f 272/106/43 267/100/43 269/102/43 273/107/43 
f 274/109/43 270/104/43 271/105/43 275/110/43 
f 275/110/43 271/105/43 272/106/43 276/111/43 
f 276/111/43 272/106/43 273/107/43 277/112/43 
f 278/113/43 279/108/43 274/109/43 280/114/43 
f 280/114/43 274/109/43 275/110/43 281/115/43 
f 281/115/43 275/110/43 276/111/43 282/116/43 
f 282/116/43 276/111/43 277/112/43 283/117/43 
f 269/93/43 268/94/43 284/95/43 285/96/43 
f 285/96/43 284/95/43 286/97/43 287/98/43 
f 287/98/43 286/97/43 288/99/44 289/100/44 
f 289/100/44 288/99/44 290/101/35 291/102/35 
f 273/103/43 269/93/43 285/96/43 292/104/43 
f 292/104/43 285/96/43 287/98/43 293/105/43 
f 293/105/43 287/98/43 289/100/44 294/106/44 
f 294/106/44 289/100/44 291/102/35 295/107/35 
f 277/108/43 273/103/43 292/104/43 296/109/43 
f 296/109/43 292/104/43 293/105/43 297/110/43 
f 297/110/43 293/105/43 294/106/44 298/111/44 
f 298/111/44 294/106/44 295/107/35 299/112/35 
f 283/113/43 277/108/43 296/109/43 300/114/43 
f 300/114/43 296/109/43 297/110/43 301/115/43 
f 301/115/43 297/110/43 298/111/44 302/116/44 
f 302/116/44 298/111/44 299/112/35 303/117/37 
f 255/93/35 254/94/35 304/95/43 305/96/43 
f 257/103/35 255/93/35 305/96/43 306/104/43 
f 259/108/35 257/103/35 306/104/43 307/109/43 
f 261/113/35 259/108/35 307/109/43 308/114/43 
f 308/114/43 307/109/43 309/110/43 310/115/43 
f 310/115/43 309/110/43 311/111/43 312/116/43 
f 312/116/43 311/111/43 279/112/43 278/117/43 
f 313/93/45 314/94/46 315/95/46 316/96/45 
f 316/96/45 315/95/46 317/97/47 318/98/47 
f 319/103/45 313/93/45 316/96/45 320/104/45 
f 320/104/45 316/96/45 318/98/47 321/105/47 
f 322/108/46 319/103/45 320/104/45 323/109/46 
f 323/109/46 320/104/45 321/105/47 324/110/48 
f 325/113/45 322/108/46 323/109/46 326/114/46 
f 326/114/46 323/109/46 324/110/48 327/115/48 
f 327/115/48 324/110/48 328/111/48 329/116/48 
f 329/116/48 328/111/48 330/112/47 331/117/47 
f 332/98/46 333/97/46 334/99/48 335/100/48 
f 336/105/47 332/98/46 335/100/48 337/106/48 
f 337/106/48 335/100/48 338/102/49 339/107/50 
f 340/110/48 336/105/47 337/106/48 341/111/47 
f 341/111/47 337/106/48 339/107/50 342/112/49 
f 331/113/47 330/108/47 343/109/47 344/114/47 
f 344/114/47 343/109/47 340/110/48 345/115/48 
f 345/115/48 340/110/48 341/111/47 346/116/47 
f 346/116/47 341/111/47 342/112/49 347/117/49 
f 338/98/49 348/97/49 349/99/51 350/100/52 
f 350/100/52 349/99/51 351/101/51 352/102/51 
f 339/105/50 338/98/49 350/100/52 353/106/52 
f 353/106/52 350/100/52 352/102/51 354/107/53 
f 342/110/49 339/105/50 353/106/52 355/111/54 
f 355/111/54 353/106/52 354/107/53 356/112/55 
f 347/115/49 342/110/49 355/111/54 357/116/54 
f 357/116/54 355/111/54 356/112/55 358/117/49 
f 358/113/49 356/108/55 359/109/46 360/114/46 
f 360/114/46 359/109/46 361/110/47 362/115/47 
f 362/115/47 361/110/47 363/111/46 364/116/46 
f 364/116/46 363/111/46 365/112/46 366/117/46 
f 366/113/46 365/108/46 367/109/48 368/114/48 
f 368/114/48 367/109/48 369/110/48 370/115/48 
f 370/115/48 369/110/48 371/111/48 372/116/48 
f 372/116/48 371/111/48 222/112/36 227/117/38 
f 335/100/48 334/99/48 348/101/49 338/102/49 
f 373/93/35 374/94/37 375/95/44 376/96/44 
f 376/96/44 375/95/44 377/97/56 378/98/39 
f 378/98/39 377/97/56 379/99/39 380/100/44 
f 380/100/44 379/99/39 381/101/43 382/102/43 
f 383/103/35 373/93/35 376/96/44 384/104/39 
f 384/104/39 376/96/44 378/98/39 385/105/43 
f 385/105/43 378/98/39 380/100/44 386/106/44 
f 386/106/44 380/100/44 382/102/43 387/107/56 
f 388/108/37 383/103/35 384/104/39 389/109/44 
f 389/109/44 384/104/39 385/105/43 390/110/43 
f 390/110/43 385/105/43 386/106/44 391/111/44 
f 391/111/44 386/106/44 387/107/56 392/112/43 
f 393/113/37 388/108/37 389/109/44 394/114/44 
f 394/114/44 389/109/44 390/110/43 395/115/56 
f 395/115/56 390/110/43 391/111/44 396/116/44 
f 396/116/44 391/111/44 392/112/43 397/117/43 
f 382/93/43 381/94/43 398/95/43 399/96/43 
f 399/96/43 398/95/43 400/97/43 401/98/43 
f 401/98/43 400/97/43 402/99/56 403/100/43 
f 403/100/43 402/99/56 404/101/57 405/102/57 
f 387/103/56 382/93/43 399/96/43 406/104/56 
f 406/104/56 399/96/43 401/98/43 407/105/43 
f 407/105/43 401/98/43 403/100/43 408/106/43 
f 408/106/43 403/100/43 405/102/57 409/107/58 
f 392/108/43 387/103/56 406/104/56 410/109/43 
f 410/109/43 406/104/56 407/105/43 411/110/43 
f 411/110/43 407/105/43 408/106/43 412/111/43 
f 412/111/43 408/106/43 409/107/58 413/112/58 
f 397/113/43 392/108/43 410/109/43 414/114/43 
f 414/114/43 410/109/43 411/110/43 415/115/43 
f 415/115/43 411/110/43 412/111/43 416/116/44 
f 416/116/44 412/111/43 413/112/58 417/117/58 
f 418/93/50 419/94/49 420/95/46 421/96/46 
f 421/96/46 420/95/46 422/97/48 423/98/48 
f 423/98/48 422/97/48 424/99/46 425/100/46 
f 425/100/46 424/99/46 314/101/46 313/102/45 
f 426/103/50 418/93/50 421/96/46 427/104/45 
f 427/104/45 421/96/46 423/98/48 428/105/48 
f 428/105/48 423/98/48 425/100/46 429/106/46 
f 429/106/46 425/100/46 313/102/45 319/107/45 
f 430/108/50 426/103/50 427/104/45 431/109/48 
f 431/109/48 427/104/45 428/105/48 432/110/48 
f 432/110/48 428/105/48 429/106/46 433/111/46 
f 433/111/46 429/106/46 319/107/45 322/112/46 
f 434/113/50 430/108/50 431/109/48 435/114/46 
f 435/114/46 431/109/48 432/110/48 436/115/48 
f 436/115/48 432/110/48 433/111/46 437/116/46 
f 437/116/46 433/111/46 322/112/46 325/117/45 
f 438/93/50 439/94/49 440/95/48 441/96/48 
f 441/96/48 440/95/48 442/97/48 443/98/48 
f 443/98/48 442/97/48 444/99/45 445/100/46 
f 445/100/46 444/99/45 446/101/50 447/102/50 
f 448/103/50 438/93/50 441/96/48 449/104/47 
f 449/104/47 441/96/48 443/98/48 450/105/48 
f 450/105/48 443/98/48 445/100/46 451/106/45 
f 451/106/45 445/100/46 447/102/50 452/107/50 
f 453/108/50 448/103/50 449/104/47 454/109/47 
f 454/109/47 449/104/47 450/105/48 455/110/48 
f 455/110/48 450/105/48 451/106/45 456/111/46 
f 456/111/46 451/106/45 452/107/50 457/112/49 
f 458/113/50 453/108/50 454/109/47 459/114/48 
f 459/114/48 454/109/47 455/110/48 460/115/48 
f 460/115/48 455/110/48 456/111/46 461/116/46 
f 461/116/46 456/111/46 457/112/49 462/117/49 
f 291/93/35 290/94/35 463/95/32 464/96/32 
f 464/96/32 463/95/32 374/97/37 373/98/35 
f 295/103/35 291/93/35 464/96/32 465/104/32 
f 465/104/32 464/96/32 373/98/35 383/105/35 
f 299/108/35 295/103/35 465/104/32 466/109/59 
f 466/109/59 465/104/32 383/105/35 388/110/37 
f 303/113/37 299/108/35 466/109/59 467/114/59 
f 467/114/59 466/109/59 388/110/37 393/115/37 
f 447/93/50 446/94/50 468/95/52 469/96/52 
f 469/96/52 468/95/52 419/97/49 418/98/50 
f 452/103/50 447/93/50 469/96/52 470/104/52 
f 470/104/52 469/96/52 418/98/50 426/105/50 
f 457/108/49 452/103/50 470/104/52 471/109/52 
f 471/109/52 470/104/52 426/105/50 430/110/50 
f 462/113/49 457/108/49 471/109/52 472/114/52 
f 472/114/52 471/109/52 430/110/50 434/115/50 
f 405/93/57 404/94/57 473/95/54 474/96/54 
f 474/96/54 473/95/54 475/97/54 476/98/54 
f 476/98/54 475/97/54 477/99/52 478/100/52 
f 478/100/52 477/99/52 439/101/49 438/102/50 
f 409/103/58 405/93/57 474/96/54 479/104/52 
f 479/104/52 474/96/54 476/98/54 480/105/54 
f 480/105/54 476/98/54 478/100/52 481/106/54 
f 481/106/54 478/100/52 438/102/50 448/107/50 
f 413/108/58 409/103/58 479/104/52 482/109/54 
f 482/109/54 479/104/52 480/105/54 483/110/54 
f 483/110/54 480/105/54 481/106/54 484/111/54 
f 484/111/54 481/106/54 448/107/50 453/112/50 
f 417/113/58 413/108/58 482/109/54 485/114/54 
f 485/114/54 482/109/54 483/110/54 486/115/54 
f 486/115/54 483/110/54 484/111/54 487/116/52 
f 487/116/52 484/111/54 453/112/50 458/117/50 
# 208 polygons

#
# object floor_diagonal059
#

v  6.0000 -2.0000 -0.0000
v  6.0000 -2.0000 1.0000
v  7.0000 -2.0000 1.0000
v  7.0000 -2.0000 -0.0000
v  11.0000 -2.0000 1.0000
v  12.0000 -2.0000 1.0000
v  12.0000 -2.0000 -0.0000
v  11.0000 -2.0000 -0.0000
v  6.0000 -2.0000 -1.0000
v  7.0000 -2.0000 -1.0000
v  12.0000 -2.0000 -1.0000
v  11.0000 -2.0000 -1.0000
v  6.0000 -2.0000 -2.0000
v  7.0000 -2.0000 -2.0000
v  12.0000 -2.0000 -2.0000
v  11.0000 -2.0000 -2.0000
v  6.0000 -2.0000 -3.0000
v  7.0000 -2.0000 -3.0000
v  12.0000 -2.0000 -3.0000
v  11.0000 -2.0000 -3.0000
v  1.0000 -2.0000 -0.0000
v  1.0000 -2.0000 1.0000
v  2.0000 -2.0000 1.0000
v  2.0000 -2.0000 -0.0000
v  1.0000 -2.0000 -1.0000
v  2.0000 -2.0000 -1.0000
v  1.0000 -2.0000 -2.0000
v  2.0000 -2.0000 -2.0000
v  1.0000 -2.0000 -3.0000
v  2.0000 -2.0000 -3.0000
v  8.0000 -2.0000 -0.0000
v  8.0000 -2.0000 1.0000
v  9.0000 -2.0000 -0.0000
v  9.0000 -2.0000 1.0000
v  10.0000 -2.0000 -0.0000
v  10.0000 -2.0000 1.0000
v  8.0000 -2.0000 -1.0000
v  9.0000 -2.0000 -1.0000
v  10.0000 -2.0000 -1.0000
v  8.0000 -2.0000 -2.0000
v  9.0000 -2.0000 -2.0000
v  10.0000 -2.0000 -2.0000
v  8.0000 -2.0000 -3.0000
v  9.0000 -2.0000 -3.0000
v  10.0000 -2.0000 -3.0000
# 45 vertices

vn 0.0000 1.0000 -0.0000
# 1 vertex normals

vt 0.5000 0.2500 0.0000
vt 0.5000 0.0000 0.0000
vt 0.7500 0.0000 0.0000
vt 0.7500 0.2500 0.0000
vt 1.7500 0.0000 0.0000
vt 2.0000 0.0000 0.0000
vt 2.0000 0.2500 0.0000
vt 1.7500 0.2500 0.0000
vt 0.5000 0.5000 0.0000
vt 0.7500 0.5000 0.0000
vt 2.0000 0.5000 0.0000
vt 1.7500 0.5000 0.0000
vt 0.5000 0.7500 0.0000
vt 0.7500 0.7500 0.0000
vt 2.0000 0.7500 0.0000
vt 1.7500 0.7500 0.0000
vt 0.5000 1.0000 0.0000
vt 0.7500 1.0000 0.0000
vt 2.0000 1.0000 0.0000
vt 1.7500 1.0000 0.0000
vt -0.0041 0.2500 0.0000
vt -0.0041 0.0000 0.0000
vt 0.3359 0.0000 0.0000
vt 0.3359 0.2500 0.0000
vt -0.0041 0.5000 0.0000
vt 0.3359 0.5000 0.0000
vt -0.0041 0.7500 0.0000
vt 0.3359 0.7500 0.0000
vt -0.0041 1.0000 0.0000
vt 0.3359 1.0000 0.0000
vt 1.0000 0.2500 0.0000
vt 1.0000 0.0000 0.0000
vt 1.2500 0.2500 0.0000
vt 1.2500 0.0000 0.0000
vt 1.5000 0.2500 0.0000
vt 1.5000 0.0000 0.0000
vt 1.0000 0.5000 0.0000
vt 1.2500 0.5000 0.0000
vt 1.5000 0.5000 0.0000
vt 1.0000 0.7500 0.0000
vt 1.2500 0.7500 0.0000
vt 1.5000 0.7500 0.0000
vt 1.0000 1.0000 0.0000
vt 1.2500 1.0000 0.0000
vt 1.5000 1.0000 0.0000
# 45 texture coords

o floor_diagonal059
g floor_diagonal059
usemtl 21___Default
f 488/118/60 489/119/60 490/120/60 491/121/60 
f 492/122/60 493/123/60 494/124/60 495/125/60 
f 496/126/60 488/118/60 491/121/60 497/127/60 
f 495/125/60 494/124/60 498/128/60 499/129/60 
f 500/130/60 496/126/60 497/127/60 501/131/60 
f 499/129/60 498/128/60 502/132/60 503/133/60 
f 504/134/60 500/130/60 501/131/60 505/135/60 
f 503/133/60 502/132/60 506/136/60 507/137/60 
f 508/138/60 509/139/60 510/140/60 511/141/60 
f 512/142/60 508/138/60 511/141/60 513/143/60 
f 514/144/60 512/142/60 513/143/60 515/145/60 
f 516/146/60 514/144/60 515/145/60 517/147/60 
f 518/148/60 491/121/60 490/120/60 519/149/60 
f 520/150/60 518/148/60 519/149/60 521/151/60 
f 522/152/60 520/150/60 521/151/60 523/153/60 
f 495/125/60 522/152/60 523/153/60 492/122/60 
f 524/154/60 497/127/60 491/121/60 518/148/60 
f 525/155/60 524/154/60 518/148/60 520/150/60 
f 526/156/60 525/155/60 520/150/60 522/152/60 
f 499/129/60 526/156/60 522/152/60 495/125/60 
f 527/157/60 501/131/60 497/127/60 524/154/60 
f 528/158/60 527/157/60 524/154/60 525/155/60 
f 529/159/60 528/158/60 525/155/60 526/156/60 
f 503/133/60 529/159/60 526/156/60 499/129/60 
f 530/160/60 505/135/60 501/131/60 527/157/60 
f 531/161/60 530/160/60 527/157/60 528/158/60 
f 532/162/60 531/161/60 528/158/60 529/159/60 
f 507/137/60 532/162/60 529/159/60 503/133/60 
# 28 polygons

#
# object Object353
#

v  15.0000 -2.0000 -1.0000
v  16.0000 -2.0000 -1.0000
v  16.0000 -2.0000 -2.0000
v  15.0000 -2.0000 -2.0000
v  14.0000 -2.0000 -1.0000
v  14.0000 -2.0000 -2.0000
v  13.0000 -2.0000 -1.0000
v  13.0000 -2.0000 -2.0000
v  12.0000 -2.0000 -1.0000
v  12.0000 -2.0000 -2.0000
v  16.0000 -2.0000 -3.0000
v  15.0000 -2.0000 -3.0000
v  14.0000 -2.0000 -3.0000
v  13.0000 -2.0000 -3.0000
v  12.0000 -2.0000 -3.0000
v  16.0000 -2.0000 -4.0000
v  15.0000 -2.0000 -4.0000
v  14.0000 -2.0000 -4.0000
v  13.0000 -2.0000 -4.0000
v  12.0000 -2.0000 -4.0000
v  16.0000 -2.0000 -5.0000
v  15.0000 -2.0000 -5.0000
v  14.0000 -2.0000 -5.0000
v  13.0000 -2.0000 -5.0000
v  12.0000 -2.0000 -5.0000
v  11.0000 -2.0000 -3.0000
v  11.0000 -2.0000 -4.0000
v  11.0000 -2.0000 -5.0000
v  9.0000 -2.0000 -4.0000
v  8.0000 -2.0000 -4.0000
v  8.0000 -2.0000 -3.0000
v  9.0000 -2.0000 -3.0000
v  10.0000 -2.0000 -4.0000
v  10.0000 -2.0000 -3.0000
v  9.0000 -2.0000 -5.0000
v  8.0000 -2.0000 -5.0000
v  10.0000 -2.0000 -5.0000
v  -8.0000 -2.0000 2.0000
v  -8.0000 -2.0000 3.0000
v  -7.0000 -2.0000 3.0000
v  -7.0000 -2.0000 2.0000
v  -6.0000 -2.0000 3.0000
v  -6.0000 -2.0000 2.0000
v  -5.0000 -2.0000 3.0000
v  -5.0000 -2.0000 2.0000
v  -4.0000 -2.0000 3.0000
v  -4.0000 -2.0000 2.0000
v  -8.0000 -2.0000 1.0000
v  -7.0000 -2.0000 1.0000
v  -6.0000 -2.0000 1.0000
v  -5.0000 -2.0000 1.0000
v  -4.0000 -2.0000 1.0000
v  -8.0000 -2.0000 -0.0000
v  -7.0000 -2.0000 -0.0000
v  -6.0000 -2.0000 -0.0000
v  -5.0000 -2.0000 -0.0000
v  -4.0000 -2.0000 -0.0000
v  -8.0000 -2.0000 -1.0000
v  -7.0000 -2.0000 -1.0000
v  -6.0000 -2.0000 -1.0000
v  -5.0000 -2.0000 -1.0000
v  -4.0000 -2.0000 -1.0000
v  -5.0000 -2.0000 -2.0000
v  -4.0000 -2.0000 -2.0000
v  -3.0000 -2.0000 1.0000
v  -3.0000 -2.0000 -0.0000
v  -4.0000 -2.0000 -3.0000
v  -3.0000 -2.0000 -3.0000
v  -3.0000 -2.0000 3.0000
v  -3.0000 -2.0000 2.0000
v  -2.0000 -2.0000 3.0000
v  -2.0000 -2.0000 2.0000
v  -1.0000 -2.0000 3.0000
v  -1.0000 -2.0000 2.0000
v  0.0000 -2.0000 3.0000
v  0.0000 -2.0000 2.0000
v  -2.0000 -2.0000 1.0000
v  -1.0000 -2.0000 1.0000
v  0.0000 -2.0000 1.0000
# 79 vertices

vn 0.0000 1.0000 -0.0000
# 1 vertex normals

vt 2.7500 0.0000 0.0000
vt 3.0000 0.0000 0.0000
vt 3.0000 0.2500 0.0000
vt 2.7500 0.2500 0.0000
vt 2.5000 0.0000 0.0000
vt 2.5000 0.2500 0.0000
vt 2.2500 0.0000 0.0000
vt 2.2500 0.2500 0.0000
vt 2.0000 0.0000 0.0000
vt 2.0000 0.2500 0.0000
vt 3.0000 0.5000 0.0000
vt 2.7500 0.5000 0.0000
vt 2.5000 0.5000 0.0000
vt 2.2500 0.5000 0.0000
vt 2.0000 0.5000 0.0000
vt 3.0000 0.7500 0.0000
vt 2.7500 0.7500 0.0000
vt 2.5000 0.7500 0.0000
vt 2.2500 0.7500 0.0000
vt 2.0000 0.7500 0.0000
vt 3.0000 1.0000 0.0000
vt 2.7500 1.0000 0.0000
vt 2.5000 1.0000 0.0000
vt 2.2500 1.0000 0.0000
vt 2.0000 1.0000 0.0000
vt 1.7500 1.0000 0.0000
vt 2.0000 1.2500 0.0000
vt 1.7500 1.2500 0.0000
vt 2.0000 1.5000 0.0000
vt 1.7500 1.5000 0.0000
vt 1.2500 1.2500 0.0000
vt 1.0000 1.2500 0.0000
vt 1.0000 1.0000 0.0000
vt 1.2500 1.0000 0.0000
vt 1.5000 1.2500 0.0000
vt 1.5000 1.0000 0.0000
vt 1.2500 1.5000 0.0000
vt 1.0000 1.5000 0.0000
vt 1.5000 1.5000 0.0000
vt 0.0000 0.2500 0.0000
vt 0.0000 0.0000 0.0000
vt 0.2500 0.0000 0.0000
vt 0.2500 0.2500 0.0000
vt 0.5000 0.0000 0.0000
vt 0.5000 0.2500 0.0000
vt 0.7500 0.0000 0.0000
vt 0.7500 0.2500 0.0000
vt 1.0000 0.0000 0.0000
vt 1.0000 0.2500 0.0000
vt 0.0000 0.5000 0.0000
vt 0.2500 0.5000 0.0000
vt 0.5000 0.5000 0.0000
vt 0.7500 0.5000 0.0000
vt 1.0000 0.5000 0.0000
vt 0.0000 0.7500 0.0000
vt 0.2500 0.7500 0.0000
vt 0.5000 0.7500 0.0000
vt 0.7500 0.7500 0.0000
vt 1.0000 0.7500 0.0000
vt 0.0000 1.0000 0.0000
vt 0.2500 1.0000 0.0000
vt 0.5000 1.0000 0.0000
vt 0.7500 1.0000 0.0000
vt -0.0000 1.0000 0.0000
# 64 texture coords

o Object353
g Object353
usemtl 21___Default
f 533/163/61 534/164/61 535/165/61 536/166/61 
f 537/167/61 533/163/61 536/166/61 538/168/61 
f 539/169/61 537/167/61 538/168/61 540/170/61 
f 541/171/61 539/169/61 540/170/61 542/172/61 
f 536/166/61 535/165/61 543/173/61 544/174/61 
f 538/168/61 536/166/61 544/174/61 545/175/61 
f 540/170/61 538/168/61 545/175/61 546/176/61 
f 542/172/61 540/170/61 546/176/61 547/177/61 
f 544/174/61 543/173/61 548/178/61 549/179/61 
f 545/175/61 544/174/61 549/179/61 550/180/61 
f 546/176/61 545/175/61 550/180/61 551/181/61 
f 547/177/61 546/176/61 551/181/61 552/182/61 
f 549/179/61 548/178/61 553/183/61 554/184/61 
f 550/180/61 549/179/61 554/184/61 555/185/61 
f 551/181/61 550/180/61 555/185/61 556/186/61 
f 552/182/61 551/181/61 556/186/61 557/187/61 
f 558/188/61 547/187/61 552/189/61 559/190/61 
f 559/190/61 552/189/61 557/191/61 560/192/61 
f 561/193/61 562/194/61 563/195/61 564/196/61 
f 565/197/61 561/193/61 564/196/61 566/198/61 
f 559/190/61 565/197/61 566/198/61 558/188/61 
f 567/199/61 568/200/61 562/194/61 561/193/61 
f 569/201/61 567/199/61 561/193/61 565/197/61 
f 560/192/61 569/201/61 565/197/61 559/190/61 
f 570/202/61 571/203/61 572/204/61 573/205/61 
f 573/205/61 572/204/61 574/206/61 575/207/61 
f 575/207/61 574/206/61 576/208/61 577/209/61 
f 577/209/61 576/208/61 578/210/61 579/211/61 
f 580/212/61 570/202/61 573/205/61 581/213/61 
f 581/213/61 573/205/61 575/207/61 582/214/61 
f 582/214/61 575/207/61 577/209/61 583/215/61 
f 583/215/61 577/209/61 579/211/61 584/216/61 
f 585/217/61 580/212/61 581/213/61 586/218/61 
f 586/218/61 581/213/61 582/214/61 587/219/61 
f 587/219/61 582/214/61 583/215/61 588/220/61 
f 588/220/61 583/215/61 584/216/61 589/221/61 
f 590/222/61 585/217/61 586/218/61 591/223/61 
f 591/223/61 586/218/61 587/219/61 592/224/61 
f 592/224/61 587/219/61 588/220/61 593/225/61 
f 593/225/61 588/220/61 589/221/61 594/195/61 
f 595/209/61 593/208/61 594/210/61 596/211/61 
f 589/202/61 584/203/61 597/204/61 598/205/61 
f 599/226/61 589/202/61 598/205/61 600/223/61 
f 579/202/61 578/203/61 601/204/61 602/205/61 
f 602/205/61 601/204/61 603/206/61 604/207/61 
f 604/207/61 603/206/61 605/208/61 606/209/61 
f 606/209/61 605/208/61 607/210/61 608/211/61 
f 584/212/61 579/202/61 602/205/61 597/213/61 
f 597/213/61 602/205/61 604/207/61 609/214/61 
f 609/214/61 604/207/61 606/209/61 610/215/61 
f 610/215/61 606/209/61 608/211/61 611/216/61 
# 51 polygons

#
# object ceiling_basic069
#

v  4.0000 2.0000 -2.0000
v  4.0000 2.0000 -3.0000
v  5.0000 2.0000 -3.0000
v  5.0000 2.0000 -2.0000
v  6.0000 2.0000 -3.0000
v  6.0000 2.0000 -2.0000
v  7.0000 2.0000 -3.0000
v  7.0000 2.0000 -2.0000
v  8.0000 2.0000 -3.0000
v  8.0000 2.0000 -2.0000
v  4.0000 2.0000 -1.0000
v  5.0000 2.0000 -1.0000
v  6.0000 2.0000 -1.0000
v  7.0000 2.0000 -1.0000
v  8.0000 2.0000 -1.0000
v  4.0000 2.0000 0.0000
v  5.0000 2.0000 0.0000
v  6.0000 2.0000 0.0000
v  7.0000 2.0000 0.0000
v  8.0000 2.0000 0.0000
v  4.0000 2.0000 1.0000
v  5.0000 2.0000 1.0000
v  6.0000 2.0000 1.0000
v  7.0000 2.0000 1.0000
v  8.0000 2.0000 1.0000
v  -0.0000 2.0000 -2.0000
v  -0.0000 2.0000 -3.0000
v  1.0000 2.0000 -3.0000
v  1.0000 2.0000 -2.0000
v  2.0000 2.0000 -3.0000
v  2.0000 2.0000 -2.0000
v  3.0000 2.0000 -3.0000
v  3.0000 2.0000 -2.0000
v  -0.0000 2.0000 -1.0000
v  1.0000 2.0000 -1.0000
v  2.0000 2.0000 -1.0000
v  3.0000 2.0000 -1.0000
v  -0.0000 2.0000 -0.0000
v  1.0000 2.0000 0.0000
v  2.0000 2.0000 0.0000
v  3.0000 2.0000 0.0000
v  -0.0000 2.0000 1.0000
v  1.0000 2.0000 1.0000
v  2.0000 2.0000 1.0000
v  3.0000 2.0000 1.0000
v  -4.0000 2.0000 -2.0000
v  -4.0000 2.0000 -3.0000
v  -3.0000 2.0000 -3.0000
v  -3.0000 2.0000 -2.0000
v  -2.0000 2.0000 -3.0000
v  -2.0000 2.0000 -2.0000
v  -1.0000 2.0000 -3.0000
v  -1.0000 2.0000 -2.0000
v  -4.0000 2.0000 -1.0000
v  -3.0000 2.0000 -1.0000
v  -2.0000 2.0000 -1.0000
v  -1.0000 2.0000 -1.0000
v  -4.0000 2.0000 -0.0000
v  -3.0000 2.0000 -0.0000
v  -2.0000 2.0000 -0.0000
v  -1.0000 2.0000 -0.0000
v  -4.0000 2.0000 1.0000
v  -3.0000 2.0000 1.0000
v  -2.0000 2.0000 1.0000
v  -1.0000 2.0000 1.0000
v  5.0000 1.0000 1.4116
v  5.0000 1.0000 2.0000
v  4.0000 1.0000 2.0000
v  4.0000 1.0000 1.4116
v  3.0000 1.0000 2.0000
v  3.0000 1.0000 1.4116
v  2.5000 1.0000 2.0000
v  2.5000 1.0000 1.4116
v  5.5000 1.0000 2.0000
v  5.5000 1.0000 1.4116
v  6.0000 1.0000 1.0000
v  5.0000 1.0000 1.0000
v  4.0000 1.0000 1.0000
v  3.0000 1.0000 1.0000
v  2.0000 1.0000 1.0000
v  -2.0000 1.0000 -3.4116
v  -2.0000 1.0000 -4.0000
v  -1.0000 1.0000 -4.0000
v  -1.0000 1.0000 -3.4116
v  0.0000 1.0000 -4.0000
v  0.0000 1.0000 -3.4116
v  0.5000 1.0000 -4.0000
v  0.5000 1.0000 -3.4116
v  -2.5000 1.0000 -4.0000
v  -2.5000 1.0000 -3.4116
v  -3.0000 1.0000 -3.0000
v  -2.0000 1.0000 -3.0000
v  -1.0000 1.0000 -3.0000
v  0.0000 1.0000 -3.0000
v  1.0000 1.0000 -3.0000
v  -8.0000 2.0000 -0.0000
v  -8.0000 2.0000 -1.0000
v  -7.0000 2.0000 -1.0000
v  -7.0000 2.0000 -0.0000
v  -6.0000 2.0000 -1.0000
v  -6.0000 2.0000 -0.0000
v  -5.0000 2.0000 -1.0000
v  -5.0000 2.0000 -0.0000
v  -8.0000 2.0000 1.0000
v  -7.0000 2.0000 1.0000
v  -6.0000 2.0000 1.0000
v  -5.0000 2.0000 1.0000
v  -8.0000 2.0000 2.0000
v  -7.0000 2.0000 2.0000
v  -6.0000 2.0000 2.0000
v  -5.0000 2.0000 2.0000
v  -4.0000 2.0000 2.0000
v  -8.0000 2.0000 3.0000
v  -7.0000 2.0000 3.0000
v  -6.0000 2.0000 3.0000
v  -5.0000 2.0000 3.0000
v  -4.0000 2.0000 3.0000
v  -3.0000 2.0000 2.0000
v  -2.0000 2.0000 2.0000
v  -1.0000 2.0000 2.0000
v  -0.0000 2.0000 2.0000
v  -3.0000 2.0000 3.0000
v  -2.0000 2.0000 3.0000
v  -1.0000 2.0000 3.0000
v  -0.0000 2.0000 3.0000
v  -5.0000 1.0000 3.4116
v  -5.0000 1.0000 4.0000
v  -6.0000 1.0000 4.0000
v  -6.0000 1.0000 3.4116
v  -7.0000 1.0000 4.0000
v  -7.0000 1.0000 3.4116
v  -7.5000 1.0000 4.0000
v  -7.5000 1.0000 3.4116
v  -4.0000 1.0000 4.0000
v  -4.0000 1.0000 3.4116
v  -4.0000 1.0000 3.0000
v  -5.0000 1.0000 3.0000
v  -6.0000 1.0000 3.0000
v  -7.0000 1.0000 3.0000
v  -8.0000 1.0000 3.0000
v  -1.0000 1.0000 3.4116
v  -1.0000 1.0000 4.0000
v  -2.0000 1.0000 4.0000
v  -2.0000 1.0000 3.4116
v  -3.0000 1.0000 4.0000
v  -3.0000 1.0000 3.4116
v  -0.5000 1.0000 4.0000
v  -0.5000 1.0000 3.4116
v  -0.0000 1.0000 3.0000
v  -1.0000 1.0000 3.0000
v  -2.0000 1.0000 3.0000
v  -3.0000 1.0000 3.0000
v  -5.0000 2.0000 -2.0000
v  9.0000 2.0000 -3.0000
v  9.0000 2.0000 -2.0000
v  10.0000 2.0000 -3.0000
v  10.0000 2.0000 -2.0000
v  11.0000 2.0000 -3.0000
v  11.0000 2.0000 -2.0000
v  12.0000 2.0000 -3.0000
v  12.0000 2.0000 -2.0000
v  9.0000 2.0000 -1.0000
v  10.0000 2.0000 -1.0000
v  11.0000 2.0000 -1.0000
v  12.0000 2.0000 -1.0000
v  9.0000 2.0000 0.0000
v  10.0000 2.0000 0.0000
v  11.0000 2.0000 0.0000
v  12.0000 2.0000 0.0000
v  9.0000 2.0000 1.0000
v  10.0000 2.0000 1.0000
v  11.0000 2.0000 1.0000
v  12.0000 2.0000 1.0000
v  12.0000 2.0000 -4.0000
v  12.0000 2.0000 -5.0000
v  13.0000 2.0000 -5.0000
v  13.0000 2.0000 -4.0000
v  14.0000 2.0000 -5.0000
v  14.0000 2.0000 -4.0000
v  15.0000 2.0000 -5.0000
v  15.0000 2.0000 -4.0000
v  16.0000 2.0000 -5.0000
v  16.0000 2.0000 -4.0000
v  13.0000 2.0000 -3.0000
v  14.0000 2.0000 -3.0000
v  15.0000 2.0000 -3.0000
v  16.0000 2.0000 -3.0000
v  13.0000 2.0000 -2.0000
v  14.0000 2.0000 -2.0000
v  15.0000 2.0000 -2.0000
v  16.0000 2.0000 -2.0000
v  13.0000 2.0000 -1.0000
v  14.0000 2.0000 -1.0000
v  15.0000 2.0000 -1.0000
v  16.0000 2.0000 -1.0000
v  8.0000 2.0000 -4.0000
v  8.0000 2.0000 -5.0000
v  9.0000 2.0000 -5.0000
v  9.0000 2.0000 -4.0000
v  10.0000 2.0000 -5.0000
v  10.0000 2.0000 -4.0000
v  11.0000 2.0000 -5.0000
v  11.0000 2.0000 -4.0000
# 203 vertices

vn 0.0000 -1.0000 -0.0000
vn -0.0000 -1.0000 -0.0000
vn -0.0000 -1.0000 0.0000
vn 0.0000 -1.0000 0.0000
# 4 vertex normals

vt 0.0000 0.2500 0.0000
vt 0.0000 0.0000 0.0000
vt 0.2500 0.0000 0.0000
vt 0.2500 0.2500 0.0000
vt 0.5000 0.0000 0.0000
vt 0.5000 0.2500 0.0000
vt 0.7500 0.0000 0.0000
vt 0.7500 0.2500 0.0000
vt 1.0000 0.0000 0.0000
vt 1.0000 0.2500 0.0000
vt 0.0000 0.5000 0.0000
vt 0.2500 0.5000 0.0000
vt 0.5000 0.5000 0.0000
vt 0.7500 0.5000 0.0000
vt 1.0000 0.5000 0.0000
vt 0.0000 0.7500 0.0000
vt 0.2500 0.7500 0.0000
vt 0.5000 0.7500 0.0000
vt 0.7500 0.7500 0.0000
vt 1.0000 0.7500 0.0000
vt 0.0000 1.0000 0.0000
vt 0.2500 1.0000 0.0000
vt 0.5000 1.0000 0.0000
vt 0.7500 1.0000 0.0000
vt 1.0000 1.0000 0.0000
vt 0.2500 0.8971 0.0000
vt 0.5000 0.8971 0.0000
vt 0.7500 0.8971 0.0000
vt 0.8750 0.7500 0.0000
vt 0.8750 0.8971 0.0000
vt 0.1250 0.7500 0.0000
vt 0.1250 0.8971 0.0000
vt 0.0000 0.8971 0.0000
vt 1.0000 0.8971 0.0000
# 34 texture coords

o ceiling_basic069
g ceiling_basic069
usemtl 08___Default
f 612/227/62 613/228/62 614/229/62 615/230/62 
f 615/230/62 614/229/62 616/231/62 617/232/62 
f 617/232/62 616/231/62 618/233/63 619/234/62 
f 619/234/62 618/233/63 620/235/64 621/236/62 
f 622/237/62 612/227/62 615/230/62 623/238/62 
f 623/238/62 615/230/62 617/232/62 624/239/62 
f 624/239/62 617/232/62 619/234/62 625/240/62 
f 625/240/62 619/234/62 621/236/62 626/241/62 
f 627/242/62 622/237/62 623/238/62 628/243/62 
f 628/243/62 623/238/62 624/239/62 629/244/62 
f 629/244/62 624/239/62 625/240/62 630/245/62 
f 630/245/62 625/240/62 626/241/62 631/246/62 
f 632/247/62 627/242/62 628/243/62 633/248/62 
f 633/248/62 628/243/62 629/244/62 634/249/62 
f 634/249/62 629/244/62 630/245/62 635/250/62 
f 635/250/62 630/245/62 631/246/62 636/251/62 
f 637/227/62 638/228/62 639/229/62 640/230/62 
f 640/230/62 639/229/62 641/231/62 642/232/62 
f 642/232/62 641/231/62 643/233/62 644/234/62 
f 644/234/62 643/233/62 613/235/62 612/236/62 
f 645/237/62 637/227/62 640/230/62 646/238/62 
f 646/238/62 640/230/62 642/232/62 647/239/62 
f 647/239/62 642/232/62 644/234/62 648/240/62 
f 648/240/62 644/234/62 612/236/62 622/241/62 
f 649/242/62 645/237/62 646/238/62 650/243/62 
f 650/243/62 646/238/62 647/239/62 651/244/62 
f 651/244/62 647/239/62 648/240/62 652/245/62 
f 652/245/62 648/240/62 622/241/62 627/246/62 
f 653/247/64 649/242/62 650/243/62 654/248/63 
f 654/248/63 650/243/62 651/244/62 655/249/62 
f 655/249/62 651/244/62 652/245/62 656/250/62 
f 656/250/62 652/245/62 627/246/62 632/251/62 
f 657/227/63 658/228/62 659/229/62 660/230/62 
f 660/230/62 659/229/62 661/231/62 662/232/62 
f 662/232/62 661/231/62 663/233/62 664/234/62 
f 664/234/62 663/233/62 638/235/62 637/236/62 
f 665/237/63 657/227/63 660/230/62 666/238/63 
f 666/238/63 660/230/62 662/232/62 667/239/62 
f 667/239/62 662/232/62 664/234/62 668/240/62 
f 668/240/62 664/234/62 637/236/62 645/241/62 
f 669/242/63 665/237/63 666/238/63 670/243/63 
f 670/243/63 666/238/63 667/239/62 671/244/62 
f 671/244/62 667/239/62 668/240/62 672/245/62 
f 672/245/62 668/240/62 645/241/62 649/246/62 
f 673/247/62 669/242/63 670/243/63 674/248/64 
f 674/248/64 670/243/63 671/244/62 675/249/64 
f 675/249/64 671/244/62 672/245/62 676/250/64 
f 676/250/64 672/245/62 649/246/62 653/251/64 
f 677/252/63 678/243/62 679/244/62 680/253/62 
f 680/253/62 679/244/62 681/245/63 682/254/62 
f 682/254/62 681/245/63 683/255/63 684/256/63 
f 685/257/62 678/243/62 677/252/63 686/258/63 
f 687/247/62 686/258/63 677/252/63 688/248/62 
f 688/248/62 677/252/63 680/253/62 689/249/62 
f 689/249/62 680/253/62 682/254/62 690/250/63 
f 691/251/63 690/250/63 682/254/62 684/256/63 
f 692/252/62 693/243/62 694/244/62 695/253/62 
f 695/253/62 694/244/62 696/245/62 697/254/62 
f 697/254/62 696/245/62 698/255/62 699/256/62 
f 700/257/62 693/243/62 692/252/62 701/258/63 
f 702/247/63 701/258/63 692/252/62 703/248/63 
f 703/248/63 692/252/62 695/253/62 704/249/62 
f 704/249/62 695/253/62 697/254/62 705/250/62 
f 706/251/62 705/250/62 697/254/62 699/256/62 
f 707/227/62 708/228/62 709/229/62 710/230/62 
f 710/230/62 709/229/62 711/231/63 712/232/62 
f 712/232/62 711/231/63 713/233/63 714/234/63 
f 714/234/63 713/233/63 665/235/63 669/236/63 
f 715/237/62 707/227/62 710/230/62 716/238/62 
f 716/238/62 710/230/62 712/232/62 717/239/62 
f 717/239/62 712/232/62 714/234/63 718/240/62 
f 718/240/62 714/234/63 669/236/63 673/241/62 
f 719/242/62 715/237/62 716/238/62 720/243/62 
f 720/243/62 716/238/62 717/239/62 721/244/62 
f 721/244/62 717/239/62 718/240/62 722/245/62 
f 722/245/62 718/240/62 673/241/62 723/246/62 
f 724/247/62 719/242/62 720/243/62 725/248/62 
f 725/248/62 720/243/62 721/244/62 726/249/62 
f 726/249/62 721/244/62 722/245/62 727/250/62 
f 727/250/62 722/245/62 723/246/62 728/251/62 
f 723/227/62 673/228/62 674/229/64 729/230/62 
f 729/230/62 674/229/64 675/231/64 730/232/62 
f 730/232/62 675/231/64 676/233/64 731/234/62 
f 731/234/62 676/233/64 653/235/64 732/236/62 
f 728/237/62 723/227/62 729/230/62 733/238/62 
f 733/238/62 729/230/62 730/232/62 734/239/62 
f 734/239/62 730/232/62 731/234/62 735/240/62 
f 735/240/62 731/234/62 732/236/62 736/241/62 
f 737/252/63 738/243/62 739/244/62 740/253/62 
f 740/253/62 739/244/62 741/245/62 742/254/62 
f 742/254/62 741/245/62 743/255/62 744/256/62 
f 745/242/62 738/243/62 737/252/63 746/259/62 
f 747/247/62 746/259/62 737/252/63 748/248/62 
f 748/248/62 737/252/63 740/253/62 749/249/62 
f 749/249/62 740/253/62 742/254/62 750/250/63 
f 751/251/63 750/250/63 742/254/62 744/256/62 
f 752/252/63 753/243/62 754/244/62 755/253/62 
f 755/253/62 754/244/62 756/245/62 757/254/62 
f 757/254/62 756/245/62 745/246/62 746/260/62 
f 758/257/62 753/243/62 752/252/63 759/258/63 
f 760/247/62 759/258/63 752/252/63 761/248/62 
f 761/248/62 752/252/63 755/253/62 762/249/62 
f 762/249/62 755/253/62 757/254/62 763/250/63 
f 747/251/62 763/250/63 757/254/62 746/260/62 
f 713/234/63 764/233/63 657/235/63 665/236/63 
f 621/227/62 620/228/64 765/229/64 766/230/62 
f 766/230/62 765/229/64 767/231/64 768/232/62 
f 768/232/62 767/231/64 769/233/65 770/234/63 
f 770/234/63 769/233/65 771/235/62 772/236/63 
f 626/237/62 621/227/62 766/230/62 773/238/62 
f 773/238/62 766/230/62 768/232/62 774/239/62 
f 774/239/62 768/232/62 770/234/63 775/240/63 
f 775/240/63 770/234/63 772/236/63 776/241/63 
f 631/242/62 626/237/62 773/238/62 777/243/62 
f 777/243/62 773/238/62 774/239/62 778/244/62 
f 778/244/62 774/239/62 775/240/63 779/245/62 
f 779/245/62 775/240/63 776/241/63 780/246/62 
f 636/247/62 631/242/62 777/243/62 781/248/62 
f 781/248/62 777/243/62 778/244/62 782/249/62 
f 782/249/62 778/244/62 779/245/62 783/250/62 
f 783/250/62 779/245/62 780/246/62 784/251/62 
f 785/227/62 786/228/62 787/229/62 788/230/62 
f 788/230/62 787/229/62 789/231/62 790/232/62 
f 790/232/62 789/231/62 791/233/62 792/234/62 
f 792/234/62 791/233/62 793/235/62 794/236/62 
f 771/237/62 785/227/62 788/230/62 795/238/63 
f 795/238/63 788/230/62 790/232/62 796/239/62 
f 796/239/62 790/232/62 792/234/62 797/240/62 
f 797/240/62 792/234/62 794/236/62 798/241/62 
f 772/242/63 771/237/62 795/238/63 799/243/63 
f 799/243/63 795/238/63 796/239/62 800/244/62 
f 800/244/62 796/239/62 797/240/62 801/245/62 
f 801/245/62 797/240/62 798/241/62 802/246/62 
f 776/247/63 772/242/63 799/243/63 803/248/63 
f 803/248/63 799/243/63 800/244/62 804/249/62 
f 804/249/62 800/244/62 801/245/62 805/250/62 
f 805/250/62 801/245/62 802/246/62 806/251/62 
f 807/242/64 808/237/62 809/238/62 810/243/62 
f 810/243/62 809/238/62 811/239/62 812/244/62 
f 812/244/62 811/239/62 813/240/62 814/245/62 
f 814/245/62 813/240/62 786/241/62 785/246/62 
f 620/247/64 807/242/64 810/243/62 765/248/64 
f 765/248/64 810/243/62 812/244/62 767/249/64 
f 767/249/64 812/244/62 814/245/62 769/250/65 
f 769/250/65 814/245/62 785/246/62 771/251/62 
# 145 polygons

#
# object Object354
#

v  -3.0000 -2.0000 -0.0000
v  -3.0000 -2.0000 1.0000
v  -2.0000 -2.0000 1.0000
v  -2.0000 -2.0000 -0.0000
v  -1.0000 -2.0000 1.0000
v  -1.0000 -2.0000 -0.0000
v  0.0000 -2.0000 1.0000
v  0.0000 -2.0000 -0.0000
v  1.0000 -2.0000 1.0000
v  1.0000 -2.0000 -0.0000
v  -3.0000 -2.0000 -1.0000
v  -2.0000 -2.0000 -1.0000
v  -1.0000 -2.0000 -1.0000
v  0.0000 -2.0000 -1.0000
v  1.0000 -2.0000 -1.0000
v  -3.0000 -2.0000 -2.0000
v  -2.0000 -2.0000 -2.0000
v  -1.0000 -2.0000 -2.0000
v  0.0000 -2.0000 -2.0000
v  1.0000 -2.0000 -2.0000
v  -3.0000 -2.0000 -3.0000
v  -2.0000 -2.0000 -3.0000
v  -1.0000 -2.0000 -3.0000
v  0.0000 -2.0000 -3.0000
v  1.0000 -2.0000 -3.0000
# 25 vertices

vn 0.0000 1.0000 -0.0000
# 1 vertex normals

vt 0.0000 0.2500 0.0000
vt 0.0000 0.0000 0.0000
vt 0.2500 0.0000 0.0000
vt 0.2500 0.2500 0.0000
vt 0.5000 0.0000 0.0000
vt 0.5000 0.2500 0.0000
vt 0.7500 0.0000 0.0000
vt 0.7500 0.2500 0.0000
vt 1.0000 0.0000 0.0000
vt 1.0000 0.2500 0.0000
vt 0.0000 0.5000 0.0000
vt 0.2500 0.5000 0.0000
vt 0.5000 0.5000 0.0000
vt 0.7500 0.5000 0.0000
vt 1.0000 0.5000 0.0000
vt 0.0000 0.7500 0.0000
vt 0.2500 0.7500 0.0000
vt 0.5000 0.7500 0.0000
vt 0.7500 0.7500 0.0000
vt 1.0000 0.7500 0.0000
vt 0.0000 1.0000 0.0000
vt 0.2500 1.0000 0.0000
vt 0.5000 1.0000 0.0000
vt 0.7500 1.0000 0.0000
vt 1.0000 1.0000 0.0000
# 25 texture coords

o Object354
g Object354
usemtl 15___Default
f 815/261/66 816/262/66 817/263/66 818/264/66 
f 818/264/66 817/263/66 819/265/66 820/266/66 
f 820/266/66 819/265/66 821/267/66 822/268/66 
f 822/268/66 821/267/66 823/269/66 824/270/66 
f 825/271/66 815/261/66 818/264/66 826/272/66 
f 826/272/66 818/264/66 820/266/66 827/273/66 
f 827/273/66 820/266/66 822/268/66 828/274/66 
f 828/274/66 822/268/66 824/270/66 829/275/66 
f 830/276/66 825/271/66 826/272/66 831/277/66 
f 831/277/66 826/272/66 827/273/66 832/278/66 
f 832/278/66 827/273/66 828/274/66 833/279/66 
f 833/279/66 828/274/66 829/275/66 834/280/66 
f 835/281/66 830/276/66 831/277/66 836/282/66 
f 836/282/66 831/277/66 832/278/66 837/283/66 
f 837/283/66 832/278/66 833/279/66 838/284/66 
f 838/284/66 833/279/66 834/280/66 839/285/66 
# 16 polygons

