%YAML 1.1
%TAG !u! tag:unity3d.com,2011:
--- !u!1001 &6416351737907196200
PrefabInstance:
  m_ObjectHideFlags: 0
  serializedVersion: 2
  m_Modification:
    m_TransformParent: {fileID: 4489764045146317560}
    m_Modifications:
    - target: {fileID: 4779283977672026613, guid: b96bfa3fd1be4ce4fb636a52a2bf30f1,
        type: 3}
      propertyPath: m_Name
      value: Spawner [WEAPON]
      objectReference: {fileID: 0}
    - target: {fileID: 5224962637177667354, guid: b96bfa3fd1be4ce4fb636a52a2bf30f1,
        type: 3}
      propertyPath: spawnOnAwake
      value: 1
      objectReference: {fileID: 0}
    - target: {fileID: 6758628374533043145, guid: b96bfa3fd1be4ce4fb636a52a2bf30f1,
        type: 3}
      propertyPath: m_RootOrder
      value: 5
      objectReference: {fileID: 0}
    - target: {fileID: 6758628374533043145, guid: b96bfa3fd1be4ce4fb636a52a2bf30f1,
        type: 3}
      propertyPath: m_LocalPosition.x
      value: 0.125
      objectReference: {fileID: 0}
    - target: {fileID: 6758628374533043145, guid: b96bfa3fd1be4ce4fb636a52a2bf30f1,
        type: 3}
      propertyPath: m_LocalPosition.y
      value: 0.22
      objectReference: {fileID: 0}
    - target: {fileID: 6758628374533043145, guid: b96bfa3fd1be4ce4fb636a52a2bf30f1,
        type: 3}
      propertyPath: m_LocalPosition.z
      value: 0.236
      objectReference: {fileID: 0}
    - target: {fileID: 6758628374533043145, guid: b96bfa3fd1be4ce4fb636a52a2bf30f1,
        type: 3}
      propertyPath: m_LocalRotation.w
      value: 0.7071068
      objectReference: {fileID: 0}
    - target: {fileID: 6758628374533043145, guid: b96bfa3fd1be4ce4fb636a52a2bf30f1,
        type: 3}
      propertyPath: m_LocalRotation.x
      value: -0
      objectReference: {fileID: 0}
    - target: {fileID: 6758628374533043145, guid: b96bfa3fd1be4ce4fb636a52a2bf30f1,
        type: 3}
      propertyPath: m_LocalRotation.y
      value: -0.70710677
      objectReference: {fileID: 0}
    - target: {fileID: 6758628374533043145, guid: b96bfa3fd1be4ce4fb636a52a2bf30f1,
        type: 3}
      propertyPath: m_LocalRotation.z
      value: -0
      objectReference: {fileID: 0}
    - target: {fileID: 6758628374533043145, guid: b96bfa3fd1be4ce4fb636a52a2bf30f1,
        type: 3}
      propertyPath: m_LocalEulerAnglesHint.x
      value: 0
      objectReference: {fileID: 0}
    - target: {fileID: 6758628374533043145, guid: b96bfa3fd1be4ce4fb636a52a2bf30f1,
        type: 3}
      propertyPath: m_LocalEulerAnglesHint.y
      value: -90.00001
      objectReference: {fileID: 0}
    - target: {fileID: 6758628374533043145, guid: b96bfa3fd1be4ce4fb636a52a2bf30f1,
        type: 3}
      propertyPath: m_LocalEulerAnglesHint.z
      value: 0
      objectReference: {fileID: 0}
    m_RemovedComponents: []
  m_SourcePrefab: {fileID: 100100000, guid: b96bfa3fd1be4ce4fb636a52a2bf30f1, type: 3}
--- !u!1001 &6858126070686587521
PrefabInstance:
  m_ObjectHideFlags: 0
  serializedVersion: 2
  m_Modification:
    m_TransformParent: {fileID: 0}
    m_Modifications:
    - target: {fileID: 506598793030685535, guid: 8dc78b7ac527e3741b403d5513963151,
        type: 3}
      propertyPath: m_LocalPosition.y
      value: 0.015999973
      objectReference: {fileID: 0}
    - target: {fileID: 506598793030685535, guid: 8dc78b7ac527e3741b403d5513963151,
        type: 3}
      propertyPath: m_LocalPosition.z
      value: -0.004000008
      objectReference: {fileID: 0}
    - target: {fileID: 4975325209776868873, guid: 8dc78b7ac527e3741b403d5513963151,
        type: 3}
      propertyPath: m_LocalPosition.y
      value: -0.37600002
      objectReference: {fileID: 0}
    - target: {fileID: 4975325209776868873, guid: 8dc78b7ac527e3741b403d5513963151,
        type: 3}
      propertyPath: m_LocalPosition.z
      value: 0.363
      objectReference: {fileID: 0}
    - target: {fileID: 5637413710236284714, guid: 8dc78b7ac527e3741b403d5513963151,
        type: 3}
      propertyPath: m_IsActive
      value: 0
      objectReference: {fileID: 0}
    - target: {fileID: 7017221537289402489, guid: 8dc78b7ac527e3741b403d5513963151,
        type: 3}
      propertyPath: m_RootOrder
      value: 0
      objectReference: {fileID: 0}
    - target: {fileID: 7017221537289402489, guid: 8dc78b7ac527e3741b403d5513963151,
        type: 3}
      propertyPath: m_LocalPosition.x
      value: 0
      objectReference: {fileID: 0}
    - target: {fileID: 7017221537289402489, guid: 8dc78b7ac527e3741b403d5513963151,
        type: 3}
      propertyPath: m_LocalPosition.y
      value: 0
      objectReference: {fileID: 0}
    - target: {fileID: 7017221537289402489, guid: 8dc78b7ac527e3741b403d5513963151,
        type: 3}
      propertyPath: m_LocalPosition.z
      value: 0
      objectReference: {fileID: 0}
    - target: {fileID: 7017221537289402489, guid: 8dc78b7ac527e3741b403d5513963151,
        type: 3}
      propertyPath: m_LocalRotation.w
      value: 1
      objectReference: {fileID: 0}
    - target: {fileID: 7017221537289402489, guid: 8dc78b7ac527e3741b403d5513963151,
        type: 3}
      propertyPath: m_LocalRotation.x
      value: 0
      objectReference: {fileID: 0}
    - target: {fileID: 7017221537289402489, guid: 8dc78b7ac527e3741b403d5513963151,
        type: 3}
      propertyPath: m_LocalRotation.y
      value: 0
      objectReference: {fileID: 0}
    - target: {fileID: 7017221537289402489, guid: 8dc78b7ac527e3741b403d5513963151,
        type: 3}
      propertyPath: m_LocalRotation.z
      value: 0
      objectReference: {fileID: 0}
    - target: {fileID: 7017221537289402489, guid: 8dc78b7ac527e3741b403d5513963151,
        type: 3}
      propertyPath: m_LocalEulerAnglesHint.x
      value: 0
      objectReference: {fileID: 0}
    - target: {fileID: 7017221537289402489, guid: 8dc78b7ac527e3741b403d5513963151,
        type: 3}
      propertyPath: m_LocalEulerAnglesHint.y
      value: 0
      objectReference: {fileID: 0}
    - target: {fileID: 7017221537289402489, guid: 8dc78b7ac527e3741b403d5513963151,
        type: 3}
      propertyPath: m_LocalEulerAnglesHint.z
      value: 0
      objectReference: {fileID: 0}
    - target: {fileID: 7404644622114633592, guid: 8dc78b7ac527e3741b403d5513963151,
        type: 3}
      propertyPath: m_Icon
      value: 
      objectReference: {fileID: 7250588514170254948, guid: 0000000000000000d000000000000000,
        type: 0}
    - target: {fileID: 7404644622114633592, guid: 8dc78b7ac527e3741b403d5513963151,
        type: 3}
      propertyPath: m_Name
      value: soldier_dead_03 spawned
      objectReference: {fileID: 0}
    m_RemovedComponents: []
  m_SourcePrefab: {fileID: 100100000, guid: 8dc78b7ac527e3741b403d5513963151, type: 3}
--- !u!4 &4489764045146317560 stripped
Transform:
  m_CorrespondingSourceObject: {fileID: 7017221537289402489, guid: 8dc78b7ac527e3741b403d5513963151,
    type: 3}
  m_PrefabInstance: {fileID: 6858126070686587521}
  m_PrefabAsset: {fileID: 0}
