%YAML 1.1
%TAG !u! tag:unity3d.com,2011:
--- !u!21 &2100000
Material:
  serializedVersion: 6
  m_ObjectHideFlags: 0
  m_CorrespondingSourceObject: {fileID: 0}
  m_PrefabInstance: {fileID: 0}
  m_PrefabAsset: {fileID: 0}
  m_Name: m_slime 1
  m_Shader: {fileID: 4800000, guid: 9f1e754e05ee25d40bf9e60568e7a948, type: 3}
  m_ShaderKeywords: BFC TRANSPARENT _ALPHAPREMULTIPLY_ON _DIFFMODEL_VERTEX _DRAWDIST_ON
    _EMISSION _GLOSSYREFLECTIONS_OFF _SPECMODEL_GOURAUD _SPECULARHIGHLIGHTS_OFF
  m_LightmapFlags: 1
  m_EnableInstancingVariants: 0
  m_DoubleSidedGI: 0
  m_CustomRenderQueue: -1
  stringTagMap: {}
  disabledShaderPasses: []
  m_SavedProperties:
    serializedVersion: 3
    m_TexEnvs:
    - _BumpMap:
        m_Texture: {fileID: 0}
        m_Scale: {x: 1, y: 1}
        m_Offset: {x: 0, y: 0}
    - _Cube:
        m_Texture: {fileID: 0}
        m_Scale: {x: 1, y: 1}
        m_Offset: {x: 0, y: 0}
    - _DetailAlbedoMap:
        m_Texture: {fileID: 0}
        m_Scale: {x: 1, y: 1}
        m_Offset: {x: 0, y: 0}
    - _DetailMask:
        m_Texture: {fileID: 0}
        m_Scale: {x: 1, y: 1}
        m_Offset: {x: 0, y: 0}
    - _DetailNormalMap:
        m_Texture: {fileID: 0}
        m_Scale: {x: 1, y: 1}
        m_Offset: {x: 0, y: 0}
    - _Emission:
        m_Texture: {fileID: 2800000, guid: 253ade5030af1b643bf9a54cceb26f01, type: 3}
        m_Scale: {x: 1, y: 1}
        m_Offset: {x: 0, y: 0}
    - _EmissionMap:
        m_Texture: {fileID: 2800000, guid: 3fed5bd866d01164292bb56de53f14e0, type: 3}
        m_Scale: {x: 1, y: 1}
        m_Offset: {x: 0, y: 0}
    - _LODTex:
        m_Texture: {fileID: 0}
        m_Scale: {x: 1, y: 1}
        m_Offset: {x: 0, y: 0}
    - _MainTex:
        m_Texture: {fileID: 2800000, guid: 3fed5bd866d01164292bb56de53f14e0, type: 3}
        m_Scale: {x: 1, y: 1}
        m_Offset: {x: 0, y: 0}
    - _MetalMap:
        m_Texture: {fileID: 0}
        m_Scale: {x: 1, y: 1}
        m_Offset: {x: 0, y: 0}
    - _MetallicGlossMap:
        m_Texture: {fileID: 0}
        m_Scale: {x: 1, y: 1}
        m_Offset: {x: 0, y: 0}
    - _NormalMap:
        m_Texture: {fileID: 0}
        m_Scale: {x: 1, y: 1}
        m_Offset: {x: 0, y: 0}
    - _OcclusionMap:
        m_Texture: {fileID: 0}
        m_Scale: {x: 1, y: 1}
        m_Offset: {x: 0, y: 0}
    - _ParallaxMap:
        m_Texture: {fileID: 0}
        m_Scale: {x: 1, y: 1}
        m_Offset: {x: 0, y: 0}
    - _SpecularMap:
        m_Texture: {fileID: 0}
        m_Scale: {x: 1, y: 1}
        m_Offset: {x: 0, y: 0}
    m_Floats:
    - _BlendOp: 0
    - _BumpScale: 1
    - _Cul: 2
    - _Cutoff: 0.5
    - _DetailNormalMapScale: 1
    - _DiffModel: 0
    - _DrawDist: 1
    - _DstBlend: 10
    - _EmissionAmt: 3
    - _GlossMapScale: 1
    - _Glossiness: 0
    - _GlossyReflections: 0
    - _LODAmt: 0
    - _Metallic: 1
    - _Mode: 3
    - _NormalMapDepth: 1
    - _OcclusionStrength: 1
    - _Parallax: 0.02
    - _RenderMode: 1
    - _Scale: 0.2
    - _Smoothness: 0
    - _SmoothnessTextureChannel: 0
    - _SpecModel: 0
    - _Specular: 0
    - _SpecularHighlights: 0
    - _SpeedX: 5
    - _SpeedY: 2
    - _SrcBlend: 1
    - _TileX: 5
    - _TileY: 5
    - _UVSec: 0
    - _Unlit: 1
    - _VertexInaccuracy: 20
    - _ZWrite: 0
    m_Colors:
    - _Color: {r: 0.44646347, g: 1, b: 0, a: 1}
    - _EmissionColor: {r: 0.116464645, g: 1.0592737, b: 0, a: 0}
