%YAML 1.1
%TAG !u! tag:unity3d.com,2011:
--- !u!1 &1491068631969934
GameObject:
  m_ObjectHideFlags: 0
  m_CorrespondingSourceObject: {fileID: 0}
  m_PrefabInstance: {fileID: 0}
  m_PrefabAsset: {fileID: 0}
  serializedVersion: 6
  m_Component:
  - component: {fileID: 4519450018719916}
  - component: {fileID: 20690878572351014}
  - component: {fileID: 81648212242627884}
  - component: {fileID: 114158257989079230}
  m_Layer: 0
  m_Name: PSXEffects
  m_TagString: Untagged
  m_Icon: {fileID: 0}
  m_NavMeshLayer: 0
  m_StaticEditorFlags: 0
  m_IsActive: 1
--- !u!4 &4519450018719916
Transform:
  m_ObjectHideFlags: 0
  m_CorrespondingSourceObject: {fileID: 0}
  m_PrefabInstance: {fileID: 0}
  m_PrefabAsset: {fileID: 0}
  m_GameObject: {fileID: 1491068631969934}
  m_LocalRotation: {x: 0, y: 0, z: 0, w: 1}
  m_LocalPosition: {x: 0, y: 0, z: 0}
  m_LocalScale: {x: 1, y: 1, z: 1}
  m_Children: []
  m_Father: {fileID: 0}
  m_RootOrder: 0
  m_LocalEulerAnglesHint: {x: 0, y: 0, z: 0}
--- !u!20 &20690878572351014
Camera:
  m_ObjectHideFlags: 0
  m_CorrespondingSourceObject: {fileID: 0}
  m_PrefabInstance: {fileID: 0}
  m_PrefabAsset: {fileID: 0}
  m_GameObject: {fileID: 1491068631969934}
  m_Enabled: 1
  serializedVersion: 2
  m_ClearFlags: 1
  m_BackGroundColor: {r: 0.19215687, g: 0.3019608, b: 0.4745098, a: 0}
  m_projectionMatrixMode: 1
  m_GateFitMode: 2
  m_FOVAxisMode: 0
  m_SensorSize: {x: 36, y: 24}
  m_LensShift: {x: 0, y: 0}
  m_FocalLength: 50
  m_NormalizedViewPortRect:
    serializedVersion: 2
    x: 0
    y: 0
    width: 1
    height: 1
  near clip plane: 0.1
  far clip plane: 2000
  field of view: 60
  orthographic: 0
  orthographic size: 5
  m_Depth: 1
  m_CullingMask:
    serializedVersion: 2
    m_Bits: 4294967295
  m_RenderingPath: -1
  m_TargetTexture: {fileID: 0}
  m_TargetDisplay: 0
  m_TargetEye: 3
  m_HDR: 0
  m_AllowMSAA: 0
  m_AllowDynamicResolution: 0
  m_ForceIntoRT: 1
  m_OcclusionCulling: 1
  m_StereoConvergence: 10
  m_StereoSeparation: 0.022
--- !u!81 &81648212242627884
AudioListener:
  m_ObjectHideFlags: 0
  m_CorrespondingSourceObject: {fileID: 0}
  m_PrefabInstance: {fileID: 0}
  m_PrefabAsset: {fileID: 0}
  m_GameObject: {fileID: 1491068631969934}
  m_Enabled: 1
--- !u!114 &114158257989079230
MonoBehaviour:
  m_ObjectHideFlags: 0
  m_CorrespondingSourceObject: {fileID: 0}
  m_PrefabInstance: {fileID: 0}
  m_PrefabAsset: {fileID: 0}
  m_GameObject: {fileID: 1491068631969934}
  m_Enabled: 1
  m_EditorHideFlags: 0
  m_Script: {fileID: 11500000, guid: 2b416fbce5a38cc47a3a1e709f95f5e3, type: 3}
  m_Name: 
  m_EditorClassIdentifier: 
  cfuStatus: PSXEffects
  sections: 01010100
  customRes: {x: 620, y: 480}
  resolutionFactor: 2
  limitFramerate: 60
  skipFrames: 0
  affineMapping: 1
  polygonalDrawDistance: 0
  vertexInaccuracy: 40
  polygonInaccuracy: 2
  colorDepth: 24
  scanlines: 0
  scanlineIntensity: 5
  ditherTexture: {fileID: 0}
  dithering: 1
  ditherThreshold: 1
  ditherIntensity: 2
  maxDarkness: 20
  subtractFade: 0
  favorRed: 1
  worldSpaceSnapping: 1
  postProcessing: 1
  verticalScanlines: 1
  shadowIntensity: 0.5
  downscale: 0
  snapCamera: 1
  camInaccuracy: 0.05
  camSnapping: 0
  shadowType: 0
  ditherSky: 0
  ditherType: 0
