# 3ds Max Wavefront OBJ Exporter v0.97b - (c)2007 guruware
# File Created: 13.01.2021 18:00:54

#
# object Object107
#

v  1.8677 -0.2500 0.5000
v  1.8677 -0.2500 -0.0000
v  2.0000 -0.2500 -0.0000
v  2.0000 -0.2500 0.5000
v  0.0000 -0.2500 0.5000
v  0.0000 -0.2500 -0.0000
v  1.0000 -0.2500 -0.0000
v  1.0000 -0.2500 0.5000
v  1.8677 0.1128 0.5000
v  1.0525 0.1128 0.5000
v  0.9475 0.1128 0.5000
v  0.0525 0.1128 0.5000
v  1.0525 0.6201 0.5000
v  0.9475 0.6201 0.5000
v  2.0000 0.1128 0.5000
v  2.0000 0.1128 -0.0000
v  0.0000 0.1128 0.5000
v  0.0525 0.6201 0.5000
v  0.0000 0.6201 0.5000
v  2.0000 0.6201 0.5000
v  1.8677 0.6201 0.5000
v  1.8677 -0.2500 -0.5000
v  2.0000 -0.2500 -0.5000
v  0.0000 -0.2500 -0.5000
v  1.0000 -0.2500 -0.5000
v  1.0525 0.1128 -0.5000
v  1.8677 0.1128 -0.5000
v  0.0525 0.1128 -0.5000
v  0.9475 0.1128 -0.5000
v  0.9475 0.6201 -0.5000
v  1.0525 0.6201 -0.5000
v  2.0000 0.1128 -0.5000
v  0.0000 0.1128 -0.5000
v  0.0000 0.6201 -0.5000
v  0.0525 0.6201 -0.5000
v  1.8677 0.6201 -0.5000
v  2.0000 0.6201 -0.5000
v  -1.8677 -0.2500 0.5000
v  -2.0000 -0.2500 0.5000
v  -2.0000 -0.2500 -0.0000
v  -1.8677 -0.2500 -0.0000
v  -1.0000 -0.2500 0.5000
v  -1.0000 -0.2500 -0.0000
v  -1.0525 0.1128 0.5000
v  -1.8677 0.1128 0.5000
v  -0.0525 0.1128 0.5000
v  -0.9475 0.1128 0.5000
v  -0.9475 0.6201 0.5000
v  -1.0525 0.6201 0.5000
v  -2.0000 0.1128 0.5000
v  -2.0000 0.1128 -0.0000
v  -0.0525 0.6201 0.5000
v  -1.8677 0.6201 0.5000
v  -2.0000 0.6201 0.5000
v  -1.8677 -0.2500 -0.5000
v  -2.0000 -0.2500 -0.5000
v  -1.0000 -0.2500 -0.5000
v  -1.8677 0.1128 -0.5000
v  -1.0525 0.1128 -0.5000
v  -0.9475 0.1128 -0.5000
v  -0.0525 0.1128 -0.5000
v  -1.0525 0.6201 -0.5000
v  -0.9475 0.6201 -0.5000
v  -2.0000 0.1128 -0.5000
v  -0.0525 0.6201 -0.5000
v  -2.0000 0.6201 -0.5000
v  -1.8677 0.6201 -0.5000
# 67 vertices

vn 0.0000 -0.7071 0.7071
vn 0.0000 -1.0000 -0.0000
vn 0.7071 -0.7071 -0.0000
vn 0.5774 -0.5774 0.5774
vn 0.0000 0.0000 1.0000
vn 0.4472 0.0000 0.8944
vn 1.0000 0.0000 -0.0000
vn 0.0000 -0.7071 -0.7071
vn 0.5774 -0.5774 -0.5774
vn 0.0000 0.0000 -1.0000
vn 0.4472 0.0000 -0.8944
vn -0.5774 -0.5774 0.5774
vn -0.7071 -0.7071 -0.0000
vn -0.4472 0.0000 0.8944
vn -1.0000 0.0000 -0.0000
vn -0.5774 -0.5774 -0.5774
vn -0.4472 0.0000 -0.8944
# 17 vertex normals

vt 0.7816 0.9334 0.0000
vt 0.7816 0.8773 0.0000
vt 0.7964 0.8773 0.0000
vt 0.7964 0.9334 0.0000
vt 0.5717 0.9334 0.0000
vt 0.5717 0.8773 0.0000
vt 0.6841 0.8773 0.0000
vt 0.6841 0.9334 0.0000
vt 0.7816 0.9742 0.0000
vt 0.6900 0.9742 0.0000
vt 0.6782 0.9742 0.0000
vt 0.5776 0.9742 0.0000
vt 0.6900 0.9896 0.0000
vt 0.6782 0.9896 0.0000
vt 0.8372 0.9334 0.0000
vt 0.8372 0.8773 0.0000
vt 0.5717 0.9742 0.0000
vt 0.5776 0.9896 0.0000
vt 0.5717 0.9896 0.0000
vt 0.7964 0.9742 0.0000
vt 0.7964 0.9896 0.0000
vt 0.7816 0.9896 0.0000
# 22 texture coords

o Object107
g Object107
f 1/1/1 2/2/2 3/3/3 4/4/4 
f 5/5/1 6/6/2 7/7/2 8/8/1 
f 1/1/1 9/9/5 10/10/5 8/8/1 
f 8/8/1 11/11/5 12/12/5 5/5/1 
f 8/8/1 10/10/5 11/11/5 
f 10/10/5 13/13/5 14/14/5 11/11/5 
f 15/15/6 4/4/4 3/3/3 16/16/7 
f 5/5/1 12/12/5 17/17/5 
f 12/12/5 18/18/5 19/19/5 17/17/5 
f 8/8/1 7/7/2 2/2/2 1/1/1 
f 4/4/4 15/20/6 9/9/5 1/1/1 
f 15/20/6 20/21/5 21/22/5 9/9/5 
f 22/1/8 23/4/9 3/3/3 2/2/2 
f 24/5/8 25/8/8 7/7/2 6/6/2 
f 22/1/8 25/8/8 26/10/10 27/9/10 
f 25/8/8 24/5/8 28/12/10 29/11/10 
f 25/8/8 29/11/10 26/10/10 
f 26/10/10 29/11/10 30/14/10 31/13/10 
f 32/15/11 16/16/7 3/3/3 23/4/9 
f 24/5/8 33/17/10 28/12/10 
f 28/12/10 33/17/10 34/19/10 35/18/10 
f 25/8/8 22/1/8 2/2/2 7/7/2 
f 23/4/9 22/1/8 27/9/10 32/20/11 
f 32/20/11 27/9/10 36/22/10 37/21/10 
f 38/1/1 39/4/12 40/3/13 41/2/2 
f 5/5/1 42/8/1 43/7/2 6/6/2 
f 38/1/1 42/8/1 44/10/5 45/9/5 
f 42/8/1 5/5/1 46/12/5 47/11/5 
f 42/8/1 47/11/5 44/10/5 
f 44/10/5 47/11/5 48/14/5 49/13/5 
f 50/15/14 51/16/15 40/3/13 39/4/12 
f 5/5/1 17/17/5 46/12/5 
f 46/12/5 17/17/5 19/19/5 52/18/5 
f 42/8/1 38/1/1 41/2/2 43/7/2 
f 39/4/12 38/1/1 45/9/5 50/20/14 
f 50/20/14 45/9/5 53/22/5 54/21/5 
f 55/1/8 41/2/2 40/3/13 56/4/16 
f 24/5/8 6/6/2 43/7/2 57/8/8 
f 55/1/8 58/9/10 59/10/10 57/8/8 
f 57/8/8 60/11/10 61/12/10 24/5/8 
f 57/8/8 59/10/10 60/11/10 
f 59/10/10 62/13/10 63/14/10 60/11/10 
f 64/15/17 56/4/16 40/3/13 51/16/15 
f 24/5/8 61/12/10 33/17/10 
f 61/12/10 65/18/10 34/19/10 33/17/10 
f 57/8/8 43/7/2 41/2/2 55/1/8 
f 56/4/16 64/20/17 58/9/10 55/1/8 
f 64/20/17 66/21/10 67/22/10 58/9/10 
# 40 polygons - 8 triangles

