# 3ds Max Wavefront OBJ Exporter v0.97b - (c)2007 guruware
# File Created: 13.01.2021 21:12:26

#
# object props_all_LP_02_furniture
#

v  0.0000 0.6325 0.3582
v  0.0000 0.6325 -0.0000
v  -0.4585 0.6325 -0.0000
v  -0.4585 0.6325 0.4433
v  0.0000 -0.0000 0.4109
v  0.0000 0.5684 0.4109
v  -0.4585 0.5684 0.5085
v  -0.4585 -0.0000 0.5085
v  -1.8947 -0.0000 0.3582
v  -1.8947 0.5684 0.3582
v  -1.8947 0.5684 0.0000
v  -1.8947 -0.0000 0.0000
v  -1.8340 0.5684 0.4109
v  -1.8340 0.6325 0.3582
v  -1.8947 0.5684 -0.3582
v  -1.8340 0.6325 -0.3582
v  -1.8340 0.5684 -0.4109
v  -1.8340 0.6325 -0.0000
v  -1.8340 -0.0000 0.4109
v  -1.3755 0.6325 -0.0000
v  -1.3755 0.6325 -0.4433
v  -1.3755 -0.0000 0.5085
v  -1.3755 0.5684 0.5085
v  -1.3755 0.6325 0.4433
v  -1.3755 0.5684 -0.5085
v  -0.9170 0.5684 -0.4109
v  -0.9170 0.6325 -0.3582
v  -0.4585 0.6325 -0.4433
v  -0.4585 0.5684 -0.5085
v  0.0000 0.0000 -0.4109
v  -0.4585 0.0000 -0.5085
v  0.0000 0.5684 -0.4109
v  -1.8340 0.0000 -0.4109
v  -1.8947 0.0000 -0.3582
v  -1.3755 0.0000 -0.5085
v  0.4585 0.6325 0.4433
v  0.4585 0.6325 -0.0000
v  0.4585 -0.0000 0.5085
v  0.4585 0.5684 0.5085
v  1.8947 -0.0000 0.3582
v  1.8947 -0.0000 0.0000
v  1.8947 0.5684 0.0000
v  1.8947 0.5684 0.3582
v  1.8340 0.5684 0.4109
v  1.8340 0.6325 0.3582
v  1.8947 0.5684 -0.3582
v  1.8340 0.5684 -0.4109
v  1.8340 0.6325 -0.3582
v  1.8340 0.6325 -0.0000
v  1.8340 -0.0000 0.4109
v  1.3755 0.6325 -0.4433
v  1.3755 0.6325 -0.0000
v  1.3755 0.5684 0.5085
v  1.3755 -0.0000 0.5085
v  1.3755 0.6325 0.4433
v  1.3755 0.5684 -0.5085
v  0.9170 0.5684 -0.4109
v  0.4585 0.5684 -0.5085
v  0.4585 0.6325 -0.4433
v  0.9170 0.6325 -0.3582
v  0.4585 0.0000 -0.5085
v  1.8947 0.0000 -0.3582
v  1.8340 0.0000 -0.4109
v  1.3755 0.0000 -0.5085
v  -0.9170 0.6325 -0.0000
v  -0.9170 0.5684 0.4109
v  -0.9170 -0.0000 0.4109
v  -0.9170 0.6325 0.3582
v  0.0000 0.6325 -0.3582
v  -0.9170 0.0000 -0.4109
v  0.9170 0.6325 0.3582
v  0.9170 0.6325 -0.0000
v  0.9170 -0.0000 0.4109
v  0.9170 0.5684 0.4109
v  0.9170 0.0000 -0.4109
# 75 vertices

vn 0.0000 0.9230 0.3847
vn 0.0000 1.0000 -0.0000
vn 0.0000 0.9097 0.4153
vn 0.0000 0.0000 1.0000
vn 0.0000 0.3524 0.9358
vn 0.0000 0.3695 0.9292
vn -0.9099 0.0000 0.4149
vn -0.8691 0.3266 0.3715
vn -0.9290 0.3701 0.0000
vn -1.0000 0.0000 -0.0000
vn -0.4106 0.3022 0.8603
vn -0.3798 0.8566 0.3492
vn -0.8691 0.3266 -0.3715
vn -0.3798 0.8566 -0.3492
vn -0.4106 0.3022 -0.8603
vn -0.3952 0.9186 -0.0000
vn -0.4460 0.0000 0.8950
vn -0.0000 0.9097 -0.4153
vn -0.0000 0.0000 1.0000
vn -0.0000 0.3695 0.9292
vn -0.0000 0.9097 0.4153
vn -0.0000 0.3695 -0.9292
vn 0.0000 0.3524 -0.9359
vn -0.0000 0.9230 -0.3847
vn 0.0000 0.9097 -0.4153
vn 0.0000 0.3695 -0.9292
vn 0.0000 -0.0000 -1.0000
vn -0.0000 0.3524 -0.9359
vn -0.4461 -0.0000 -0.8950
vn -0.9098 0.0000 -0.4149
vn 0.9099 0.0000 0.4149
vn 1.0000 0.0000 -0.0000
vn 0.9290 0.3701 0.0000
vn 0.8691 0.3266 0.3715
vn 0.4106 0.3022 0.8603
vn 0.3798 0.8566 0.3492
vn 0.8691 0.3266 -0.3715
vn 0.4106 0.3022 -0.8603
vn 0.3798 0.8566 -0.3492
vn 0.3952 0.9186 -0.0000
vn 0.4460 0.0000 0.8950
vn 0.0000 0.9230 -0.3847
vn 0.9098 0.0000 -0.4149
vn 0.4461 -0.0000 -0.8950
vn -0.0000 0.3524 0.9358
vn -0.0000 0.9230 0.3847
vn -0.0000 -0.0000 -1.0000
# 47 vertex normals

vt 0.5578 0.4458 0.0000
vt 0.5578 0.4836 0.0000
vt 0.5095 0.4836 0.0000
vt 0.5095 0.4458 0.0000
vt 0.5578 0.3772 0.0000
vt 0.5578 0.4371 0.0000
vt 0.5095 0.4371 0.0000
vt 0.5095 0.3772 0.0000
vt 0.2953 0.4458 0.0000
vt 0.3552 0.4458 0.0000
vt 0.3552 0.4836 0.0000
vt 0.2953 0.4836 0.0000
vt 0.3645 0.4371 0.0000
vt 0.3609 0.4451 0.0000
vt 0.3561 0.4371 0.0000
vt 0.3568 0.5266 0.0000
vt 0.3645 0.5213 0.0000
vt 0.3645 0.5301 0.0000
vt 0.3552 0.5213 0.0000
vt 0.3645 0.4836 0.0000
vt 0.3561 0.3772 0.0000
vt 0.3645 0.3772 0.0000
vt 0.4129 0.4836 0.0000
vt 0.4129 0.5213 0.0000
vt 0.4129 0.3772 0.0000
vt 0.4129 0.4371 0.0000
vt 0.3645 0.4458 0.0000
vt 0.4129 0.4458 0.0000
vt 0.4129 0.5301 0.0000
vt 0.4612 0.5301 0.0000
vt 0.4612 0.5213 0.0000
vt 0.5095 0.5213 0.0000
vt 0.5095 0.5301 0.0000
vt 0.4612 0.4836 0.0000
vt 0.4612 0.4371 0.0000
vt 0.4612 0.3772 0.0000
vt 0.4612 0.4458 0.0000
vt 0.5578 0.5213 0.0000
vt 0.5578 0.5301 0.0000
vt 0.2953 0.5213 0.0000
# 40 texture coords

o props_all_LP_02_furniture
g props_all_LP_02_furniture
f 1/1/1 2/2/2 3/3/2 4/4/3 
f 5/5/4 6/6/5 7/7/6 8/8/4 
f 9/9/7 10/10/8 11/11/9 12/12/10 
f 13/13/11 14/14/12 10/15/8 
f 15/16/13 16/17/14 17/18/15 
f 6/6/5 1/1/1 4/4/3 7/7/6 
f 15/19/13 11/11/9 18/20/16 16/17/14 
f 10/15/8 9/21/7 19/22/17 13/13/11 
f 16/17/14 18/20/16 20/23/2 21/24/18 
f 13/13/11 19/22/17 22/25/19 23/26/20 
f 14/27/12 13/13/11 23/26/20 24/28/21 
f 17/18/15 16/17/14 21/24/18 25/29/22 
f 26/30/23 27/31/24 28/32/25 29/33/26 
f 30/5/27 31/8/27 29/7/26 32/6/28 
f 15/15/13 17/13/15 33/22/29 34/21/30 
f 17/13/15 25/26/22 35/25/27 33/22/29 
f 1/1/1 36/4/3 37/3/2 2/2/2 
f 5/5/4 38/8/4 39/7/6 6/6/5 
f 40/9/31 41/12/32 42/11/33 43/10/34 
f 44/13/35 43/15/34 45/14/36 
f 46/16/37 47/18/38 48/17/39 
f 6/6/5 39/7/6 36/4/3 1/1/1 
f 46/19/37 48/17/39 49/20/40 42/11/33 
f 43/15/34 44/13/35 50/22/41 40/21/31 
f 48/17/39 51/24/25 52/23/2 49/20/40 
f 44/13/35 53/26/6 54/25/4 50/22/41 
f 45/27/36 55/28/3 53/26/6 44/13/35 
f 47/18/38 56/29/26 51/24/25 48/17/39 
f 57/30/23 58/33/22 59/32/25 60/31/42 
f 30/5/27 32/6/28 58/7/22 61/8/27 
f 46/15/37 62/21/43 63/22/44 47/13/38 
f 47/13/38 63/22/44 64/25/27 56/26/26 
f 28/32/25 27/31/24 65/34/2 3/3/2 
f 7/7/6 66/35/45 67/36/4 8/8/4 
f 4/4/3 68/37/46 66/35/45 7/7/6 
f 24/28/21 68/37/46 65/34/2 20/23/2 
f 22/25/19 67/36/4 66/35/45 23/26/20 
f 23/26/20 66/35/45 68/37/46 24/28/21 
f 21/24/18 27/31/24 26/30/23 25/29/22 
f 28/32/25 69/38/42 32/39/28 29/33/26 
f 31/8/27 70/36/47 26/35/23 29/7/26 
f 25/26/22 26/35/23 70/36/47 35/25/27 
f 36/4/3 71/37/1 72/34/2 37/3/2 
f 38/8/4 73/36/4 74/35/5 39/7/6 
f 39/7/6 74/35/5 71/37/1 36/4/3 
f 51/24/25 60/31/42 72/34/2 52/23/2 
f 53/26/6 74/35/5 73/36/4 54/25/4 
f 55/28/3 71/37/1 74/35/5 53/26/6 
f 56/29/26 57/30/23 60/31/42 51/24/25 
f 58/33/22 32/39/28 69/38/42 59/32/25 
f 58/7/22 57/35/23 75/36/27 61/8/27 
f 64/25/27 75/36/27 57/35/23 56/26/26 
f 2/2/2 69/38/42 28/32/25 3/3/2 
f 11/11/9 15/19/13 34/40/30 12/12/10 
f 11/11/9 10/10/8 14/27/12 18/20/16 
f 18/20/16 14/27/12 24/28/21 20/23/2 
f 37/3/2 59/32/25 69/38/42 2/2/2 
f 41/12/32 62/40/43 46/19/37 42/11/33 
f 49/20/40 45/27/36 43/10/34 42/11/33 
f 52/23/2 55/28/3 45/27/36 49/20/40 
f 65/34/2 68/37/46 4/4/3 3/3/2 
f 65/34/2 27/31/24 21/24/18 20/23/2 
f 72/34/2 60/31/42 59/32/25 37/3/2 
f 72/34/2 71/37/1 55/28/3 52/23/2 
# 60 polygons - 4 triangles

