# 3ds Max Wavefront OBJ Exporter v0.97b - (c)2007 guruware
# File Created: 29.01.2021 16:18:38

#
# object ammo_rifle
#

v  -29.7819 16.0276 -29.0414
v  6.0479 16.0276 -29.0414
v  6.0479 -0.0000 -29.0414
v  -29.7819 -0.0000 -29.0414
v  6.0479 16.0276 30.9685
v  -29.7819 16.0276 30.9685
v  6.0479 -0.0000 30.9685
v  -29.7819 -0.0000 30.9685
v  14.2418 -0.0000 3.7288
v  14.2418 11.2595 3.7287
v  17.3604 11.2595 6.8475
v  17.3604 -0.0000 6.8475
v  11.1232 -0.0000 6.8475
v  11.1232 11.2595 6.8475
v  14.2418 22.5191 3.7287
v  17.3604 22.5191 6.8475
v  11.1232 22.5191 6.8475
v  14.2418 34.5790 6.8475
v  14.2418 -0.0000 9.9663
v  14.2418 11.2595 9.9663
v  14.2418 22.5191 9.9663
v  16.2380 -0.0000 -4.7285
v  16.2380 11.2595 -4.7285
v  19.3566 11.2595 -1.6098
v  19.3566 -0.0000 -1.6098
v  13.1194 -0.0000 -1.6098
v  13.1194 11.2595 -1.6098
v  16.2380 22.5191 -4.7285
v  19.3566 22.5191 -1.6098
v  13.1194 22.5191 -1.6098
v  16.2380 34.5790 -1.6098
v  16.2380 -0.0000 1.5090
v  16.2380 11.2595 1.5090
v  16.2380 22.5191 1.5090
v  13.9662 -0.0000 -11.3429
v  13.9662 11.2595 -11.3429
v  17.0848 11.2595 -8.2242
v  17.0848 -0.0000 -8.2242
v  10.8476 -0.0000 -8.2242
v  10.8476 11.2595 -8.2242
v  13.9662 22.5191 -11.3429
v  17.0848 22.5191 -8.2242
v  10.8476 22.5191 -8.2242
v  13.9662 34.5790 -8.2242
v  13.9662 -0.0000 -5.1053
v  13.9662 11.2595 -5.1053
v  13.9662 22.5191 -5.1053
v  27.0811 0.5728 -1.0222
v  21.4514 0.5727 -10.7733
v  24.1522 3.6915 -12.3326
v  29.7819 3.6915 -2.5815
v  24.3803 3.6915 0.5371
v  18.7506 3.6915 -9.2140
v  15.8216 0.5727 -20.5244
v  18.5224 3.6915 -22.0837
v  13.1208 3.6915 -18.9651
v  9.7916 3.6915 -30.9685
v  27.0811 6.8103 -1.0222
v  21.4514 6.8103 -10.7733
v  15.8216 6.8103 -20.5244
# 60 vertices

vn -0.5774 0.5774 -0.5773
vn 0.5773 0.5774 -0.5774
vn 0.5774 -0.5774 -0.5774
vn -0.5774 -0.5773 -0.5774
vn 0.5774 0.5774 0.5774
vn -0.5774 0.5773 0.5774
vn 0.5774 -0.5773 0.5774
vn -0.5774 -0.5774 0.5774
vn 0.0000 -0.5773 -0.8166
vn -0.0000 -0.0000 -1.0000
vn 1.0000 0.0000 -0.0000
vn 0.8164 -0.5774 -0.0000
vn -0.8164 -0.5774 -0.0000
vn -1.0000 0.0000 -0.0000
vn -0.0000 0.1196 -0.9928
vn 0.9928 0.1196 -0.0000
vn -0.9928 0.1196 -0.0000
vn -0.0000 1.0000 -0.0000
vn 0.0000 -0.5774 0.8165
vn 0.0000 0.0000 1.0000
vn 0.0000 0.1196 0.9928
vn 0.0000 1.0000 -0.0000
vn 0.2887 -0.8165 0.5000
vn -0.0000 -1.0000 0.0000
vn 0.8660 0.0001 -0.5000
vn 0.9958 -0.0001 0.0918
vn -0.4183 -0.0001 0.9083
vn -0.8660 0.0001 0.5000
vn -0.0598 -0.9928 -0.1036
vn 0.8000 -0.0000 -0.6000
vn -0.9196 -0.0000 0.3928
vn -0.5000 -0.0000 -0.8660
vn 0.2886 0.8165 0.4999
vn -0.0598 0.9928 -0.1036
# 34 vertex normals

vt 0.6506 0.4396 0.0000
vt 0.6506 0.3486 0.0000
vt 0.6099 0.3486 0.0000
vt 0.6099 0.4396 0.0000
vt 0.4575 0.4396 0.0000
vt 0.4575 0.3486 0.0000
vt 0.6099 0.3079 0.0000
vt 0.4575 0.3079 0.0000
vt 0.9670 0.4643 0.0000
vt 0.9670 0.5027 0.0000
vt 0.9521 0.5027 0.0000
vt 0.9521 0.4643 0.0000
vt 0.9819 0.4643 0.0000
vt 0.9819 0.5027 0.0000
vt 0.9670 0.5414 0.0000
vt 0.9521 0.5414 0.0000
vt 0.9819 0.5414 0.0000
vt 0.9671 0.5824 0.0000
vt 0.9670 0.4492 0.0000
vt 0.9819 0.4492 0.0000
# 20 texture coords

o ammo_rifle
g ammo_rifle
f 1/1/1 2/2/2 3/3/3 4/4/4 
f 5/4/5 2/5/2 1/6/1 6/3/6 
f 7/1/7 5/4/5 6/3/6 8/2/8 
f 8/7/8 6/3/6 1/6/1 4/8/4 
f 8/4/8 4/5/4 3/6/3 7/3/7 
f 5/7/5 7/3/7 3/6/3 2/8/2 
f 9/9/9 10/10/10 11/11/11 12/12/12 
f 13/13/13 14/14/14 10/10/10 9/9/9 
f 10/10/10 15/15/15 16/16/16 11/11/11 
f 14/14/14 17/17/17 15/15/15 10/10/10 
f 15/15/15 17/17/17 18/18/18 
f 16/16/16 15/15/15 18/18/18 
f 13/19/13 9/20/9 12/13/12 19/9/19 
f 19/9/19 20/10/20 14/11/14 13/12/13 
f 12/13/12 11/14/11 20/10/20 19/9/19 
f 20/10/20 21/15/21 17/16/17 14/11/14 
f 11/14/11 16/17/16 21/15/21 20/10/20 
f 21/15/21 16/17/16 18/18/18 
f 17/16/17 21/15/21 18/18/18 
f 22/9/9 23/10/10 24/11/11 25/12/12 
f 26/13/13 27/14/14 23/10/10 22/9/9 
f 23/10/10 28/15/15 29/16/16 24/11/11 
f 27/14/14 30/17/17 28/15/15 23/10/10 
f 28/15/15 30/17/17 31/18/22 
f 29/16/16 28/15/15 31/18/22 
f 26/19/13 22/20/9 25/13/12 32/9/19 
f 32/9/19 33/10/20 27/11/14 26/12/13 
f 25/13/12 24/14/11 33/10/20 32/9/19 
f 33/10/20 34/15/21 30/16/17 27/11/14 
f 24/14/11 29/17/16 34/15/21 33/10/20 
f 34/15/21 29/17/16 31/18/22 
f 30/16/17 34/15/21 31/18/22 
f 35/9/9 36/10/10 37/11/11 38/12/12 
f 39/13/13 40/14/14 36/10/10 35/9/9 
f 36/10/10 41/15/15 42/16/16 37/11/11 
f 40/14/14 43/17/17 41/15/15 36/10/10 
f 41/15/15 43/17/17 44/18/22 
f 42/16/16 41/15/15 44/18/22 
f 39/19/13 35/20/9 38/13/12 45/9/19 
f 45/9/19 46/10/20 40/11/14 39/12/13 
f 38/13/12 37/14/11 46/10/20 45/9/19 
f 46/10/20 47/15/21 43/16/17 40/11/14 
f 37/14/11 42/17/16 47/15/21 46/10/20 
f 47/15/21 42/17/16 44/18/22 
f 43/16/17 47/15/21 44/18/22 
f 48/9/23 49/10/24 50/11/25 51/12/26 
f 52/13/27 53/14/28 49/10/24 48/9/23 
f 49/10/24 54/15/29 55/16/30 50/11/25 
f 53/14/28 56/17/31 54/15/29 49/10/24 
f 54/15/29 56/17/31 57/18/32 
f 55/16/30 54/15/29 57/18/32 
f 52/19/27 48/20/23 51/13/26 58/9/33 
f 58/9/33 59/10/22 53/11/28 52/12/27 
f 51/13/26 50/14/25 59/10/22 58/9/33 
f 59/10/22 60/15/34 56/16/31 53/11/28 
f 50/14/25 55/17/30 60/15/34 59/10/22 
f 60/15/34 55/17/30 57/18/32 
f 56/16/31 60/15/34 57/18/32 
# 42 polygons - 16 triangles

