# 3ds Max Wavefront OBJ Exporter v0.97b - (c)2007 guruware
# File Created: 04.02.2021 18:16:06

mtllib bullet_casing.mtl

#
# object Cylinder001
#

v  -10.3207 2.0912 -3.6221
v  -10.3207 -2.0912 -3.6221
v  -10.3207 -4.1825 -0.0000
v  -10.3207 4.1825 -0.0000
v  -10.3207 2.0912 3.6221
v  0.0000 2.0912 3.6221
v  0.0000 4.1825 0.0000
v  -10.3207 -2.0912 3.6221
v  0.0000 -2.0912 3.6221
v  0.0000 -4.1825 -0.0000
v  0.0000 -2.0912 -3.6221
v  0.0000 2.0912 -3.6221
v  10.3207 2.0912 3.6221
v  10.3207 4.1825 0.0000
v  10.3207 -2.0912 3.6221
v  10.3207 -4.1825 0.0000
v  10.3207 -2.0912 -3.6221
v  10.3207 2.0912 -3.6221
# 18 vertices

vn -0.6100 0.3962 -0.6862
vn -0.6100 -0.3962 -0.6862
vn -0.6100 -0.7924 -0.0000
vn -0.6100 0.7924 -0.0000
vn -0.6100 0.3962 0.6862
vn -0.0000 0.5000 0.8660
vn 0.0000 1.0000 -0.0000
vn -0.6100 -0.3962 0.6862
vn -0.0000 -0.5000 0.8660
vn -0.0000 -1.0000 -0.0000
vn 0.0000 -0.5000 -0.8660
vn 0.0000 0.5000 -0.8660
vn 0.6100 0.3962 0.6862
vn 0.6100 0.7924 0.0000
vn 0.6100 -0.3962 0.6862
vn 0.6100 -0.7924 0.0000
vn 0.6100 -0.3962 -0.6862
vn 0.6100 0.3962 -0.6862
# 18 vertex normals

vt 0.6938 0.9929 0.0000
vt 0.6228 0.8633 0.0000
vt 0.6644 0.7336 0.0000
vt 0.7978 0.9929 0.0000
vt 0.1684 0.7336 0.0000
vt 0.0030 0.7336 0.0000
vt 0.0030 0.4841 0.0000
vt 0.1684 0.4841 0.0000
vt 0.9950 0.7336 0.0000
vt 0.8297 0.7336 0.0000
vt 0.8297 0.4841 0.0000
vt 0.9950 0.4841 0.0000
vt 0.6644 0.4841 0.0000
vt 0.4991 0.7336 0.0000
vt 0.4991 0.4841 0.0000
vt 0.3337 0.7336 0.0000
vt 0.3337 0.4841 0.0000
vt 0.0030 0.2346 0.0000
vt 0.1684 0.2346 0.0000
vt 0.8297 0.2346 0.0000
vt 0.9950 0.2346 0.0000
vt 0.6644 0.2346 0.0000
vt 0.4991 0.2346 0.0000
vt 0.3337 0.2346 0.0000
vt 0.6895 0.0083 0.0000
vt 0.7935 0.0083 0.0000
vt 0.6263 0.1122 0.0000
vt 0.8688 0.8537 0.0000
vt 0.8566 0.1090 0.0000
# 29 texture coords

o Cylinder001
g Cylinder001
usemtl 09___Default
f 1/1/1 2/2/2 3/3/3 4/4/4 
f 4/5/4 5/6/5 6/7/6 7/8/7 
f 5/9/5 8/10/8 9/11/9 6/12/6 
f 8/10/8 3/3/3 10/13/10 9/11/9 
f 3/3/3 2/14/2 11/15/11 10/13/10 
f 2/14/2 1/16/1 12/17/12 11/15/11 
f 1/16/1 4/5/4 7/8/7 12/17/12 
f 7/8/7 6/7/6 13/18/13 14/19/14 
f 6/12/6 9/11/9 15/20/15 13/21/13 
f 9/11/9 10/13/10 16/22/16 15/20/15 
f 10/13/10 11/15/11 17/23/17 16/22/16 
f 11/15/11 12/17/12 18/24/18 17/23/17 
f 12/17/12 7/8/7 14/19/14 18/24/18 
f 18/25/18 14/26/14 16/22/16 17/27/17 
f 3/3/3 8/10/8 5/28/5 4/4/4 
f 14/26/14 13/29/13 15/20/15 16/22/16 
# 16 polygons

