# 3ds Max Wavefront OBJ Exporter v0.97b - (c)2007 guruware
# File Created: 07.02.2021 20:44:36

mtllib weap_magazine.mtl

#
# object magazine
#

v  -9.7332 -28.2134 7.3216
v  15.3648 -28.2134 7.3216
v  9.7333 28.2134 7.3216
v  -15.3648 28.2134 7.3216
v  -9.7332 -28.2134 0.0000
v  15.3648 -28.2134 0.0000
v  9.7333 28.2134 0.0000
v  -15.3648 28.2134 0.0000
v  -9.7332 -28.2134 -7.3215
v  -15.3648 28.2134 -7.3215
v  9.7333 28.2134 -7.3215
v  15.3648 -28.2134 -7.3215
# 12 vertices

vn -0.5516 -0.5978 0.5817
vn 0.6022 -0.5556 0.5732
vn 0.5516 0.5978 0.5817
vn -0.6022 0.5556 0.5732
vn -0.6781 -0.7350 -0.0000
vn 0.7350 -0.6781 -0.0000
vn 0.6781 0.7350 -0.0000
vn -0.7350 0.6781 -0.0000
vn -0.5516 -0.5978 -0.5817
vn -0.6022 0.5556 -0.5732
vn 0.5516 0.5978 -0.5817
vn 0.6022 -0.5556 -0.5732
# 12 vertex normals

vt 0.3281 0.4242 0.0000
vt 0.3816 0.4232 0.0000
vt 0.3724 0.5722 0.0000
vt 0.3189 0.5733 0.0000
vt 0.3278 0.4110 0.0000
vt 0.3813 0.4100 0.0000
vt 0.3947 0.4240 0.0000
vt 0.3856 0.5731 0.0000
vt 0.3726 0.5855 0.0000
vt 0.3191 0.5865 0.0000
vt 0.3057 0.5724 0.0000
vt 0.3149 0.4234 0.0000
# 12 texture coords

o magazine
g magazine
usemtl 02___Default
f 1/1/1 2/2/2 3/3/3 4/4/4 
f 2/2/2 1/1/1 5/5/5 6/6/6 
f 3/3/3 2/2/2 6/7/6 7/8/7 
f 4/4/4 3/3/3 7/9/7 8/10/8 
f 1/1/1 4/4/4 8/11/8 5/12/5 
f 9/1/9 10/4/10 11/3/11 12/2/12 
f 12/2/12 6/6/6 5/5/5 9/1/9 
f 11/3/11 7/8/7 6/7/6 12/2/12 
f 10/4/10 8/10/8 7/9/7 11/3/11 
f 9/1/9 5/12/5 8/11/8 10/4/10 
# 10 polygons

