# 3ds Max Wavefront OBJ Exporter v0.97b - (c)2007 guruware
# File Created: 04.02.2021 18:25:47

mtllib weap_rifle.mtl

#
# object weap_rifle
#

v  -90.4640 -48.9490 5.2706
v  -90.4640 -48.9490 0.0000
v  -60.5694 -62.2893 0.0000
v  -60.5694 -62.2893 6.2689
v  -77.9540 7.2016 6.2690
v  -79.7713 -10.6517 6.2690
v  -47.6264 -14.7074 6.2690
v  -45.5888 7.2016 6.2690
v  -77.9539 7.2016 0.0000
v  -79.7713 -10.6517 0.0000
v  -83.8020 -29.8904 6.2689
v  -52.1858 -37.3362 6.2689
v  -83.8020 -29.8904 0.0000
v  -47.6264 -14.7074 0.0000
v  -45.5888 7.2016 0.0000
v  -52.1858 -37.3362 0.0000
v  -32.4753 21.9236 8.2503
v  -32.4753 31.1013 8.2503
v  -45.6784 31.1013 8.2503
v  -45.6784 21.9236 8.2503
v  9.2033 21.9236 8.2503
v  9.2033 31.1013 8.2503
v  -19.2722 31.1013 8.2503
v  -19.2722 21.9236 8.2503
v  -80.4915 56.7410 8.2503
v  -80.4915 51.1010 8.2503
v  -45.6784 51.1010 8.2503
v  -45.6784 56.7410 8.2503
v  -19.2722 56.7410 8.2503
v  -32.4753 56.7410 8.2503
v  -32.4753 51.1010 8.2503
v  -19.2722 51.1010 8.2503
v  9.2033 56.7410 8.2503
v  9.2033 51.1009 8.2503
v  -80.4915 21.9236 8.2503
v  -80.4915 31.1013 8.2503
v  -16.7188 12.5407 8.2503
v  7.6942 12.5407 8.2503
v  -80.4915 12.5407 8.2503
v  -45.6784 12.5407 8.2503
v  -80.4915 21.9236 0.0000
v  -80.4915 12.5407 0.0000
v  18.3513 -9.1208 8.2503
v  18.3513 -9.1208 0.0000
v  9.6637 6.1697 0.0000
v  9.6637 6.1697 8.2503
v  -4.4084 -17.3469 8.2503
v  -11.7618 1.7518 8.2503
v  21.3297 51.1010 8.2503
v  21.3297 54.3712 8.2503
v  21.3297 27.4102 8.2503
v  21.3297 31.1013 8.2503
v  9.2033 21.9236 0.0000
v  21.3297 27.4102 0.0000
v  -88.6685 31.1013 7.2503
v  -88.6685 22.9236 7.2503
v  -88.6685 55.7410 7.2503
v  -88.6685 51.1010 7.2503
v  -31.2496 19.3349 8.2503
v  -21.0656 19.3349 8.2503
v  -43.0898 12.5407 8.2503
v  -41.4337 19.3349 8.2503
v  -28.7201 1.7518 8.2503
v  -31.0513 4.4194 8.2503
v  -41.4337 4.3530 8.2503
v  -45.6784 1.7518 8.2503
v  -19.1705 12.5407 8.2503
v  -20.6690 4.4857 8.2503
v  7.6942 12.5407 0.0000
v  -80.4915 1.7518 8.2503
v  -19.3265 47.2221 12.3830
v  -32.5296 47.2221 12.3830
v  -32.5296 34.9803 12.3830
v  -19.3265 34.9803 12.3830
v  9.1491 47.2221 12.3830
v  9.1491 34.9803 12.3830
v  -80.5457 34.9803 12.3830
v  -45.7327 34.9803 12.3830
v  -45.7327 47.2221 12.3830
v  -80.5457 47.2221 12.3830
v  21.3297 34.9803 12.3830
v  21.3297 47.2221 12.3830
v  -88.6685 47.2221 11.9223
v  -88.6685 34.9803 11.9223
v  143.8500 51.1010 8.2503
v  143.8500 47.2221 12.3830
v  143.8500 34.9803 12.3830
v  143.8500 31.1013 8.2503
v  -286.1562 35.1101 3.5562
v  -286.1562 37.4787 5.9547
v  -286.1562 44.7236 5.9547
v  -286.1562 47.0922 3.5562
v  -80.3705 56.7557 4.2513
v  -45.6784 56.7410 4.2513
v  -32.4753 56.7410 4.2513
v  9.2033 56.7410 4.2513
v  -19.2722 56.7410 4.2513
v  21.3297 54.3712 0.0000
v  9.2033 56.7410 0.0000
v  0.3885 79.3131 4.2813
v  0.3885 79.3131 0.0000
v  -19.3508 77.4056 0.0000
v  -19.3508 77.4056 4.2813
v  -45.6778 59.5732 4.2560
v  -77.5222 59.5867 4.2562
v  -33.8965 59.5732 4.2560
v  -22.1712 74.2876 4.2767
v  -22.1152 59.5732 4.2559
v  -45.6345 74.8656 4.2813
v  -45.3621 72.0466 4.2765
v  -80.2862 71.5170 4.2813
v  -77.4686 68.9440 4.2763
v  27.0389 -24.4114 8.2503
v  27.0389 -24.4114 0.0000
v  2.9451 -36.4457 8.2503
v  21.3297 31.1013 0.0000
v  32.8081 31.1013 0.0000
v  32.8081 31.1013 8.2503
v  32.8081 47.2221 12.3830
v  32.8081 51.1010 8.2503
v  32.8081 34.9803 12.3830
v  33.3906 33.5845 0.0000
v  50.6378 33.5845 0.0000
v  50.6378 33.5845 7.2675
v  33.3906 33.5845 7.2675
v  33.3906 46.1612 9.9322
v  50.6378 46.1612 9.9322
v  50.6378 48.6179 7.2675
v  33.3906 48.6179 7.2675
v  33.3906 36.0412 9.9322
v  50.6378 36.0412 9.9322
v  97.5352 51.1010 8.2503
v  97.5352 51.1010 0.0000
v  51.2203 51.1010 0.0000
v  51.2203 51.1010 8.2503
v  97.5352 47.2221 12.3830
v  51.2203 47.2221 12.3830
v  97.5352 34.9803 12.3830
v  51.2203 34.9803 12.3830
v  97.5352 31.1013 8.2503
v  51.2203 31.1013 8.2503
v  97.5352 9.6427 4.3135
v  143.8500 -15.7963 4.3135
v  51.2203 31.1013 0.0000
v  51.2204 17.8439 0.0000
v  51.2203 17.8439 4.3135
v  143.8500 51.1010 0.0000
v  -88.6685 51.1010 0.0000
v  -97.7310 51.1010 0.0000
v  -97.7310 51.1010 6.0957
v  -97.7310 34.9803 10.0237
v  -97.7310 31.1013 6.0957
v  -97.7310 47.2221 10.0237
v  -98.7137 58.3415 0.0000
v  -98.7137 58.3415 8.7167
v  -98.7137 31.3837 16.3348
v  -98.7137 23.8607 8.7167
v  -98.7137 50.8186 16.3348
v  -183.3004 55.5756 0.0000
v  -183.3004 55.5756 7.8771
v  -183.3004 32.6823 14.0093
v  -183.3004 26.6267 7.8771
v  -183.3004 49.5200 14.0093
v  -183.3004 47.0922 0.0000
v  -183.3004 47.0922 3.5562
v  -183.3004 37.4787 5.9547
v  -183.3004 35.1101 3.5562
v  -183.3004 44.7236 5.9547
v  -258.4417 36.4310 3.0141
v  -258.4417 36.4310 0.0000
v  -211.0149 36.4310 0.0000
v  -211.0149 36.4310 3.0140
v  -258.4417 38.0293 4.6375
v  -211.0149 38.0293 4.6374
v  -258.4417 44.1731 4.6375
v  -211.0149 44.1731 4.6374
v  -258.4417 45.7714 3.0141
v  -211.0149 45.7714 3.0140
v  -201.8745 78.5770 3.5562
v  -201.8745 78.5770 0.0000
v  -209.4077 78.5770 0.0000
v  -209.4077 78.5770 3.5562
v  -286.1562 35.1101 0.0000
v  -260.0489 35.1101 0.0000
v  -260.0489 35.1101 3.5562
v  -260.0489 37.4787 5.9547
v  -209.4077 37.4787 5.9547
v  -209.4077 35.1101 3.5562
v  -260.0489 44.7236 5.9547
v  -209.4077 44.7236 5.9547
v  -260.0489 47.0922 3.5562
v  -209.4077 47.0922 3.5562
v  -209.4077 47.0922 0.0000
v  -211.0149 45.7714 0.0000
v  -190.0490 52.2135 3.5562
v  -206.6947 52.2136 3.5562
v  -201.1996 71.6004 3.5562
v  -206.6947 71.6004 3.5562
v  -21.0656 19.3349 4.0620
v  -19.1705 12.5407 4.0620
v  -31.0513 4.4194 4.0620
v  -41.4337 4.3530 4.0620
v  -43.0898 12.5407 4.0620
v  -31.2496 19.3349 4.0620
v  -20.6690 4.4857 4.0620
v  -41.4337 19.3349 4.0620
v  -41.4337 19.3349 0.0000
v  -31.2496 19.3349 0.0000
v  -29.3600 11.8771 0.0000
v  -29.3600 11.8771 4.0620
v  -31.0513 4.4194 0.0000
v  50.6378 48.6179 0.0000
v  -45.6784 1.7518 0.0000
v  -28.7201 1.7518 0.0000
v  -88.6685 55.7410 0.0000
v  2.9451 -36.4457 0.0000
v  21.3297 51.1010 0.0000
v  -88.6685 31.1013 0.0000
v  -88.6685 22.9236 0.0000
v  -11.7618 1.7518 0.0000
v  -4.4084 -17.3469 0.0000
v  -41.4337 4.3530 0.0000
v  -43.0898 12.5407 0.0000
v  -80.4915 1.7518 0.0000
v  143.8500 31.1013 0.0000
v  -286.1562 47.0922 0.0000
v  -80.3705 56.7557 0.0000
v  -45.6345 74.8656 0.0000
v  -80.2862 71.5171 0.0000
v  -77.5222 59.5867 0.0000
v  -77.4686 68.9440 0.0000
v  -45.3621 72.0466 0.0000
v  -22.1712 74.2876 0.0000
v  -22.1152 59.5732 0.0000
v  -33.8965 59.5732 0.0000
v  -45.6778 59.5732 0.0000
v  32.8081 51.1010 0.0000
v  33.3906 48.6179 0.0000
v  97.5352 9.6427 0.0000
v  143.8500 -15.7963 0.0000
v  -97.7310 31.1013 0.0000
v  -98.7137 23.8607 0.0000
v  -183.3004 26.6267 0.0000
v  -183.3004 35.1101 0.0000
v  -258.4417 45.7714 0.0000
v  -260.0489 47.0922 0.0000
v  -209.4077 35.1101 0.0000
v  -206.6947 71.6004 0.0000
v  -201.1996 71.6004 0.0000
v  -190.0490 52.2135 0.0000
v  -206.6947 52.2136 0.0000
v  -90.4640 -48.9490 -5.2705
v  -60.5694 -62.2893 -6.2688
v  -77.9540 7.2016 -6.2689
v  -45.5888 7.2016 -6.2689
v  -47.6264 -14.7074 -6.2689
v  -79.7713 -10.6517 -6.2689
v  -52.1858 -37.3362 -6.2688
v  -83.8020 -29.8904 -6.2688
v  -32.4753 21.9236 -8.2502
v  -45.6784 21.9236 -8.2502
v  -45.6784 31.1013 -8.2502
v  -32.4753 31.1013 -8.2502
v  9.2033 21.9236 -8.2502
v  -19.2722 21.9236 -8.2502
v  -19.2722 31.1013 -8.2502
v  9.2033 31.1013 -8.2502
v  -80.4915 56.7410 -8.2502
v  -45.6784 56.7410 -8.2502
v  -45.6784 51.1010 -8.2502
v  -80.4915 51.1010 -8.2502
v  -19.2722 56.7410 -8.2502
v  -19.2722 51.1010 -8.2502
v  -32.4753 51.1010 -8.2502
v  -32.4753 56.7410 -8.2502
v  9.2033 56.7410 -8.2502
v  9.2033 51.1009 -8.2502
v  -80.4915 21.9236 -8.2502
v  -80.4915 31.1013 -8.2502
v  7.6942 12.5407 -8.2502
v  -16.7188 12.5407 -8.2502
v  -45.6784 12.5407 -8.2502
v  -80.4915 12.5407 -8.2502
v  18.3513 -9.1208 -8.2502
v  9.6637 6.1697 -8.2502
v  -4.4084 -17.3469 -8.2502
v  -11.7618 1.7518 -8.2502
v  21.3297 54.3712 -8.2502
v  21.3297 51.1010 -8.2502
v  21.3297 31.1013 -8.2502
v  21.3297 27.4102 -8.2502
v  -88.6685 22.9236 -7.2502
v  -88.6685 31.1013 -7.2502
v  -88.6685 51.1010 -7.2502
v  -88.6685 55.7410 -7.2502
v  -21.0656 19.3349 -8.2502
v  -31.2496 19.3349 -8.2502
v  -41.4337 19.3349 -8.2502
v  -43.0898 12.5407 -8.2502
v  -28.7201 1.7518 -8.2502
v  -45.6784 1.7518 -8.2502
v  -41.4337 4.3530 -8.2502
v  -31.0513 4.4194 -8.2502
v  -20.6690 4.4857 -8.2502
v  -19.1705 12.5407 -8.2502
v  -80.4915 1.7518 -8.2502
v  -19.3265 47.2221 -12.3829
v  -19.3265 34.9803 -12.3829
v  -32.5296 34.9803 -12.3829
v  -32.5296 47.2221 -12.3829
v  9.1491 47.2221 -12.3829
v  9.1491 34.9803 -12.3829
v  -80.5457 34.9803 -12.3830
v  -80.5457 47.2221 -12.3830
v  -45.7327 47.2221 -12.3830
v  -45.7327 34.9803 -12.3830
v  21.3297 47.2221 -12.3829
v  21.3297 34.9803 -12.3829
v  -88.6685 34.9803 -11.9222
v  -88.6685 47.2221 -11.9222
v  143.8500 51.1010 -8.2502
v  143.8500 31.1013 -8.2502
v  143.8500 34.9803 -12.3829
v  143.8500 47.2221 -12.3829
v  -286.1562 35.1101 -3.5562
v  -286.1562 47.0922 -3.5562
v  -286.1562 44.7236 -5.9547
v  -286.1562 37.4787 -5.9547
v  -80.3705 56.7557 -4.2513
v  -45.6784 56.7410 -4.2513
v  -32.4753 56.7410 -4.2512
v  -19.2722 56.7410 -4.2512
v  9.2033 56.7410 -4.2512
v  0.3885 79.3131 -4.2812
v  -19.3508 77.4056 -4.2812
v  -77.5222 59.5867 -4.2562
v  -45.6778 59.5732 -4.2560
v  -33.8965 59.5732 -4.2560
v  -22.1152 59.5732 -4.2558
v  -22.1712 74.2876 -4.2766
v  -45.6345 74.8656 -4.2813
v  -45.3621 72.0466 -4.2765
v  -77.4686 68.9440 -4.2762
v  -80.2862 71.5170 -4.2813
v  27.0389 -24.4114 -8.2502
v  2.9451 -36.4457 -8.2502
v  32.8081 31.1013 -8.2502
v  32.8081 51.1010 -8.2502
v  32.8081 47.2221 -12.3829
v  32.8081 34.9803 -12.3829
v  33.3906 33.5845 -7.2674
v  50.6378 33.5845 -7.2674
v  33.3906 46.1612 -9.9321
v  33.3906 48.6179 -7.2674
v  50.6378 48.6179 -7.2674
v  50.6378 46.1612 -9.9321
v  33.3906 36.0412 -9.9321
v  50.6378 36.0412 -9.9321
v  97.5352 51.1010 -8.2502
v  51.2203 51.1010 -8.2502
v  97.5352 47.2221 -12.3829
v  51.2203 47.2221 -12.3829
v  97.5352 34.9803 -12.3829
v  51.2203 34.9803 -12.3829
v  97.5352 31.1013 -8.2502
v  51.2203 31.1013 -8.2502
v  143.8500 -15.7963 -4.3134
v  97.5352 9.6427 -4.3134
v  51.2203 17.8439 -4.3134
v  -97.7310 51.1010 -6.0956
v  -97.7310 31.1013 -6.0956
v  -97.7310 34.9803 -10.0237
v  -97.7310 47.2221 -10.0237
v  -98.7137 58.3415 -8.7166
v  -98.7137 23.8607 -8.7166
v  -98.7137 31.3837 -16.3347
v  -98.7137 50.8186 -16.3347
v  -183.3004 55.5756 -7.8770
v  -183.3004 26.6267 -7.8770
v  -183.3004 32.6823 -14.0092
v  -183.3004 49.5200 -14.0092
v  -183.3004 47.0922 -3.5562
v  -183.3004 35.1101 -3.5562
v  -183.3004 37.4787 -5.9547
v  -183.3004 44.7236 -5.9547
v  -258.4417 36.4310 -3.0140
v  -211.0149 36.4310 -3.0140
v  -258.4417 38.0293 -4.6374
v  -211.0149 38.0293 -4.6374
v  -258.4417 44.1731 -4.6374
v  -211.0149 44.1731 -4.6374
v  -258.4417 45.7714 -3.0140
v  -211.0149 45.7714 -3.0140
v  -201.8745 78.5770 -3.5562
v  -209.4077 78.5770 -3.5562
v  -260.0489 35.1101 -3.5562
v  -260.0489 37.4787 -5.9547
v  -209.4077 35.1101 -3.5562
v  -209.4077 37.4787 -5.9547
v  -260.0489 44.7236 -5.9547
v  -209.4077 44.7236 -5.9547
v  -260.0489 47.0922 -3.5562
v  -209.4077 47.0922 -3.5562
v  -206.6947 52.2136 -3.5562
v  -190.0490 52.2135 -3.5562
v  -201.1996 71.6004 -3.5562
v  -206.6947 71.6004 -3.5562
v  -19.1705 12.5407 -4.0619
v  -21.0656 19.3349 -4.0619
v  -41.4337 4.3530 -4.0620
v  -31.0513 4.4194 -4.0619
v  -43.0898 12.5407 -4.0620
v  -31.2496 19.3349 -4.0619
v  -20.6690 4.4857 -4.0619
v  -41.4337 19.3349 -4.0620
v  -29.3600 11.8771 -4.0619
# 416 vertices

vn -0.7623 -0.3320 0.5556
vn -0.9182 -0.3962 -0.0000
vn 0.4018 -0.9157 -0.0000
vn 0.3229 -0.7466 0.5817
vn -0.5448 0.6029 0.5828
vn -0.6866 0.1066 0.7192
vn 0.7110 -0.1044 0.6954
vn 0.6059 0.5522 0.5726
vn -0.6703 0.7420 -0.0000
vn -0.9882 0.1534 -0.0000
vn -0.6660 0.1654 0.7274
vn 0.6962 -0.1863 0.6933
vn -0.9634 0.2681 -0.0000
vn 0.9894 -0.1453 -0.0000
vn 0.7391 0.6736 -0.0000
vn 0.9660 -0.2585 -0.0000
vn 0.0000 0.0000 1.0000
vn 0.0000 -0.3973 0.9177
vn 0.4424 -0.3382 0.8306
vn -0.0832 0.7040 0.7053
vn -0.0562 0.4027 0.9136
vn 0.0000 0.3973 0.9177
vn 0.0000 0.7071 0.7071
vn 0.0701 0.7241 0.6861
vn -0.0000 0.3973 0.9177
vn -0.3718 -0.2783 0.8856
vn -0.0562 -0.4027 0.9136
vn 0.6459 0.0454 0.7621
vn -0.7071 0.0000 0.7071
vn -0.7488 -0.6628 -0.0000
vn -1.0000 0.0000 -0.0000
vn 0.6148 0.3493 0.7071
vn 0.8695 0.4940 -0.0000
vn 0.9178 0.3970 -0.0000
vn 0.6250 0.2704 0.7323
vn -0.6599 -0.2541 0.7071
vn -0.2898 -0.4221 0.8590
vn 0.2811 0.6911 0.6659
vn 0.6243 0.5141 0.5882
vn 0.6703 -0.4324 0.6031
vn 0.2811 -0.6911 0.6659
vn 0.7945 -0.6073 -0.0000
vn 0.8403 -0.5422 -0.0000
vn -0.3578 -0.6859 0.6336
vn -0.6407 -0.5429 0.5429
vn -0.6407 0.5429 0.5429
vn -0.3578 0.6859 0.6336
vn 0.0000 -0.7071 0.7071
vn -0.2968 -0.3910 0.8712
vn 0.6504 -0.0129 0.7595
vn 0.2986 -0.3802 0.8754
vn -0.0045 0.7071 0.7071
vn 0.2982 0.3670 0.8811
vn -0.0000 -0.7071 0.7071
vn -0.6473 -0.0285 0.7617
vn -0.3030 0.3622 0.8815
vn 0.9975 0.0701 -0.0000
vn -0.5774 -0.5774 0.5774
vn -0.0260 -0.3946 0.9185
vn -0.0260 0.3947 0.9184
vn -0.1178 0.4156 0.9019
vn -0.1178 -0.4157 0.9019
vn 0.6329 0.7199 0.2849
vn 0.6276 0.3093 0.7144
vn 0.6277 -0.3093 0.7144
vn 0.7974 -0.2627 0.5433
vn -0.6308 -0.7178 0.2947
vn -0.6297 -0.2995 0.7167
vn -0.6297 0.2995 0.7167
vn -0.6308 0.7178 0.2947
vn -0.3664 0.8824 0.2953
vn 0.0002 0.7065 0.7077
vn 0.0000 0.7065 0.7077
vn 0.3598 0.9094 0.2086
vn 0.0000 0.7066 0.7076
vn 0.7719 0.6357 0.0000
vn 0.6410 0.7675 0.0000
vn 0.4215 0.6855 0.5937
vn 0.5236 0.8520 0.0000
vn -0.0962 0.9954 -0.0000
vn -0.0680 0.7033 0.7077
vn 0.0002 0.7066 0.7077
vn 0.3022 0.2979 0.9055
vn -0.2700 -0.3002 0.9149
vn -0.3017 0.2990 0.9053
vn -0.0680 0.7032 0.7077
vn 0.0681 -0.7044 0.7065
vn -0.5999 0.5474 0.5835
vn 0.3327 -0.3060 0.8920
vn 0.7830 -0.2383 0.5746
vn 0.9567 -0.2912 -0.0000
vn -0.2965 -0.7644 0.5725
vn 0.7071 -0.7071 -0.0000
vn 0.6211 -0.7838 -0.0000
vn 0.5637 -0.7680 0.3040
vn 0.5593 0.3293 0.7607
vn 0.5638 0.7680 0.3039
vn 0.5593 -0.3293 0.7607
vn -0.6211 -0.7837 -0.0000
vn -0.7089 -0.6571 0.2564
vn 0.7089 -0.6571 0.2564
vn 0.7187 0.2793 0.6367
vn -0.7187 0.2793 0.6367
vn -0.7089 0.6571 0.2564
vn 0.7089 0.6571 0.2564
vn 0.7187 -0.2793 0.6367
vn -0.7187 -0.2793 0.6367
vn -0.0000 0.9298 0.3680
vn -0.0000 1.0000 0.0000
vn -0.6211 0.7837 -0.0000
vn -0.5638 0.7680 0.3039
vn -0.5593 0.3294 0.7608
vn -0.5593 -0.3293 0.7607
vn 0.0000 -0.4788 0.8779
vn -0.7238 -0.4129 0.5529
vn -0.2520 -0.6990 0.6692
vn 0.4243 -0.7325 0.5324
vn -0.9934 -0.1149 -0.0000
vn -0.7663 -0.6425 -0.0000
vn -0.6447 -0.5924 0.4832
vn 0.7071 0.7071 -0.0000
vn -0.7071 0.7071 -0.0000
vn 0.6578 0.7532 -0.0000
vn 0.7373 0.6305 0.2425
vn 0.6853 -0.2880 0.6689
vn 0.7374 -0.6305 0.2425
vn 0.6853 0.2880 0.6689
vn 0.6455 0.7637 -0.0000
vn 0.5773 0.7558 0.3090
vn 0.5748 -0.3178 0.7541
vn 0.5773 -0.7558 0.3090
vn 0.5748 0.3178 0.7541
vn -0.7186 0.6954 -0.0000
vn -0.6435 0.7079 0.2913
vn -0.6415 -0.2952 0.7081
vn -0.6435 -0.7079 0.2913
vn -0.6415 0.2952 0.7081
vn -0.2634 0.9647 -0.0000
vn -0.6663 0.4971 0.5557
vn -0.8050 -0.2287 0.5474
vn -0.8034 -0.5509 0.2262
vn -0.8050 0.2287 0.5474
vn 0.3874 -0.8531 0.3494
vn 0.3372 -0.9414 -0.0000
vn -0.3372 -0.9414 -0.0000
vn -0.3874 -0.8531 0.3494
vn 0.3881 -0.3561 0.8501
vn -0.3881 -0.3561 0.8501
vn 0.3881 0.3561 0.8501
vn -0.3881 0.3561 0.8501
vn 0.3874 0.8531 0.3494
vn -0.3874 0.8531 0.3494
vn 0.3927 0.6876 0.6107
vn 0.4959 0.8684 -0.0000
vn -0.5774 0.5774 0.5774
vn -0.7071 -0.7071 -0.0000
vn 0.3296 -0.8734 0.3586
vn 0.3292 -0.3641 0.8712
vn -0.3292 -0.3641 0.8712
vn -0.3296 -0.8734 0.3586
vn 0.3292 0.3641 0.8712
vn -0.3292 0.3641 0.8712
vn 0.3295 0.8734 0.3586
vn -0.5903 0.5203 0.6171
vn -0.9041 0.4272 -0.0000
vn -0.3372 0.9414 -0.0000
vn -0.2491 0.1441 0.9577
vn 0.3015 0.3015 0.9045
vn -0.2726 -0.4712 0.8388
vn 0.3015 -0.3015 0.9045
vn -0.4868 -0.6413 0.5931
vn -0.7509 -0.0331 0.6596
vn -0.2859 0.9262 0.2456
vn 0.6307 0.7760 -0.0000
vn 0.9998 -0.0198 -0.0000
vn -0.2777 -0.9299 0.2412
vn -0.5190 0.6204 0.5880
vn 0.6177 -0.7864 -0.0000
vn -0.6142 -0.7892 -0.0000
vn -0.9999 -0.0126 -0.0000
vn -0.6456 -0.0081 0.7636
vn -0.6265 0.7794 -0.0000
vn -0.0000 -1.0000 -0.0000
vn -0.7488 0.6628 -0.0000
vn -0.3616 -0.9323 0.0000
vn 0.7071 0.7071 0.0000
vn -0.5660 -0.8244 -0.0000
vn -0.9332 -0.3593 -0.0000
vn 1.0000 -0.0000 -0.0000
vn -0.7468 0.6650 -0.0000
vn -0.7383 0.6744 0.0000
vn 0.7093 0.7049 -0.0000
vn 0.7383 -0.6744 -0.0000
vn 0.0962 -0.9954 -0.0000
vn -0.6708 -0.7416 -0.0000
vn -0.7085 0.7058 -0.0000
vn 0.0000 1.0000 -0.0000
vn 0.0002 1.0000 -0.0000
vn 0.6211 0.7837 0.0000
vn -0.3323 -0.9432 -0.0000
vn 0.5092 -0.8606 -0.0000
vn 0.6578 -0.7532 -0.0000
vn 0.6454 -0.7638 -0.0000
vn -0.7186 -0.6955 -0.0000
vn 0.3372 0.9414 -0.0000
vn -0.5007 -0.8656 -0.0000
vn -0.8656 0.5007 -0.0000
vn -0.7623 -0.3320 -0.5556
vn 0.3229 -0.7466 -0.5817
vn -0.5448 0.6029 -0.5828
vn 0.6059 0.5522 -0.5726
vn 0.7110 -0.1044 -0.6954
vn -0.6866 0.1066 -0.7192
vn 0.6962 -0.1863 -0.6933
vn -0.6660 0.1654 -0.7274
vn 0.0000 0.0000 -1.0000
vn 0.0000 -0.3973 -0.9177
vn 0.4424 -0.3382 -0.8306
vn -0.0832 0.7040 -0.7053
vn 0.0000 0.7071 -0.7071
vn 0.0000 0.3973 -0.9177
vn -0.0562 0.4027 -0.9136
vn 0.0701 0.7241 -0.6861
vn -0.0000 0.3973 -0.9177
vn -0.3718 -0.2783 -0.8856
vn -0.0562 -0.4027 -0.9136
vn 0.6459 0.0454 -0.7621
vn -0.7071 0.0000 -0.7071
vn 0.6148 0.3493 -0.7071
vn 0.6250 0.2704 -0.7323
vn -0.6599 -0.2541 -0.7071
vn -0.2898 -0.4221 -0.8590
vn 0.6243 0.5141 -0.5882
vn 0.2811 0.6911 -0.6659
vn 0.2811 -0.6911 -0.6659
vn 0.6703 -0.4324 -0.6031
vn -0.6407 -0.5429 -0.5429
vn -0.3578 -0.6859 -0.6336
vn -0.3578 0.6859 -0.6336
vn -0.6407 0.5429 -0.5429
vn -0.2968 -0.3910 -0.8712
vn 0.0000 -0.7071 -0.7071
vn 0.2986 -0.3802 -0.8754
vn 0.6504 -0.0129 -0.7595
vn -0.0000 -0.7071 -0.7071
vn 0.2982 0.3670 -0.8811
vn -0.0045 0.7071 -0.7071
vn -0.3030 0.3622 -0.8815
vn -0.6473 -0.0285 -0.7617
vn -0.5774 -0.5774 -0.5774
vn -0.0260 -0.3946 -0.9185
vn -0.0260 0.3947 -0.9184
vn -0.1178 -0.4157 -0.9019
vn -0.1178 0.4156 -0.9019
vn 0.6329 0.7199 -0.2849
vn 0.7974 -0.2627 -0.5433
vn 0.6277 -0.3093 -0.7144
vn 0.6276 0.3093 -0.7144
vn -0.6308 -0.7178 -0.2947
vn -0.6308 0.7178 -0.2947
vn -0.6297 0.2995 -0.7167
vn -0.6297 -0.2995 -0.7167
vn -0.3664 0.8824 -0.2953
vn 0.0002 0.7065 -0.7077
vn 0.0000 0.7065 -0.7077
vn 0.0000 0.7066 -0.7076
vn 0.3598 0.9094 -0.2086
vn 0.4215 0.6854 -0.5937
vn -0.0680 0.7033 -0.7076
vn 0.3022 0.2979 -0.9055
vn 0.0002 0.7066 -0.7077
vn -0.3017 0.2990 -0.9053
vn -0.2700 -0.3002 -0.9149
vn -0.0680 0.7032 -0.7077
vn 0.0681 -0.7044 -0.7065
vn 0.3327 -0.3060 -0.8920
vn -0.5999 0.5474 -0.5835
vn 0.7830 -0.2383 -0.5746
vn -0.2965 -0.7644 -0.5725
vn 0.5637 -0.7680 -0.3040
vn 0.5638 0.7680 -0.3039
vn 0.5593 0.3293 -0.7607
vn 0.5593 -0.3293 -0.7607
vn 0.7089 -0.6571 -0.2564
vn -0.7089 -0.6571 -0.2564
vn 0.7187 0.2793 -0.6367
vn 0.7089 0.6571 -0.2564
vn -0.7089 0.6571 -0.2564
vn -0.7187 0.2793 -0.6367
vn 0.7187 -0.2793 -0.6367
vn -0.7187 -0.2793 -0.6367
vn -0.0000 0.9298 -0.3680
vn -0.5638 0.7680 -0.3039
vn -0.5593 0.3293 -0.7607
vn -0.5593 -0.3293 -0.7607
vn 0.0000 -0.4788 -0.8779
vn -0.7238 -0.4129 -0.5529
vn 0.4243 -0.7325 -0.5324
vn -0.2520 -0.6990 -0.6692
vn -0.6447 -0.5924 -0.4832
vn 0.7373 0.6305 -0.2425
vn 0.7374 -0.6305 -0.2425
vn 0.6853 -0.2880 -0.6689
vn 0.6853 0.2880 -0.6689
vn 0.5773 0.7558 -0.3090
vn 0.5773 -0.7558 -0.3090
vn 0.5748 -0.3178 -0.7541
vn 0.5748 0.3178 -0.7541
vn -0.6435 0.7079 -0.2913
vn -0.6435 -0.7079 -0.2913
vn -0.6415 -0.2952 -0.7081
vn -0.6415 0.2952 -0.7081
vn -0.6663 0.4971 -0.5557
vn -0.8034 -0.5509 -0.2262
vn -0.8050 -0.2287 -0.5474
vn -0.8050 0.2287 -0.5474
vn 0.3874 -0.8531 -0.3494
vn -0.3874 -0.8531 -0.3494
vn 0.3881 -0.3561 -0.8501
vn -0.3881 -0.3561 -0.8501
vn 0.3881 0.3561 -0.8501
vn -0.3881 0.3561 -0.8501
vn 0.3874 0.8531 -0.3494
vn -0.3874 0.8531 -0.3494
vn 0.3927 0.6876 -0.6107
vn -0.5774 0.5774 -0.5774
vn 0.3296 -0.8734 -0.3586
vn 0.3292 -0.3641 -0.8712
vn -0.3296 -0.8734 -0.3586
vn -0.3292 -0.3641 -0.8712
vn 0.3292 0.3641 -0.8712
vn -0.3292 0.3641 -0.8712
vn 0.3295 0.8734 -0.3586
vn -0.5903 0.5203 -0.6171
vn 0.3015 0.3015 -0.9045
vn -0.2491 0.1441 -0.9577
vn -0.2726 -0.4712 -0.8388
vn 0.3015 -0.3015 -0.9045
vn -0.7509 -0.0331 -0.6596
vn -0.4868 -0.6413 -0.5931
vn -0.2859 0.9262 -0.2456
vn -0.2777 -0.9299 -0.2412
vn -0.5190 0.6204 -0.5880
vn -0.6456 -0.0081 -0.7636
# 344 vertex normals

vt 0.3001 0.2223 0.0000
vt 0.2954 0.2054 0.0000
vt 0.3805 0.1815 0.0000
vt 0.3862 0.2017 0.0000
vt 0.3140 0.3698 0.0000
vt 0.3144 0.3239 0.0000
vt 0.4028 0.3253 0.0000
vt 0.4017 0.3809 0.0000
vt 0.2933 0.3699 0.0000
vt 0.2934 0.3247 0.0000
vt 0.3104 0.2734 0.0000
vt 0.3985 0.2675 0.0000
vt 0.2896 0.2755 0.0000
vt 0.2828 0.2246 0.0000
vt 0.4237 0.3246 0.0000
vt 0.4229 0.3811 0.0000
vt 0.4192 0.2649 0.0000
vt 0.4070 0.1980 0.0000
vt 0.3991 0.4016 0.0000
vt 0.3114 0.3906 0.0000
vt 0.8094 0.8624 0.0000
vt 0.8099 0.8858 0.0000
vt 0.7754 0.8878 0.0000
vt 0.7751 0.8652 0.0000
vt 0.9188 0.8622 0.0000
vt 0.9160 0.8866 0.0000
vt 0.8439 0.8842 0.0000
vt 0.8442 0.8596 0.0000
vt 0.6910 0.9656 0.0000
vt 0.6892 0.9516 0.0000
vt 0.7777 0.9473 0.0000
vt 0.7783 0.9616 0.0000
vt 0.8445 0.9600 0.0000
vt 0.8113 0.9605 0.0000
vt 0.8109 0.9461 0.0000
vt 0.8441 0.9455 0.0000
vt 0.9162 0.9611 0.0000
vt 0.9162 0.9470 0.0000
vt 0.6849 0.8638 0.0000
vt 0.6860 0.8900 0.0000
vt 0.8523 0.8346 0.0000
vt 0.9138 0.8355 0.0000
vt 0.6884 0.8380 0.0000
vt 0.7759 0.8421 0.0000
vt 0.6653 0.8529 0.0000
vt 0.6686 0.8343 0.0000
vt 0.9439 0.7791 0.0000
vt 0.9614 0.7900 0.0000
vt 0.9378 0.8249 0.0000
vt 0.9189 0.8173 0.0000
vt 0.8885 0.7548 0.0000
vt 0.8641 0.8042 0.0000
vt 0.9469 0.9476 0.0000
vt 0.9468 0.9562 0.0000
vt 0.9462 0.8853 0.0000
vt 0.9462 0.8910 0.0000
vt 0.9373 0.8524 0.0000
vt 0.9600 0.8724 0.0000
vt 0.6623 0.8921 0.0000
vt 0.6675 0.8737 0.0000
vt 0.6723 0.9641 0.0000
vt 0.6666 0.9557 0.0000
vt 0.8122 0.8555 0.0000
vt 0.8392 0.8526 0.0000
vt 0.7824 0.8423 0.0000
vt 0.7860 0.8586 0.0000
vt 0.8206 0.8171 0.0000
vt 0.8160 0.8241 0.0000
vt 0.7883 0.8224 0.0000
vt 0.7775 0.8154 0.0000
vt 0.8464 0.8349 0.0000
vt 0.8419 0.8157 0.0000
vt 0.9340 0.8357 0.0000
vt 0.6898 0.8102 0.0000
vt 0.8437 0.9310 0.0000
vt 0.8104 0.9316 0.0000
vt 0.8098 0.9003 0.0000
vt 0.8436 0.8994 0.0000
vt 0.9157 0.9327 0.0000
vt 0.9157 0.9015 0.0000
vt 0.6871 0.9055 0.0000
vt 0.7758 0.9019 0.0000
vt 0.7769 0.9329 0.0000
vt 0.6887 0.9373 0.0000
vt 0.9463 0.9032 0.0000
vt 0.9466 0.9333 0.0000
vt 0.6686 0.9393 0.0000
vt 0.6669 0.9077 0.0000
vt 0.3513 0.9581 0.0000
vt 0.3408 0.9481 0.0000
vt 0.3410 0.9171 0.0000
vt 0.3516 0.9073 0.0000
vt 0.7190 0.6396 0.0000
vt 0.7250 0.6456 0.0000
vt 0.7251 0.6640 0.0000
vt 0.7192 0.6700 0.0000
vt 0.6907 0.9759 0.0000
vt 0.7787 0.9718 0.0000
vt 0.8116 0.9706 0.0000
vt 0.9171 0.9711 0.0000
vt 0.8446 0.9702 0.0000
vt 0.9499 0.9769 0.0000
vt 0.9189 0.9817 0.0000
vt 0.2486 0.2695 0.0000
vt 0.2483 0.2803 0.0000
vt 0.1950 0.2817 0.0000
vt 0.1951 0.2708 0.0000
vt 0.1925 0.2114 0.0000
vt 0.2669 0.2107 0.0000
vt 0.2772 0.2139 0.0000
vt 0.2590 0.2727 0.0000
vt 0.1234 0.2068 0.0000
vt 0.1233 0.2139 0.0000
vt 0.0406 0.2141 0.0000
vt 0.0374 0.2048 0.0000
vt 0.1568 0.2069 0.0000
vt 0.1531 0.2141 0.0000
vt 0.1873 0.2636 0.0000
vt 0.1855 0.2189 0.0000
vt 0.1249 0.2743 0.0000
vt 0.1248 0.2671 0.0000
vt 0.0365 0.2748 0.0000
vt 0.0429 0.2675 0.0000
vt 0.0107 0.2295 0.0000
vt 0.0204 0.2296 0.0000
vt 0.9691 0.7419 0.0000
vt 0.9864 0.7534 0.0000
vt 0.9103 0.7073 0.0000
vt 0.0150 0.8905 0.0000
vt 0.0439 0.8913 0.0000
vt 0.0442 0.9112 0.0000
vt 0.0151 0.9113 0.0000
vt 0.0191 0.9557 0.0000
vt 0.0481 0.9516 0.0000
vt 0.0498 0.9636 0.0000
vt 0.0213 0.9696 0.0000
vt 0.0159 0.9253 0.0000
vt 0.0452 0.9231 0.0000
vt 0.0492 0.8928 0.0000
vt 0.0885 0.8895 0.0000
vt 0.0958 0.9060 0.0000
vt 0.0510 0.9118 0.0000
vt 0.0551 0.9504 0.0000
vt 0.0990 0.9448 0.0000
vt 0.0997 0.9563 0.0000
vt 0.0562 0.9617 0.0000
vt 0.0523 0.9226 0.0000
vt 0.0972 0.9166 0.0000
vt 0.2233 0.9605 0.0000
vt 0.2229 0.9814 0.0000
vt 0.1058 0.9767 0.0000
vt 0.1060 0.9567 0.0000
vt 0.2232 0.9461 0.0000
vt 0.1056 0.9444 0.0000
vt 0.2232 0.9151 0.0000
vt 0.1050 0.9151 0.0000
vt 0.2233 0.9008 0.0000
vt 0.1045 0.9011 0.0000
vt 0.3411 0.9030 0.0000
vt 0.2245 0.8455 0.0000
vt 0.3441 0.7836 0.0000
vt 0.0880 0.8891 0.0000
vt 0.0985 0.8602 0.0000
vt 0.1070 0.8649 0.0000
vt 0.3408 0.9625 0.0000
vt 0.3405 0.9834 0.0000
vt 0.6576 0.9739 0.0000
vt 0.6374 0.9657 0.0000
vt 0.6430 0.9522 0.0000
vt 0.6441 0.9116 0.0000
vt 0.6400 0.9026 0.0000
vt 0.6455 0.9402 0.0000
vt 0.2587 0.5507 0.0000
vt 0.2579 0.5662 0.0000
vt 0.2394 0.5652 0.0000
vt 0.2405 0.5431 0.0000
vt 0.2587 0.4472 0.0000
vt 0.2590 0.4612 0.0000
vt 0.2412 0.4666 0.0000
vt 0.2405 0.4394 0.0000
vt 0.2574 0.5068 0.0000
vt 0.2412 0.5160 0.0000
vt 0.2574 0.4757 0.0000
vt 0.2587 0.5354 0.0000
vt 0.2590 0.5214 0.0000
vt 0.0248 0.5545 0.0000
vt 0.0258 0.5346 0.0000
vt 0.0263 0.4699 0.0000
vt 0.0258 0.4480 0.0000
vt 0.0263 0.5127 0.0000
vt 0.0033 0.5535 0.0000
vt 0.0037 0.5444 0.0000
vt 0.0032 0.4644 0.0000
vt 0.0030 0.4559 0.0000
vt 0.0059 0.5005 0.0000
vt 0.0059 0.4821 0.0000
vt 0.0029 0.5267 0.0000
vt 0.0031 0.5181 0.0000
vt 0.7964 0.6391 0.0000
vt 0.7968 0.6310 0.0000
vt 0.9163 0.6306 0.0000
vt 0.9168 0.6387 0.0000
vt 0.7964 0.6459 0.0000
vt 0.9169 0.6455 0.0000
vt 0.7966 0.6627 0.0000
vt 0.9171 0.6623 0.0000
vt 0.7966 0.6696 0.0000
vt 0.9171 0.6690 0.0000
vt 0.0850 0.6775 0.0000
vt 0.0907 0.6841 0.0000
vt 0.0703 0.6920 0.0000
vt 0.0713 0.6842 0.0000
vt 0.7251 0.6370 0.0000
vt 0.7253 0.6279 0.0000
vt 0.7918 0.6299 0.0000
vt 0.7912 0.6384 0.0000
vt 0.7911 0.6458 0.0000
vt 0.9880 0.6345 0.0000
vt 0.9884 0.6431 0.0000
vt 0.9222 0.6453 0.0000
vt 0.9220 0.6378 0.0000
vt 0.7913 0.6629 0.0000
vt 0.9888 0.6615 0.0000
vt 0.9225 0.6624 0.0000
vt 0.7253 0.6726 0.0000
vt 0.7914 0.6703 0.0000
vt 0.9888 0.6701 0.0000
vt 0.9225 0.6700 0.0000
vt 0.9211 0.6781 0.0000
vt 0.9165 0.6769 0.0000
vt 0.1419 0.6053 0.0000
vt 0.1342 0.6004 0.0000
vt 0.0083 0.6382 0.0000
vt 0.0223 0.5748 0.0000
vt 0.0311 0.5940 0.0000
vt 0.0227 0.6372 0.0000
vt 0.0830 0.6604 0.0000
vt 0.1163 0.6128 0.0000
vt 0.0662 0.6666 0.0000
vt 0.5484 0.2242 0.0000
vt 0.5435 0.2450 0.0000
vt 0.5312 0.2418 0.0000
vt 0.5365 0.2228 0.0000
vt 0.4911 0.1618 0.0000
vt 0.5109 0.1826 0.0000
vt 0.5049 0.1936 0.0000
vt 0.4828 0.1699 0.0000
vt 0.4654 0.2839 0.0000
vt 0.4458 0.2987 0.0000
vt 0.4383 0.2889 0.0000
vt 0.4580 0.2741 0.0000
vt 0.5321 0.2533 0.0000
vt 0.5040 0.2543 0.0000
vt 0.5000 0.2425 0.0000
vt 0.5486 0.1996 0.0000
vt 0.5360 0.1998 0.0000
vt 0.4816 0.2713 0.0000
vt 0.4745 0.2617 0.0000
vt 0.4675 0.2524 0.0000
vt 0.4903 0.2358 0.0000
vt 0.5389 0.1885 0.0000
vt 0.4962 0.2174 0.0000
vt 0.5074 0.2185 0.0000
vt 0.4941 0.1983 0.0000
vt 0.1008 0.9756 0.0000
vt 0.7779 0.7948 0.0000
vt 0.8176 0.7970 0.0000
vt 0.0057 0.9114 0.0000
vt 0.0057 0.8904 0.0000
vt 0.6670 0.9801 0.0000
vt 0.9209 0.6891 0.0000
vt 0.9798 0.7238 0.0000
vt 0.0131 0.9713 0.0000
vt 0.0257 0.9900 0.0000
vt 0.0175 0.9918 0.0000
vt 0.6463 0.8805 0.0000
vt 0.6539 0.8651 0.0000
vt 0.8520 0.7887 0.0000
vt 0.8705 0.7456 0.0000
vt 0.4745 0.1774 0.0000
vt 0.4312 0.2794 0.0000
vt 0.4508 0.2646 0.0000
vt 0.6698 0.8081 0.0000
vt 0.3726 0.9074 0.0000
vt 0.3723 0.9582 0.0000
vt 0.7102 0.6701 0.0000
vt 0.7100 0.6396 0.0000
vt 0.6876 0.9866 0.0000
vt 0.1250 0.2852 0.0000
vt 0.0366 0.2856 0.0000
vt 0.0029 0.2219 0.0000
vt 0.0305 0.1965 0.0000
vt 0.0440 0.2243 0.0000
vt 0.0264 0.2378 0.0000
vt 0.0429 0.2567 0.0000
vt 0.1247 0.2562 0.0000
vt 0.1818 0.2585 0.0000
vt 0.1801 0.2246 0.0000
vt 0.1531 0.2249 0.0000
vt 0.1232 0.2246 0.0000
vt 0.8914 0.6986 0.0000
vt 0.0539 0.9832 0.0000
vt 0.0592 0.9808 0.0000
vt 0.1045 0.8543 0.0000
vt 0.2213 0.8351 0.0000
vt 0.3621 0.9018 0.0000
vt 0.3550 0.7829 0.0000
vt 0.3394 0.7738 0.0000
vt 0.6305 0.8931 0.0000
vt 0.2588 0.4319 0.0000
vt 0.2395 0.4173 0.0000
vt 0.2580 0.4164 0.0000
vt 0.0248 0.4280 0.0000
vt 0.0037 0.4381 0.0000
vt 0.0033 0.4291 0.0000
vt 0.7970 0.6776 0.0000
vt 0.7921 0.6788 0.0000
vt 0.7257 0.6816 0.0000
vt 0.9212 0.6293 0.0000
vt 0.9875 0.6255 0.0000
vt 0.0029 0.6457 0.0000
vt 0.0675 0.6585 0.0000
vt 0.0775 0.6538 0.0000
vt 0.1089 0.6078 0.0000
vt 0.0397 0.5956 0.0000
vt 0.0295 0.6344 0.0000
vt 0.6904 0.7894 0.0000
vt 0.5167 0.8978 0.0000
vt 0.5519 0.8978 0.0000
vt 0.5519 0.9246 0.0000
vt 0.5167 0.9246 0.0000
vt 0.3856 0.8978 0.0000
vt 0.4606 0.8978 0.0000
vt 0.4606 0.9246 0.0000
vt 0.3856 0.9246 0.0000
vt 0.6259 0.8978 0.0000
vt 0.6259 0.9246 0.0000
vt 0.4606 0.9727 0.0000
vt 0.4606 0.9471 0.0000
vt 0.5167 0.9471 0.0000
vt 0.5167 0.9727 0.0000
vt 0.3856 0.9727 0.0000
vt 0.3856 0.9471 0.0000
vt 0.6259 0.9471 0.0000
vt 0.6259 0.9727 0.0000
vt 0.5519 0.9727 0.0000
vt 0.5519 0.9471 0.0000
vt 0.4606 0.9948 0.0000
vt 0.3856 0.9948 0.0000
vt 0.5167 0.9948 0.0000
vt 0.6259 0.9948 0.0000
vt 0.5519 0.9948 0.0000
# 352 texture coords

o weap_rifle
g weap_rifle
usemtl 02___Default
f 1/1/1 2/2/2 3/3/3 4/4/4 
f 5/5/5 6/6/6 7/7/7 8/8/8 
f 9/9/9 10/10/10 6/6/6 5/5/5 
f 6/6/6 11/11/11 12/12/12 7/7/7 
f 10/10/10 13/13/13 11/11/11 6/6/6 
f 11/11/11 1/1/1 4/4/4 12/12/12 
f 13/13/13 2/14/2 1/1/1 11/11/11 
f 8/8/8 7/7/7 14/15/14 15/16/15 
f 7/7/7 12/12/12 16/17/16 14/15/14 
f 12/12/12 4/4/4 3/18/3 16/17/16 
f 5/5/5 8/8/8 15/19/15 9/20/9 
f 17/21/17 18/22/18 19/23/18 20/24/17 
f 21/25/19 22/26/18 23/27/18 24/28/17 
f 25/29/20 26/30/21 27/31/22 28/32/23 
f 29/33/23 30/34/23 31/35/22 32/36/22 
f 33/37/24 29/33/23 32/36/22 34/38/25 
f 35/39/26 20/24/17 19/23/18 36/40/27 
f 21/25/19 24/28/17 37/41/17 38/42/28 
f 35/39/26 39/43/29 40/44/17 20/24/17 
f 41/45/30 42/46/31 39/43/29 35/39/26 
f 43/47/32 44/48/33 45/49/34 46/50/35 
f 47/51/36 43/47/32 46/50/35 48/52/37 
f 34/38/25 49/53/38 50/54/39 33/37/24 
f 22/26/18 21/25/19 51/55/40 52/56/41 
f 53/57/42 54/58/43 51/55/40 21/25/19 
f 36/40/27 55/59/44 56/60/45 35/39/26 
f 26/30/21 25/29/20 57/61/46 58/62/47 
f 17/21/17 59/63/48 60/64/49 24/28/17 
f 40/44/17 61/65/50 62/66/51 20/24/17 
f 63/67/48 64/68/52 65/69/53 66/70/54 
f 37/41/17 67/71/55 68/72/56 48/52/37 
f 46/50/35 45/49/34 69/73/57 38/42/28 
f 48/52/37 46/50/35 38/42/28 37/41/17 
f 70/74/58 66/70/54 40/44/17 39/43/29 
f 40/44/17 66/70/54 65/69/53 61/65/50 
f 37/41/17 24/28/17 60/64/49 67/71/55 
f 71/75/22 72/76/22 73/77/18 74/78/18 
f 75/79/25 71/75/22 74/78/18 76/80/18 
f 77/81/59 78/82/18 79/83/22 80/84/60 
f 76/80/18 81/85/18 82/86/25 75/79/25 
f 80/84/60 83/87/61 84/88/62 77/81/59 
f 19/23/18 18/22/18 73/77/18 78/82/18 
f 22/26/18 76/80/18 74/78/18 23/27/18 
f 52/56/41 81/85/18 76/80/18 22/26/18 
f 85/89/63 86/90/64 87/91/65 88/92/66 
f 34/38/25 75/79/25 82/86/25 49/53/38 
f 32/36/22 71/75/22 75/79/25 34/38/25 
f 31/35/22 72/76/22 71/75/22 32/36/22 
f 26/30/21 80/84/60 79/83/22 27/31/22 
f 26/30/21 58/62/47 83/87/61 80/84/60 
f 89/93/67 90/94/68 91/95/69 92/96/70 
f 36/40/27 77/81/59 84/88/62 55/59/44 
f 19/23/18 78/82/18 77/81/59 36/40/27 
f 57/61/46 25/29/20 93/97/71 
f 28/32/23 94/98/72 93/97/71 25/29/20 
f 30/34/23 95/99/73 94/98/72 28/32/23 
f 33/37/24 96/100/74 97/101/75 29/33/23 
f 33/37/24 50/54/39 96/100/74 
f 98/102/76 99/103/77 96/100/74 50/54/39 
f 100/104/78 101/105/79 102/106/80 103/107/81 
f 97/108/75 96/109/74 100/104/78 103/107/81 
f 99/110/77 101/111/79 100/104/78 96/109/74 
f 94/112/72 104/113/82 105/114/83 93/115/71 
f 94/112/72 95/116/73 106/117/73 104/113/82 
f 97/108/75 103/107/81 107/118/84 108/119/85 
f 109/120/86 110/121/87 107/118/84 103/107/81 
f 109/120/86 111/122/88 112/123/89 110/121/87 
f 111/124/88 93/115/71 105/114/83 112/125/89 
f 113/126/90 114/127/91 44/48/33 43/47/32 
f 115/128/92 113/126/90 43/47/32 47/51/36 
f 116/129/93 117/130/94 118/131/95 52/132/41 
f 82/133/25 119/134/96 120/135/97 49/136/38 
f 81/137/18 121/138/98 119/134/96 82/133/25 
f 52/132/41 118/131/95 121/138/98 81/137/18 
f 122/139/94 123/140/99 124/141/100 125/142/101 
f 126/143/102 127/144/103 128/145/104 129/146/105 
f 130/147/106 131/148/107 127/144/103 126/143/102 
f 125/142/101 124/141/100 131/148/107 130/147/106 
f 132/149/108 133/150/109 134/151/110 135/152/111 
f 136/153/25 132/149/108 135/152/111 137/154/112 
f 138/155/18 136/153/25 137/154/112 139/156/113 
f 140/157/114 138/155/18 139/156/113 141/158/115 
f 88/159/66 140/157/114 142/160/116 143/161/117 
f 144/162/118 145/163/119 146/164/120 141/158/115 
f 85/165/63 147/166/121 133/150/109 132/149/108 
f 86/90/64 85/165/63 132/149/108 136/153/25 
f 87/91/65 86/90/64 136/153/25 138/155/18 
f 88/159/66 87/91/65 138/155/18 140/157/114 
f 140/157/114 141/158/115 146/164/120 142/160/116 
f 148/167/122 149/168/123 150/169/124 58/62/47 
f 55/59/44 84/88/62 151/170/125 152/171/126 
f 83/87/61 153/172/127 151/170/125 84/88/62 
f 58/62/47 150/169/124 153/172/127 83/87/61 
f 150/173/124 149/174/123 154/175/128 155/176/129 
f 152/177/126 151/178/125 156/179/130 157/180/131 
f 153/181/127 158/182/132 156/179/130 151/183/125 
f 150/184/124 155/176/129 158/182/132 153/185/127 
f 154/175/128 159/186/133 160/187/134 155/176/129 
f 156/179/130 161/188/135 162/189/136 157/180/131 
f 158/182/132 163/190/137 161/188/135 156/179/130 
f 155/176/129 160/187/134 163/190/137 158/182/132 
f 159/186/133 164/191/138 165/192/139 160/187/134 
f 161/188/135 166/193/140 167/194/141 162/189/136 
f 163/190/137 168/195/142 166/196/140 161/188/135 
f 163/190/137 160/187/134 165/197/139 168/198/142 
f 169/199/143 170/200/144 171/201/145 172/202/146 
f 173/203/147 169/199/143 172/202/146 174/204/148 
f 175/205/149 173/203/147 174/204/148 176/206/150 
f 177/207/151 175/205/149 176/206/150 178/208/152 
f 179/209/153 180/210/154 181/211/122 182/212/155 
f 89/213/67 183/214/156 184/215/144 185/216/157 
f 90/94/68 89/213/67 185/216/157 186/217/158 
f 167/218/141 166/219/140 187/220/159 188/221/160 
f 91/95/69 90/94/68 186/217/158 189/222/161 
f 166/219/140 168/223/142 190/224/162 187/220/159 
f 92/225/70 91/95/69 189/222/161 191/226/163 
f 168/223/142 165/227/139 192/228/164 190/224/162 
f 189/222/161 175/205/149 177/207/151 191/226/163 
f 186/217/158 173/203/147 175/205/149 189/222/161 
f 185/216/157 169/199/143 173/203/147 186/217/158 
f 184/215/144 170/200/144 169/199/143 185/216/157 
f 193/229/165 194/230/166 178/208/152 192/228/164 
f 187/220/159 174/204/148 172/202/146 188/221/160 
f 190/224/162 176/206/150 174/204/148 187/220/159 
f 192/228/164 178/208/152 176/206/150 190/224/162 
f 164/231/138 180/210/154 179/209/153 165/232/139 
f 192/233/164 165/234/139 195/235/167 196/236/168 
f 179/209/153 197/237/169 195/238/167 165/232/139 
f 179/209/153 182/212/155 198/239/170 197/237/169 
f 192/233/164 196/236/168 198/239/170 182/212/155 
f 67/240/55 60/241/49 199/242/171 200/243/172 
f 65/244/53 64/245/52 201/246/173 202/247/174 
f 61/248/50 65/249/53 202/250/174 203/251/175 
f 60/252/49 59/253/48 204/254/176 199/242/171 
f 68/255/56 67/240/55 200/243/172 205/256/177 
f 62/257/51 61/248/50 203/251/175 206/258/178 
f 24/28/17 23/27/18 18/22/18 17/21/17 
f 28/32/23 27/31/22 31/35/22 30/34/23 
f 17/21/17 20/24/17 62/66/51 59/63/48 
f 63/67/48 48/52/37 68/72/56 64/68/52 
f 206/258/178 207/259/178 208/260/179 204/254/176 
f 79/83/22 78/82/18 73/77/18 72/76/22 
f 18/22/18 23/27/18 74/78/18 73/77/18 
f 27/31/22 79/83/22 72/76/22 31/35/22 
f 29/33/23 97/101/75 95/99/73 30/34/23 
f 95/116/73 97/108/75 108/119/85 106/117/73 
f 68/261/56 205/256/177 201/246/173 64/245/52 
f 62/257/51 206/258/178 204/254/176 59/253/48 
f 208/260/179 209/262/180 210/263/181 204/254/176 
f 209/262/180 211/264/182 201/246/173 210/263/181 
f 199/242/171 204/254/176 210/263/181 200/243/172 
f 210/263/181 201/246/173 205/256/177 200/243/172 
f 117/130/94 122/139/94 125/142/101 118/131/95 
f 120/135/97 119/134/96 126/143/102 129/146/105 
f 121/138/98 130/147/106 126/143/102 119/134/96 
f 118/131/95 125/142/101 130/147/106 121/138/98 
f 141/158/115 139/156/113 131/148/107 124/141/100 
f 137/154/112 127/144/103 131/148/107 139/156/113 
f 135/152/111 128/145/104 127/144/103 137/154/112 
f 134/151/110 212/265/110 128/145/104 135/152/111 
f 63/67/48 66/70/54 213/266/183 214/267/183 
f 52/132/41 51/268/40 54/269/43 116/129/93 
f 58/62/47 57/61/46 215/270/184 148/167/122 
f 113/126/90 115/128/92 216/271/185 114/272/91 
f 50/273/39 49/136/38 217/274/186 98/275/76 
f 56/60/45 55/59/44 218/276/156 219/277/30 
f 21/25/19 38/42/28 69/73/57 53/57/42 
f 47/51/36 48/52/37 220/278/187 221/279/188 
f 41/45/30 35/39/26 56/60/45 219/277/30 
f 202/247/174 201/246/173 211/264/182 222/280/174 
f 203/251/175 202/250/174 222/281/174 223/282/175 
f 70/74/58 39/43/29 42/46/31 224/283/156 
f 206/258/178 203/251/175 223/282/175 207/259/178 
f 85/89/63 88/92/66 225/284/189 147/285/121 
f 89/93/67 92/96/70 226/286/122 183/287/156 
f 215/270/184 57/61/46 93/97/71 227/288/190 
f 109/120/86 103/107/81 102/106/80 228/289/80 
f 111/122/88 109/120/86 228/289/80 229/290/191 
f 93/115/71 111/124/88 229/291/191 227/292/190 
f 112/125/89 105/114/83 230/293/192 231/294/193 
f 110/121/87 112/123/89 231/295/193 232/296/194 
f 107/118/84 110/121/87 232/296/194 233/297/195 
f 108/119/85 107/118/84 233/297/195 234/298/196 
f 106/117/73 108/119/85 234/298/196 235/299/197 
f 105/114/83 104/113/82 236/300/198 230/293/192 
f 115/128/92 47/51/36 221/279/188 216/301/185 
f 49/136/38 120/135/97 237/302/199 217/274/186 
f 129/146/105 128/145/104 212/265/110 238/303/199 
f 142/160/116 146/164/120 145/304/119 239/305/200 
f 225/306/189 88/159/66 143/161/117 240/307/201 
f 143/161/117 142/160/116 239/305/200 240/308/201 
f 218/276/156 55/59/44 152/171/126 241/309/202 
f 152/310/126 157/180/131 242/311/203 241/312/202 
f 157/180/131 162/189/136 243/313/204 242/311/203 
f 243/313/204 162/189/136 167/314/141 244/315/156 
f 177/207/151 178/208/152 194/230/166 245/316/205 
f 92/225/70 191/226/163 246/317/205 226/318/122 
f 167/218/141 188/221/160 247/319/145 244/320/156 
f 246/317/205 191/226/163 177/207/151 245/316/205 
f 247/319/145 188/221/160 172/202/146 171/201/145 
f 192/233/164 182/212/155 181/211/122 193/321/165 
f 197/237/169 198/239/170 248/322/93 249/323/206 
f 195/238/167 197/237/169 249/323/206 250/324/207 
f 196/236/168 195/235/167 250/325/207 251/326/121 
f 198/239/170 196/236/168 251/326/121 248/322/93 
f 48/52/37 63/67/48 214/267/183 220/278/187 
f 104/113/82 106/117/73 235/299/197 236/300/198 
f 237/302/199 120/135/97 129/146/105 238/303/199 
f 144/162/118 141/158/115 124/141/100 123/140/99 
f 224/327/156 213/266/183 66/70/54 70/74/58 
f 252/1/208 253/4/209 3/3/3 2/2/2 
f 254/5/210 255/8/211 256/7/212 257/6/213 
f 9/9/9 254/5/210 257/6/213 10/10/10 
f 257/6/213 256/7/212 258/12/214 259/11/215 
f 10/10/10 257/6/213 259/11/215 13/13/13 
f 259/11/215 258/12/214 253/4/209 252/1/208 
f 13/13/13 259/11/215 252/1/208 2/14/2 
f 255/8/211 15/16/15 14/15/14 256/7/212 
f 256/7/212 14/15/14 16/17/16 258/12/214 
f 258/12/214 16/17/16 3/18/3 253/4/209 
f 254/5/210 9/20/9 15/19/15 255/8/211 
f 260/328/216 261/329/216 262/330/217 263/331/217 
f 264/332/218 265/333/216 266/334/217 267/335/217 
f 268/29/219 269/32/220 270/31/221 271/30/222 
f 272/33/220 273/36/221 274/35/221 275/34/220 
f 276/37/223 277/38/224 273/36/221 272/33/220 
f 278/336/225 279/337/226 262/330/217 261/329/216 
f 264/25/218 280/42/227 281/41/216 265/28/216 
f 278/39/225 261/24/216 282/44/216 283/43/228 
f 41/45/30 278/39/225 283/43/228 42/46/31 
f 284/47/229 285/50/230 45/49/34 44/48/33 
f 286/51/231 287/52/232 285/50/230 284/47/229 
f 277/38/224 276/37/223 288/54/233 289/53/234 
f 267/26/217 290/56/235 291/55/236 264/25/218 
f 53/57/42 264/25/218 291/55/236 54/58/43 
f 279/40/226 278/39/225 292/60/237 293/59/238 
f 271/30/222 294/62/239 295/61/240 268/29/219 
f 260/21/216 265/28/216 296/64/241 297/63/242 
f 282/44/216 261/24/216 298/66/243 299/65/244 
f 300/67/242 301/70/245 302/69/246 303/68/247 
f 281/41/216 287/52/232 304/72/248 305/71/249 
f 285/50/230 280/42/227 69/73/57 45/49/34 
f 287/52/232 281/41/216 280/42/227 285/50/230 
f 306/74/250 283/43/228 282/44/216 301/70/245 
f 282/44/216 299/65/244 302/69/246 301/70/245 
f 281/41/216 305/71/249 296/64/241 265/28/216 
f 307/338/221 308/339/217 309/340/217 310/341/221 
f 311/342/224 312/343/217 308/339/217 307/338/221 
f 313/344/251 314/345/252 315/346/221 316/347/217 
f 312/80/217 311/79/224 317/86/224 318/85/217 
f 314/84/252 313/81/251 319/88/253 320/87/254 
f 262/330/217 316/347/217 309/340/217 263/331/217 
f 267/335/217 266/334/217 308/339/217 312/343/217 
f 290/56/235 267/26/217 312/80/217 318/85/217 
f 321/89/255 322/92/256 323/91/257 324/90/258 
f 277/38/224 289/53/234 317/86/224 311/79/224 
f 273/348/221 277/349/224 311/342/224 307/338/221 
f 274/350/221 273/348/221 307/338/221 310/341/221 
f 271/351/222 270/352/221 315/346/221 314/345/252 
f 271/30/222 314/84/252 320/87/254 294/62/239 
f 325/93/259 326/96/260 327/95/261 328/94/262 
f 279/40/226 293/59/238 319/88/253 313/81/251 
f 262/330/217 279/337/226 313/344/251 316/347/217 
f 295/61/240 329/97/263 268/29/219 
f 269/32/220 268/29/219 329/97/263 330/98/264 
f 275/34/220 269/32/220 330/98/264 331/99/265 
f 276/37/223 272/33/220 332/101/266 333/100/267 
f 276/37/223 333/100/267 288/54/233 
f 98/102/76 288/54/233 333/100/267 99/103/77 
f 334/104/268 335/107/269 102/106/80 101/105/79 
f 332/108/266 335/107/269 334/104/268 333/109/267 
f 99/110/77 333/109/267 334/104/268 101/111/79 
f 330/112/264 329/115/263 336/114/270 337/113/271 
f 330/112/264 337/113/271 338/117/265 331/116/265 
f 332/108/266 339/119/272 340/118/273 335/107/269 
f 341/120/274 335/107/269 340/118/273 342/121/275 
f 341/120/274 342/121/275 343/123/276 344/122/277 
f 344/124/277 343/125/276 336/114/270 329/115/263 
f 345/126/278 284/47/229 44/48/33 114/127/91 
f 346/128/279 286/51/231 284/47/229 345/126/278 
f 116/129/93 290/132/235 347/131/280 117/130/94 
f 317/133/224 289/136/234 348/135/281 349/134/282 
f 318/137/217 317/133/224 349/134/282 350/138/283 
f 290/132/235 318/137/217 350/138/283 347/131/280 
f 122/139/94 351/142/284 352/141/285 123/140/99 
f 353/143/286 354/146/287 355/145/288 356/144/289 
f 357/147/290 353/143/286 356/144/289 358/148/291 
f 351/142/284 357/147/290 358/148/291 352/141/285 
f 359/149/292 360/152/293 134/151/110 133/150/109 
f 361/153/224 362/154/294 360/152/293 359/149/292 
f 363/155/217 364/156/295 362/154/294 361/153/224 
f 365/157/296 366/158/297 364/156/295 363/155/217 
f 322/159/256 367/161/298 368/160/299 365/157/296 
f 144/162/118 366/158/297 369/164/300 145/163/119 
f 321/165/255 359/149/292 133/150/109 147/166/121 
f 324/90/258 361/153/224 359/149/292 321/165/255 
f 323/91/257 363/155/217 361/153/224 324/90/258 
f 322/159/256 365/157/296 363/155/217 323/91/257 
f 365/157/296 368/160/299 369/164/300 366/158/297 
f 148/167/122 294/62/239 370/169/301 149/168/123 
f 293/59/238 371/171/302 372/170/303 319/88/253 
f 320/87/254 319/88/253 372/170/303 373/172/304 
f 294/62/239 320/87/254 373/172/304 370/169/301 
f 370/173/301 374/176/305 154/175/128 149/174/123 
f 371/177/302 375/180/306 376/179/307 372/178/303 
f 373/181/304 372/183/303 376/179/307 377/182/308 
f 370/184/301 373/185/304 377/182/308 374/176/305 
f 154/175/128 374/176/305 378/187/309 159/186/133 
f 376/179/307 375/180/306 379/189/310 380/188/311 
f 377/182/308 376/179/307 380/188/311 381/190/312 
f 374/176/305 377/182/308 381/190/312 378/187/309 
f 159/186/133 378/187/309 382/192/313 164/191/138 
f 380/188/311 379/189/310 383/194/314 384/193/315 
f 381/190/312 380/188/311 384/196/315 385/195/316 
f 381/190/312 385/198/316 382/197/313 378/187/309 
f 386/199/317 387/202/318 171/201/145 170/200/144 
f 388/203/319 389/204/320 387/202/318 386/199/317 
f 390/205/321 391/206/322 389/204/320 388/203/319 
f 392/207/323 393/208/324 391/206/322 390/205/321 
f 394/209/325 395/212/326 181/211/122 180/210/154 
f 325/213/259 396/216/327 184/215/144 183/214/156 
f 328/94/262 397/217/328 396/216/327 325/213/259 
f 383/218/314 398/221/329 399/220/330 384/219/315 
f 327/95/261 400/222/331 397/217/328 328/94/262 
f 384/219/315 399/220/330 401/224/332 385/223/316 
f 326/225/260 402/226/333 400/222/331 327/95/261 
f 385/223/316 401/224/332 403/228/334 382/227/313 
f 400/222/331 402/226/333 392/207/323 390/205/321 
f 397/217/328 400/222/331 390/205/321 388/203/319 
f 396/216/327 397/217/328 388/203/319 386/199/317 
f 184/215/144 396/216/327 386/199/317 170/200/144 
f 193/229/165 403/228/334 393/208/324 194/230/166 
f 399/220/330 398/221/329 387/202/318 389/204/320 
f 401/224/332 399/220/330 389/204/320 391/206/322 
f 403/228/334 401/224/332 391/206/322 393/208/324 
f 164/231/138 382/232/313 394/209/325 180/210/154 
f 403/233/334 404/236/335 405/235/336 382/234/313 
f 394/209/325 382/232/313 405/238/336 406/237/337 
f 394/209/325 406/237/337 407/239/338 395/212/326 
f 403/233/334 395/212/326 407/239/338 404/236/335 
f 305/240/249 408/243/339 409/242/340 296/241/241 
f 302/244/246 410/247/174 411/246/341 303/245/247 
f 299/248/244 412/251/175 410/250/174 302/249/246 
f 296/252/241 409/242/340 413/254/342 297/253/242 
f 304/255/248 414/256/343 408/243/339 305/240/249 
f 298/257/243 415/258/178 412/251/175 299/248/244 
f 265/333/216 260/328/216 263/331/217 266/334/217 
f 269/32/220 275/34/220 274/35/221 270/31/221 
f 260/21/216 297/63/242 298/66/243 261/24/216 
f 300/67/242 303/68/247 304/72/248 287/52/232 
f 415/258/178 413/254/342 208/260/179 207/259/178 
f 315/346/221 310/341/221 309/340/217 316/347/217 
f 263/331/217 309/340/217 308/339/217 266/334/217 
f 270/352/221 274/350/221 310/341/221 315/346/221 
f 272/33/220 275/34/220 331/99/265 332/101/266 
f 331/116/265 338/117/265 339/119/272 332/108/266 
f 304/261/248 303/245/247 411/246/341 414/256/343 
f 298/257/243 297/253/242 413/254/342 415/258/178 
f 208/260/179 413/254/342 416/263/344 209/262/180 
f 209/262/180 416/263/344 411/246/341 211/264/182 
f 409/242/340 408/243/339 416/263/344 413/254/342 
f 416/263/344 408/243/339 414/256/343 411/246/341 
f 117/130/94 347/131/280 351/142/284 122/139/94 
f 348/135/281 354/146/287 353/143/286 349/134/282 
f 350/138/283 349/134/282 353/143/286 357/147/290 
f 347/131/280 350/138/283 357/147/290 351/142/284 
f 366/158/297 352/141/285 358/148/291 364/156/295 
f 362/154/294 364/156/295 358/148/291 356/144/289 
f 360/152/293 362/154/294 356/144/289 355/145/288 
f 134/151/110 360/152/293 355/145/288 212/265/110 
f 300/67/242 214/267/183 213/266/183 301/70/245 
f 290/132/235 116/129/93 54/269/43 291/268/236 
f 294/62/239 148/167/122 215/270/184 295/61/240 
f 345/126/278 114/272/91 216/271/185 346/128/279 
f 288/273/233 98/275/76 217/274/186 289/136/234 
f 292/60/237 219/277/30 218/276/156 293/59/238 
f 264/25/218 53/57/42 69/73/57 280/42/227 
f 286/51/231 221/279/188 220/278/187 287/52/232 
f 41/45/30 219/277/30 292/60/237 278/39/225 
f 410/247/174 222/280/174 211/264/182 411/246/341 
f 412/251/175 223/282/175 222/281/174 410/250/174 
f 306/74/250 224/283/156 42/46/31 283/43/228 
f 415/258/178 207/259/178 223/282/175 412/251/175 
f 321/89/255 147/285/121 225/284/189 322/92/256 
f 325/93/259 183/287/156 226/286/122 326/96/260 
f 215/270/184 227/288/190 329/97/263 295/61/240 
f 341/120/274 228/289/80 102/106/80 335/107/269 
f 344/122/277 229/290/191 228/289/80 341/120/274 
f 329/115/263 227/292/190 229/291/191 344/124/277 
f 343/125/276 231/294/193 230/293/192 336/114/270 
f 342/121/275 232/296/194 231/295/193 343/123/276 
f 340/118/273 233/297/195 232/296/194 342/121/275 
f 339/119/272 234/298/196 233/297/195 340/118/273 
f 338/117/265 235/299/197 234/298/196 339/119/272 
f 336/114/270 230/293/192 236/300/198 337/113/271 
f 346/128/279 216/301/185 221/279/188 286/51/231 
f 289/136/234 217/274/186 237/302/199 348/135/281 
f 354/146/287 238/303/199 212/265/110 355/145/288 
f 368/160/299 239/305/200 145/304/119 369/164/300 
f 225/306/189 240/307/201 367/161/298 322/159/256 
f 367/161/298 240/308/201 239/305/200 368/160/299 
f 218/276/156 241/309/202 371/171/302 293/59/238 
f 371/310/302 241/312/202 242/311/203 375/180/306 
f 375/180/306 242/311/203 243/313/204 379/189/310 
f 243/313/204 244/315/156 383/314/314 379/189/310 
f 392/207/323 245/316/205 194/230/166 393/208/324 
f 326/225/260 226/318/122 246/317/205 402/226/333 
f 383/218/314 244/320/156 247/319/145 398/221/329 
f 246/317/205 245/316/205 392/207/323 402/226/333 
f 247/319/145 171/201/145 387/202/318 398/221/329 
f 403/233/334 193/321/165 181/211/122 395/212/326 
f 406/237/337 249/323/206 248/322/93 407/239/338 
f 405/238/336 250/324/207 249/323/206 406/237/337 
f 404/236/335 251/326/121 250/325/207 405/235/336 
f 407/239/338 248/322/93 251/326/121 404/236/335 
f 287/52/232 220/278/187 214/267/183 300/67/242 
f 337/113/271 236/300/198 235/299/197 338/117/265 
f 237/302/199 238/303/199 354/146/287 348/135/281 
f 144/162/118 123/140/99 352/141/285 366/158/297 
f 224/327/156 306/74/250 301/70/245 213/266/183 
# 416 polygons - 4 triangles

