# 3ds Max Wavefront OBJ Exporter v0.97b - (c)2007 guruware
# File Created: 29.01.2021 16:21:04

#
# object weap_pistol
#

v  -29.4615 22.1843 5.7289
v  -29.4615 27.4502 7.5154
v  -43.2048 27.4502 7.5154
v  -43.2048 22.1843 5.7289
v  -0.8486 22.1843 5.7289
v  -0.8486 27.4502 7.5154
v  -15.2194 27.4502 7.5154
v  -15.2194 22.1843 5.7289
v  -62.3244 42.0840 7.5154
v  -62.3244 34.7671 7.5154
v  -43.2048 34.7671 7.5154
v  -43.2048 42.0840 7.5154
v  -62.3244 22.1843 5.7289
v  -62.3244 22.1843 0.0000
v  -43.2048 22.1843 0.0000
v  -0.8486 43.9108 5.6886
v  -0.8486 43.9108 0.0000
v  -15.2194 43.9108 0.0000
v  -15.2194 43.9108 5.6886
v  -15.2194 34.7671 7.5154
v  -29.4615 34.7671 7.5154
v  16.7158 34.7671 7.5154
v  11.9452 34.7671 7.5154
v  13.5223 27.4502 7.5154
v  18.3041 27.4502 7.5154
v  16.5799 22.1843 5.7289
v  13.5223 22.1843 5.7289
v  13.4709 43.9108 5.6886
v  13.4709 43.9108 0.0000
v  10.0226 43.9108 0.0000
v  10.0226 43.9108 5.6886
v  10.0226 42.0840 7.5154
v  -0.8486 42.0840 7.5154
v  -0.8486 34.7671 7.5154
v  -13.9733 4.8311 5.7289
v  -29.4615 4.8311 5.7289
v  -29.4615 4.8311 0.0000
v  -13.9733 4.8311 0.0000
v  18.3041 27.4502 0.0000
v  16.5799 22.1843 0.0000
v  -43.2048 43.9108 5.6886
v  -29.4615 43.9108 5.6886
v  -29.4615 43.9108 0.0000
v  -43.2048 43.9108 0.0000
v  -80.4058 43.9108 5.6886
v  -80.4058 43.9108 0.0000
v  -80.4058 42.0840 0.0000
v  -80.4058 42.0840 7.5154
v  17.1817 -26.3068 5.7289
v  2.8108 -26.3068 7.5963
v  2.8108 -26.3068 0.0000
v  17.1817 -26.3068 0.0000
v  -62.3244 43.9108 5.6886
v  -62.3244 43.9108 0.0000
v  14.8044 42.0840 7.5154
v  14.8044 42.0840 0.0000
v  13.5223 22.1843 0.0000
v  -2.3925 14.8649 7.5963
v  9.9179 14.9086 5.7289
v  9.9179 14.9086 0.0000
v  -0.6048 4.8311 7.5963
v  -14.7027 14.8213 5.7289
v  13.7221 4.8311 5.7289
v  13.7221 4.8311 0.0000
v  -11.5602 -26.3068 5.7289
v  1.8160 -8.9836 7.5963
v  -12.5549 -8.9836 5.7289
v  -11.5602 -26.3068 0.0000
v  -12.5549 -8.9836 0.0000
v  16.1868 -8.9836 0.0000
v  16.1868 -8.9836 5.7289
v  -42.3551 14.7341 0.0000
v  -42.3551 14.7341 5.7289
v  -43.2048 4.8311 0.0000
v  -43.2048 4.8311 5.7289
v  -29.4615 42.0840 7.5154
v  -80.4058 34.7671 7.5154
v  -80.4058 22.1843 5.7289
v  -80.4058 22.1843 0.0000
v  -29.4615 20.1437 5.7289
v  -19.0824 20.1437 5.7289
v  -38.6077 20.1437 5.7289
v  -40.3045 14.7628 5.7289
v  -39.1570 6.8716 5.7289
v  -29.4615 6.8717 5.7289
v  -18.4939 6.8716 5.7289
v  -16.7368 14.5885 5.7289
v  -15.2194 42.0840 7.5154
v  -62.3244 27.4502 7.5154
v  -80.4058 27.4502 7.5154
v  -80.4058 27.4502 0.0000
v  16.7158 34.7671 0.0000
v  -80.4058 38.6194 3.9973
v  -80.4058 34.7671 5.4748
v  -80.4058 40.0434 0.0000
v  -80.4058 30.9148 3.9973
v  -80.4058 29.4908 0.0000
v  -82.2557 38.6194 3.9973
v  -82.2557 34.7671 5.4748
v  -82.2557 40.0434 0.0000
v  -82.2557 30.9148 3.9973
v  -82.2557 29.4908 0.0000
v  -82.2557 34.7671 0.0000
v  -16.7368 14.5885 1.9096
v  -18.4939 6.8716 1.9096
v  -29.4615 6.8717 1.9096
v  -39.1570 6.8717 1.9096
v  -40.3045 14.7628 1.9096
v  -38.6077 20.1437 1.9096
v  -29.4615 20.1437 1.9096
v  -19.0824 20.1437 1.9096
v  -29.4615 20.1437 0.0000
v  -27.6335 14.5885 0.0000
v  -27.6335 14.5885 1.9096
v  -29.4615 6.8717 0.0000
v  -39.1570 6.8717 0.0000
v  -40.3045 14.7628 0.0000
v  -38.6077 20.1437 0.0000
v  -7.6764 -28.7735 4.5806
v  10.8809 -28.7735 4.5806
v  6.7170 22.8461 4.5806
v  -11.8403 22.8461 4.5806
v  -7.6764 -28.7735 0.0000
v  10.8809 -28.7735 0.0000
v  6.7170 22.8461 0.0000
v  -11.8403 22.8461 0.0000
v  -29.4615 22.1843 -5.7289
v  -43.2048 22.1843 -5.7289
v  -43.2048 27.4502 -7.5154
v  -29.4615 27.4502 -7.5154
v  -0.8486 22.1843 -5.7289
v  -15.2194 22.1843 -5.7289
v  -15.2194 27.4502 -7.5154
v  -0.8486 27.4502 -7.5154
v  -62.3244 42.0840 -7.5154
v  -43.2048 42.0840 -7.5154
v  -43.2048 34.7671 -7.5154
v  -62.3244 34.7671 -7.5154
v  -62.3244 22.1843 -5.7289
v  -15.2194 34.7671 -7.5154
v  -29.4615 34.7671 -7.5154
v  16.7158 34.7671 -7.5154
v  18.3041 27.4502 -7.5154
v  13.5223 27.4502 -7.5154
v  11.9452 34.7671 -7.5154
v  16.5799 22.1843 -5.7289
v  13.5223 22.1843 -5.7289
v  13.4709 43.9108 -5.6886
v  10.0226 43.9108 -5.6886
v  10.0226 42.0840 -7.5154
v  -0.8486 34.7671 -7.5154
v  -0.8486 42.0840 -7.5154
v  -13.9733 4.8311 -5.7289
v  -29.4615 4.8311 -5.7289
v  -43.2048 43.9108 -5.6886
v  -29.4615 43.9108 -5.6886
v  -80.4058 43.9108 -5.6886
v  -80.4058 42.0840 -7.5154
v  17.1817 -26.3068 -5.7289
v  2.8108 -26.3068 -7.5962
v  -62.3244 43.9108 -5.6886
v  14.8044 42.0840 -7.5154
v  9.9179 14.9086 -5.7289
v  -2.3925 14.8649 -7.5963
v  -14.7027 14.8213 -5.7289
v  -0.6048 4.8311 -7.5963
v  13.7221 4.8311 -5.7289
v  -11.5602 -26.3068 -5.7289
v  -12.5549 -8.9836 -5.7289
v  1.8160 -8.9836 -7.5963
v  16.1868 -8.9836 -5.7289
v  -42.3551 14.7341 -5.7289
v  -43.2048 4.8311 -5.7289
v  -29.4615 42.0840 -7.5154
v  -80.4058 34.7671 -7.5154
v  -80.4058 22.1843 -5.7289
v  -19.0824 20.1437 -5.7289
v  -29.4615 20.1437 -5.7289
v  -38.6077 20.1437 -5.7289
v  -40.3045 14.7628 -5.7289
v  -39.1570 6.8716 -5.7289
v  -29.4615 6.8717 -5.7289
v  -18.4939 6.8716 -5.7289
v  -16.7368 14.5885 -5.7289
v  -0.8486 43.9108 -5.6886
v  -80.4058 27.4502 -7.5154
v  -62.3244 27.4502 -7.5154
v  -80.4058 34.7671 -5.4748
v  -80.4058 38.6194 -3.9973
v  -80.4058 30.9148 -3.9973
v  -82.2557 34.7671 -5.4748
v  -82.2557 38.6194 -3.9973
v  -82.2557 30.9148 -3.9973
v  -18.4939 6.8716 -1.9096
v  -16.7368 14.5885 -1.9096
v  -29.4615 6.8717 -1.9096
v  -39.1570 6.8717 -1.9096
v  -40.3045 14.7628 -1.9096
v  -38.6077 20.1437 -1.9096
v  -29.4615 20.1437 -1.9096
v  -19.0824 20.1437 -1.9096
v  -27.6335 14.5885 -1.9096
v  -7.6764 -28.7735 -4.5805
v  -11.8403 22.8461 -4.5805
v  6.7170 22.8461 -4.5805
v  10.8809 -28.7735 -4.5805
v  -15.2194 43.9108 -5.6886
v  -15.2194 42.0840 -7.5154
# 208 vertices

vn 0.0000 -0.1628 0.9867
vn -0.2864 -0.5062 0.8135
vn 0.0000 -0.0386 0.9993
vn 0.0000 0.3827 0.9239
vn 0.0000 0.0000 1.0000
vn 0.0000 -0.8128 0.5825
vn 0.0000 -1.0000 -0.0000
vn -0.6658 -0.7461 -0.0000
vn 0.0000 0.9239 0.3827
vn 0.0000 1.0000 -0.0000
vn -0.0000 1.0000 -0.0000
vn -0.0000 0.9239 0.3827
vn 0.6922 0.1655 0.7024
vn -0.0000 -0.1628 0.9867
vn 0.7241 -0.1237 0.6786
vn 0.4791 -0.7384 0.4745
vn 0.2595 -0.6043 0.7533
vn 0.3689 0.8818 0.2938
vn 0.4530 0.8915 -0.0000
vn -0.3761 -0.3338 0.8644
vn 0.0000 -0.7071 0.7071
vn -0.6700 -0.7423 -0.0000
vn 0.9987 -0.0513 -0.0000
vn 0.5869 -0.8097 -0.0000
vn -0.6303 0.7173 0.2971
vn -0.7071 0.7071 -0.0000
vn -1.0000 0.0000 -0.0000
vn -0.6303 0.2971 0.7173
vn 0.6265 -0.5682 0.5335
vn 0.0035 -0.6791 0.7340
vn -0.0000 -1.0000 -0.0000
vn 0.7270 -0.6866 -0.0000
vn 0.5851 0.4431 0.6792
vn 0.9035 0.4287 -0.0000
vn 0.5273 -0.8497 -0.0000
vn -0.0180 0.1236 0.9922
vn 0.6642 -0.0353 0.7467
vn 0.9988 -0.0495 -0.0000
vn -0.0045 -0.0008 1.0000
vn -0.0751 -0.0054 0.9972
vn 0.7414 0.2029 0.6397
vn 0.9641 0.2655 -0.0000
vn -0.5922 -0.6002 0.5376
vn 0.0048 0.0011 1.0000
vn -0.7449 -0.0597 0.6645
vn -0.6865 -0.7271 -0.0000
vn -0.9968 -0.0798 -0.0000
vn 0.9932 0.1167 -0.0000
vn 0.7569 0.0886 0.6476
vn -0.9999 -0.0140 -0.0000
vn -0.6832 -0.0096 0.7302
vn -0.7367 -0.6762 -0.0000
vn -0.6038 -0.5542 0.5730
vn -0.0000 0.3827 0.9239
vn -0.7071 0.0000 0.7071
vn -0.5965 -0.6523 0.4675
vn -0.7071 -0.7071 -0.0000
vn -0.2868 -0.4324 0.8548
vn 0.2947 -0.4019 0.8669
vn 0.6467 -0.0522 0.7609
vn 0.3019 0.3490 0.8872
vn -0.0000 0.7071 0.7071
vn -0.2993 0.3752 0.8773
vn -0.6195 -0.0546 0.7831
vn -0.6722 -0.1205 0.7305
vn 0.9726 0.2325 -0.0000
vn -0.8143 0.4153 0.4055
vn -0.7973 0.0000 0.6036
vn -0.7910 0.6118 -0.0000
vn -0.8143 -0.4153 0.4055
vn -0.7910 -0.6118 -0.0000
vn -0.6240 0.5591 0.5459
vn -0.6347 0.0000 0.7728
vn -0.6388 0.7694 -0.0000
vn -0.6240 -0.5591 0.5459
vn -0.6388 -0.7694 -0.0000
vn -0.7619 -0.0671 0.6442
vn -0.5035 0.6311 0.5901
vn -0.2796 0.9284 0.2448
vn 0.6543 0.7563 0.0000
vn 0.9968 -0.0805 -0.0000
vn 0.5913 -0.8065 -0.0000
vn -0.2685 -0.9365 0.2255
vn -0.4416 -0.6659 0.6013
vn -0.5862 -0.8102 -0.0000
vn -0.9991 -0.0426 -0.0000
vn -0.6330 -0.0270 0.7737
vn -0.6203 0.7844 -0.0000
vn 0.6542 0.7563 -0.0000
vn -0.5516 -0.5978 0.5817
vn 0.6022 -0.5556 0.5732
vn 0.5516 0.5978 0.5817
vn -0.6022 0.5556 0.5732
vn -0.6781 -0.7350 -0.0000
vn 0.7350 -0.6781 -0.0000
vn 0.6781 0.7350 -0.0000
vn -0.7350 0.6781 -0.0000
vn 0.0000 -0.1628 -0.9867
vn -0.2864 -0.5062 -0.8135
vn 0.0000 -0.0386 -0.9993
vn 0.0000 0.3827 -0.9239
vn -0.0000 0.3827 -0.9239
vn -0.0000 0.0000 -1.0000
vn 0.0000 0.0000 -1.0000
vn 0.0000 -0.8128 -0.5825
vn 0.0000 -0.0000 -1.0000
vn -0.0000 -0.0000 -1.0000
vn 0.6922 0.1655 -0.7024
vn 0.7241 -0.1237 -0.6786
vn -0.0000 -0.1628 -0.9867
vn 0.4791 -0.7384 -0.4745
vn 0.2595 -0.6043 -0.7533
vn 0.3689 0.8818 -0.2938
vn 0.0000 0.9239 -0.3827
vn -0.3761 -0.3338 -0.8644
vn 0.0000 -0.7071 -0.7071
vn -0.0000 0.9239 -0.3827
vn -0.6303 0.7173 -0.2971
vn -0.6303 0.2971 -0.7173
vn 0.6265 -0.5682 -0.5335
vn 0.0035 -0.6791 -0.7340
vn 0.5851 0.4431 -0.6792
vn 0.6642 -0.0353 -0.7467
vn -0.0180 0.1236 -0.9922
vn -0.0751 -0.0054 -0.9972
vn -0.0045 -0.0008 -1.0000
vn 0.7414 0.2029 -0.6397
vn -0.5922 -0.6002 -0.5376
vn -0.7449 -0.0597 -0.6645
vn 0.0048 0.0011 -1.0000
vn 0.7569 0.0886 -0.6476
vn -0.6832 -0.0096 -0.7302
vn -0.6038 -0.5542 -0.5730
vn -0.7071 0.0000 -0.7071
vn -0.5965 -0.6523 -0.4675
vn -0.2868 -0.4324 -0.8548
vn 0.2947 -0.4019 -0.8669
vn 0.6467 -0.0522 -0.7609
vn 0.3019 0.3490 -0.8872
vn -0.0000 0.7071 -0.7071
vn -0.2993 0.3752 -0.8773
vn -0.6195 -0.0546 -0.7831
vn -0.6722 -0.1205 -0.7305
vn -0.7973 0.0000 -0.6036
vn -0.8143 0.4153 -0.4055
vn -0.8143 -0.4153 -0.4055
vn -0.6347 0.0000 -0.7728
vn -0.6240 0.5591 -0.5459
vn -0.6240 -0.5591 -0.5459
vn -0.5035 0.6311 -0.5901
vn -0.7619 -0.0671 -0.6442
vn -0.2796 0.9284 -0.2448
vn 0.6543 0.7563 -0.0000
vn -0.2685 -0.9365 -0.2255
vn -0.4416 -0.6659 -0.6013
vn -0.6330 -0.0270 -0.7737
vn -0.5516 -0.5978 -0.5817
vn -0.6022 0.5556 -0.5732
vn 0.5516 0.5978 -0.5817
vn 0.6022 -0.5556 -0.5732
vn -0.0000 0.9239 -0.3826
vn -0.0000 0.3826 -0.9239
# 162 vertex normals

vt 0.7746 0.5189 0.0000
vt 0.7743 0.5356 0.0000
vt 0.7331 0.5353 0.0000
vt 0.7332 0.5186 0.0000
vt 0.8610 0.5192 0.0000
vt 0.8599 0.5363 0.0000
vt 0.8171 0.5361 0.0000
vt 0.8176 0.5196 0.0000
vt 0.6755 0.5786 0.0000
vt 0.6757 0.5568 0.0000
vt 0.7329 0.5572 0.0000
vt 0.7327 0.5791 0.0000
vt 0.6758 0.5184 0.0000
vt 0.6758 0.5012 0.0000
vt 0.7331 0.5014 0.0000
vt 0.8595 0.5886 0.0000
vt 0.8594 0.6056 0.0000
vt 0.8162 0.6050 0.0000
vt 0.8164 0.5879 0.0000
vt 0.8166 0.5581 0.0000
vt 0.7740 0.5576 0.0000
vt 0.9107 0.5598 0.0000
vt 0.8968 0.5597 0.0000
vt 0.9018 0.5377 0.0000
vt 0.9136 0.5400 0.0000
vt 0.9125 0.5252 0.0000
vt 0.9050 0.5200 0.0000
vt 0.9042 0.5885 0.0000
vt 0.9030 0.6059 0.0000
vt 0.8924 0.6058 0.0000
vt 0.8924 0.5890 0.0000
vt 0.8915 0.5814 0.0000
vt 0.8592 0.5808 0.0000
vt 0.8593 0.5587 0.0000
vt 0.1200 0.3262 0.0000
vt 0.0760 0.3285 0.0000
vt 0.0752 0.3122 0.0000
vt 0.1192 0.3099 0.0000
vt 0.9344 0.5380 0.0000
vt 0.9280 0.5198 0.0000
vt 0.7325 0.5869 0.0000
vt 0.7737 0.5873 0.0000
vt 0.7735 0.6044 0.0000
vt 0.7323 0.6040 0.0000
vt 0.6204 0.5854 0.0000
vt 0.6028 0.5895 0.0000
vt 0.6012 0.5839 0.0000
vt 0.6222 0.5783 0.0000
vt 0.9060 0.3693 0.0000
vt 0.8633 0.3732 0.0000
vt 0.8619 0.3511 0.0000
vt 0.9059 0.3516 0.0000
vt 0.6752 0.5864 0.0000
vt 0.6748 0.6034 0.0000
vt 0.6206 0.6025 0.0000
vt 0.9049 0.5806 0.0000
vt 0.9255 0.5872 0.0000
vt 0.9224 0.5941 0.0000
vt 0.9216 0.5127 0.0000
vt 0.8566 0.4968 0.0000
vt 0.8952 0.4956 0.0000
vt 0.9129 0.4937 0.0000
vt 0.8192 0.4688 0.0000
vt 0.8595 0.4664 0.0000
vt 0.8191 0.4983 0.0000
vt 0.9021 0.4626 0.0000
vt 0.9185 0.4644 0.0000
vt 0.8205 0.3747 0.0000
vt 0.8635 0.4245 0.0000
vt 0.8203 0.4271 0.0000
vt 0.8034 0.3748 0.0000
vt 0.8031 0.4267 0.0000
vt 0.9233 0.3695 0.0000
vt 0.9235 0.4220 0.0000
vt 0.9065 0.4212 0.0000
vt 0.0231 0.3805 0.0000
vt 0.0227 0.3593 0.0000
vt 0.0391 0.3586 0.0000
vt 0.0393 0.3800 0.0000
vt 0.0207 0.3313 0.0000
vt 0.0369 0.3302 0.0000
vt 0.8021 0.4683 0.0000
vt 0.7738 0.5796 0.0000
vt 0.0361 0.3140 0.0000
vt 0.6212 0.5567 0.0000
vt 0.6214 0.5186 0.0000
vt 0.6215 0.5014 0.0000
vt 0.0781 0.3769 0.0000
vt 0.0778 0.3711 0.0000
vt 0.1074 0.3703 0.0000
vt 0.1186 0.3757 0.0000
vt 0.0517 0.3730 0.0000
vt 0.0450 0.3583 0.0000
vt 0.0485 0.3358 0.0000
vt 0.0762 0.3343 0.0000
vt 0.1074 0.3326 0.0000
vt 0.1194 0.3547 0.0000
vt 0.1135 0.3543 0.0000
vt 0.8163 0.5801 0.0000
vt 0.8183 0.3572 0.0000
vt 0.6758 0.5350 0.0000
vt 0.6220 0.5351 0.0000
vt 0.6005 0.5301 0.0000
vt 0.6044 0.5145 0.0000
vt 0.9328 0.5636 0.0000
vt 0.6105 0.5700 0.0000
vt 0.6148 0.5568 0.0000
vt 0.5994 0.5778 0.0000
vt 0.6104 0.5437 0.0000
vt 0.5991 0.5362 0.0000
vt 0.6064 0.5672 0.0000
vt 0.6098 0.5569 0.0000
vt 0.5959 0.5731 0.0000
vt 0.6062 0.5465 0.0000
vt 0.5956 0.5409 0.0000
vt 0.5935 0.5570 0.0000
vt 0.2351 0.3475 0.0000
vt 0.2356 0.3704 0.0000
vt 0.2257 0.3690 0.0000
vt 0.2241 0.3477 0.0000
vt 0.1959 0.3330 0.0000
vt 0.2256 0.3374 0.0000
vt 0.1932 0.3435 0.0000
vt 0.1712 0.3235 0.0000
vt 0.1672 0.3331 0.0000
vt 0.1522 0.4051 0.0000
vt 0.1309 0.4115 0.0000
vt 0.1278 0.4013 0.0000
vt 0.1491 0.3949 0.0000
vt 0.1672 0.4006 0.0000
vt 0.1643 0.3905 0.0000
vt 0.1912 0.3941 0.0000
vt 0.1899 0.3834 0.0000
vt 0.2195 0.3942 0.0000
vt 0.2195 0.3838 0.0000
vt 0.2302 0.3873 0.0000
vt 0.1866 0.3799 0.0000
vt 0.1911 0.3662 0.0000
vt 0.1960 0.3668 0.0000
vt 0.1896 0.3462 0.0000
vt 0.1652 0.3379 0.0000
vt 0.1263 0.3962 0.0000
vt 0.1476 0.3898 0.0000
vt 0.1628 0.3855 0.0000
vt 0.3281 0.4242 0.0000
vt 0.3816 0.4232 0.0000
vt 0.3724 0.5722 0.0000
vt 0.3189 0.5733 0.0000
vt 0.3278 0.4110 0.0000
vt 0.3813 0.4100 0.0000
vt 0.3947 0.4240 0.0000
vt 0.3856 0.5731 0.0000
vt 0.3726 0.5855 0.0000
vt 0.3191 0.5865 0.0000
vt 0.3057 0.5724 0.0000
vt 0.3149 0.4234 0.0000
vt 0.0756 0.8551 0.0000
vt 0.0756 0.8695 0.0000
vt 0.0394 0.8695 0.0000
vt 0.0394 0.8551 0.0000
vt 0.0029 0.8485 0.0000
vt 0.0029 0.8299 0.0000
vt 0.0394 0.8299 0.0000
vt 0.0394 0.8485 0.0000
vt 0.0756 0.8299 0.0000
vt 0.0756 0.8485 0.0000
vt 0.0029 0.8695 0.0000
vt 0.0029 0.8551 0.0000
# 168 texture coords

o weap_pistol
g weap_pistol
f 1/1/1 2/2/1 3/3/1 4/4/2 
f 5/5/3 6/6/1 7/7/1 8/8/1 
f 9/9/4 10/10/5 11/11/5 12/12/4 
f 13/13/6 14/14/7 15/15/8 4/4/2 
f 16/16/9 17/17/10 18/18/11 19/19/12 
f 20/20/5 21/21/5 2/2/1 7/7/1 
f 22/22/13 23/23/5 24/24/14 25/25/15 
f 26/26/16 25/25/15 24/24/14 27/27/17 
f 28/28/18 29/29/19 30/30/10 31/31/9 
f 32/32/4 33/33/4 34/34/5 23/23/5 
f 35/35/20 36/36/21 37/37/7 38/38/22 
f 39/39/23 25/25/15 26/26/16 40/40/24 
f 41/41/9 42/42/12 43/43/11 44/44/10 
f 45/45/25 46/46/26 47/47/27 48/48/28 
f 49/49/29 50/50/30 51/51/31 52/52/32 
f 45/45/25 53/53/9 54/54/10 46/55/26 
f 28/28/18 55/56/33 56/57/34 29/58/19 
f 26/26/16 27/27/17 57/59/35 40/40/24 
f 5/5/3 58/60/36 59/61/37 27/27/17 
f 27/27/17 59/61/37 60/62/38 57/59/35 
f 35/63/20 61/64/39 58/60/36 62/65/40 
f 63/66/41 64/67/42 60/62/38 59/61/37 
f 65/68/43 50/50/30 66/69/44 67/70/45 
f 68/71/46 65/68/43 67/70/45 69/72/47 
f 49/49/29 52/73/32 70/74/48 71/75/49 
f 15/76/8 72/77/50 73/78/51 4/79/2 
f 74/80/52 75/81/53 73/78/51 72/77/50 
f 67/70/45 66/69/44 61/64/39 35/63/20 
f 69/72/47 67/70/45 35/63/20 38/82/22 
f 71/75/49 70/74/48 64/67/42 63/66/41 
f 8/8/1 7/7/1 2/2/1 1/1/1 
f 12/12/4 11/11/5 21/21/5 76/83/54 
f 75/81/53 74/84/52 37/37/7 36/36/21 
f 19/19/12 18/18/11 43/43/11 42/42/12 
f 48/48/28 77/85/55 10/10/5 9/9/4 
f 78/86/56 79/87/57 14/14/7 13/13/6 
f 41/41/9 44/44/10 54/54/10 53/53/9 
f 1/88/1 80/89/21 81/90/58 8/91/1 
f 1/88/1 4/79/2 82/92/59 80/89/21 
f 73/78/51 83/93/60 82/92/59 4/79/2 
f 73/78/51 75/81/53 84/94/61 83/93/60 
f 36/36/21 85/95/62 84/94/61 75/81/53 
f 36/36/21 35/35/20 86/96/63 85/95/62 
f 62/97/40 87/98/64 86/96/63 35/35/20 
f 62/97/40 8/91/1 81/90/58 87/98/64 
f 27/27/17 24/24/14 6/6/1 5/5/3 
f 31/31/9 30/30/10 17/17/10 16/16/9 
f 88/99/54 20/20/5 34/34/5 33/33/4 
f 65/68/43 68/100/46 51/51/31 50/50/30 
f 8/8/1 62/65/40 58/60/36 5/5/3 
f 61/64/39 63/66/41 59/61/37 58/60/36 
f 50/50/30 49/49/29 71/75/49 66/69/44 
f 66/69/44 71/75/49 63/66/41 61/64/39 
f 78/86/56 13/13/6 89/101/1 90/102/65 
f 91/103/27 79/104/57 78/86/56 90/102/65 
f 13/13/6 4/4/2 3/3/1 89/101/1 
f 28/28/18 31/31/9 32/32/4 55/56/33 
f 19/19/12 42/42/12 76/83/54 88/99/54 
f 41/41/9 53/53/9 9/9/4 12/12/4 
f 31/31/9 16/16/9 33/33/4 32/32/4 
f 42/42/12 41/41/9 12/12/4 76/83/54 
f 53/53/9 45/45/25 48/48/28 9/9/4 
f 16/16/9 19/19/12 88/99/54 33/33/4 
f 22/22/13 92/105/66 56/57/34 55/56/33 
f 89/101/1 3/3/1 11/11/5 10/10/5 
f 88/99/54 76/83/54 21/21/5 20/20/5 
f 55/56/33 32/32/4 23/23/5 22/22/13 
f 6/6/1 24/24/14 23/23/5 34/34/5 
f 3/3/1 2/2/1 21/21/5 11/11/5 
f 90/102/65 89/101/1 10/10/5 77/85/55 
f 7/7/1 6/6/1 34/34/5 20/20/5 
f 25/25/15 39/39/23 92/105/66 22/22/13 
f 77/85/55 48/48/28 93/106/67 94/107/68 
f 47/47/27 95/108/69 93/106/67 48/48/28 
f 91/103/27 90/102/65 96/109/70 97/110/71 
f 77/85/55 94/107/68 96/109/70 90/102/65 
f 93/106/67 98/111/72 99/112/73 94/107/68 
f 95/108/69 100/113/74 98/111/72 93/106/67 
f 96/109/70 101/114/75 102/115/76 97/110/71 
f 94/107/68 99/112/73 101/114/75 96/109/70 
f 99/112/73 98/111/72 103/116/27 
f 98/111/72 100/113/74 103/116/27 
f 102/115/76 101/114/75 103/116/27 
f 101/114/75 99/112/73 103/116/27 
f 86/117/63 87/118/64 104/119/77 105/120/78 
f 85/121/62 86/122/63 105/120/78 106/123/79 
f 84/124/61 85/121/62 106/123/79 107/125/80 
f 83/126/60 84/127/61 107/128/80 108/129/81 
f 82/130/59 83/126/60 108/129/81 109/131/82 
f 80/132/21 82/130/59 109/131/82 110/133/83 
f 81/134/58 80/132/21 110/133/83 111/135/84 
f 87/118/64 81/136/58 111/135/84 104/119/77 
f 112/137/85 113/138/86 114/139/87 110/133/83 
f 113/138/86 115/140/88 106/123/79 114/139/87 
f 111/135/84 110/133/83 114/139/87 104/119/77 
f 114/139/87 106/123/79 105/120/78 104/119/77 
f 107/125/80 106/123/79 115/140/88 116/141/89 
f 108/129/81 107/128/80 116/142/89 117/143/81 
f 109/131/82 108/129/81 117/143/81 118/144/82 
f 110/133/83 109/131/82 118/144/82 112/137/85 
f 119/145/90 120/146/91 121/147/92 122/148/93 
f 120/146/91 119/145/90 123/149/94 124/150/95 
f 121/147/92 120/146/91 124/151/95 125/152/96 
f 122/148/93 121/147/92 125/153/96 126/154/97 
f 119/145/90 122/148/93 126/155/97 123/156/94 
f 127/1/98 128/4/99 129/3/98 130/2/98 
f 131/5/100 132/8/98 133/7/98 134/6/98 
f 135/9/101 136/12/102 137/11/103 138/10/104 
f 139/13/105 128/4/99 15/15/8 14/14/7 
f 140/20/106 133/7/98 130/2/98 141/21/107 
f 142/22/108 143/25/109 144/24/110 145/23/104 
f 146/26/111 147/27/112 144/24/110 143/25/109 
f 148/28/113 149/31/114 30/30/10 29/29/19 
f 150/32/101 145/23/104 151/34/106 152/33/101 
f 153/35/115 38/38/22 37/37/7 154/36/116 
f 39/39/23 40/40/24 146/26/111 143/25/109 
f 155/41/114 44/44/10 43/43/11 156/42/117 
f 157/45/118 158/48/119 47/47/27 46/46/26 
f 159/49/120 52/52/32 51/51/31 160/50/121 
f 157/45/118 46/55/26 54/54/10 161/53/114 
f 148/28/113 29/58/19 56/57/34 162/56/122 
f 146/26/111 40/40/24 57/59/35 147/27/112 
f 131/5/100 147/27/112 163/61/123 164/60/124 
f 147/27/112 57/59/35 60/62/38 163/61/123 
f 153/63/115 165/65/125 164/60/124 166/64/126 
f 167/66/127 163/61/123 60/62/38 64/67/42 
f 168/68/128 169/70/129 170/69/130 160/50/121 
f 68/71/46 69/72/47 169/70/129 168/68/128 
f 159/49/120 171/75/131 70/74/48 52/73/32 
f 15/76/8 128/79/99 172/78/132 72/77/50 
f 74/80/52 72/77/50 172/78/132 173/81/133 
f 169/70/129 153/63/115 166/64/126 170/69/130 
f 69/72/47 38/82/22 153/63/115 169/70/129 
f 171/75/131 167/66/127 64/67/42 70/74/48 
f 132/8/98 127/1/98 130/2/98 133/7/98 
f 136/12/102 174/83/102 141/21/107 137/11/103 
f 173/81/133 154/36/116 37/37/7 74/84/52 
f 158/48/119 135/9/101 138/10/104 175/85/134 
f 176/86/135 139/13/105 14/14/7 79/87/57 
f 155/41/114 161/53/114 54/54/10 44/44/10 
f 127/88/98 132/91/98 177/90/136 178/89/116 
f 127/88/98 178/89/116 179/92/137 128/79/99 
f 172/78/132 128/79/99 179/92/137 180/93/138 
f 172/78/132 180/93/138 181/94/139 173/81/133 
f 154/36/116 173/81/133 181/94/139 182/95/140 
f 154/36/116 182/95/140 183/96/141 153/35/115 
f 165/97/125 153/35/115 183/96/141 184/98/142 
f 165/97/125 184/98/142 177/90/136 132/91/98 
f 147/27/112 131/5/100 134/6/98 144/24/110 
f 149/31/114 185/16/114 17/17/10 30/30/10 
f 168/68/128 160/50/121 51/51/31 68/100/46 
f 132/8/98 131/5/100 164/60/124 165/65/125 
f 166/64/126 164/60/124 163/61/123 167/66/127 
f 160/50/121 170/69/130 171/75/131 159/49/120 
f 170/69/130 166/64/126 167/66/127 171/75/131 
f 176/86/135 186/102/143 187/101/98 139/13/105 
f 91/103/27 186/102/143 176/86/135 79/104/57 
f 139/13/105 187/101/98 129/3/98 128/4/99 
f 148/28/113 162/56/122 150/32/101 149/31/114 
f 155/41/114 136/12/102 135/9/101 161/53/114 
f 149/31/114 150/32/101 152/33/101 185/16/114 
f 156/42/117 174/83/102 136/12/102 155/41/114 
f 161/53/114 135/9/101 158/48/119 157/45/118 
f 142/22/108 162/56/122 56/57/34 92/105/66 
f 187/101/98 138/10/104 137/11/103 129/3/98 
f 162/56/122 142/22/108 145/23/104 150/32/101 
f 134/6/98 151/34/106 145/23/104 144/24/110 
f 129/3/98 137/11/103 141/21/107 130/2/98 
f 186/102/143 175/85/134 138/10/104 187/101/98 
f 133/7/98 140/20/106 151/34/106 134/6/98 
f 143/25/109 142/22/108 92/105/66 39/39/23 
f 175/85/134 188/107/144 189/106/145 158/48/119 
f 47/47/27 158/48/119 189/106/145 95/108/69 
f 91/103/27 97/110/71 190/109/146 186/102/143 
f 175/85/134 186/102/143 190/109/146 188/107/144 
f 189/106/145 188/107/144 191/112/147 192/111/148 
f 95/108/69 189/106/145 192/111/148 100/113/74 
f 190/109/146 97/110/71 102/115/76 193/114/149 
f 188/107/144 190/109/146 193/114/149 191/112/147 
f 191/112/147 103/116/27 192/111/148 
f 192/111/148 103/116/27 100/113/74 
f 102/115/76 103/116/27 193/114/149 
f 193/114/149 103/116/27 191/112/147 
f 183/117/141 194/120/150 195/119/151 184/118/142 
f 182/121/140 196/123/152 194/120/150 183/122/141 
f 181/124/139 197/125/153 196/123/152 182/121/140 
f 180/126/138 198/129/81 197/128/153 181/127/139 
f 179/130/137 199/131/82 198/129/81 180/126/138 
f 178/132/116 200/133/154 199/131/82 179/130/137 
f 177/134/136 201/135/155 200/133/154 178/132/116 
f 184/118/142 195/119/151 201/135/155 177/136/136 
f 112/137/85 200/133/154 202/139/156 113/138/86 
f 113/138/86 202/139/156 196/123/152 115/140/88 
f 201/135/155 195/119/151 202/139/156 200/133/154 
f 202/139/156 195/119/151 194/120/150 196/123/152 
f 197/125/153 116/141/89 115/140/88 196/123/152 
f 198/129/81 117/143/81 116/142/89 197/128/153 
f 199/131/82 118/144/82 117/143/81 198/129/81 
f 200/133/154 112/137/85 118/144/82 199/131/82 
f 203/145/157 204/148/158 205/147/159 206/146/160 
f 206/146/160 124/150/95 123/149/94 203/145/157 
f 205/147/159 125/152/96 124/151/95 206/146/160 
f 204/148/158 126/154/97 125/153/96 205/147/159 
f 203/145/157 123/156/94 126/155/97 204/148/158 
f 156/157/117 43/158/11 18/159/11 207/160/161 
f 152/161/101 151/162/106 140/163/106 208/164/162 
f 208/164/162 140/163/106 141/165/107 174/166/102 
f 207/160/161 18/159/11 17/167/10 185/168/114 
f 207/160/161 185/168/114 152/161/101 208/164/162 
f 156/157/117 207/160/161 208/164/162 174/166/102 
# 202 polygons - 8 triangles

