%YAML 1.1
%TAG !u! tag:unity3d.com,2011:
--- !u!74 &7400000
AnimationClip:
  m_ObjectHideFlags: 0
  m_CorrespondingSourceObject: {fileID: 0}
  m_PrefabInstance: {fileID: 0}
  m_PrefabAsset: {fileID: 0}
  m_Name: Anim_UI_Heartrate
  serializedVersion: 6
  m_Legacy: 0
  m_Compressed: 0
  m_UseHighQualityCurve: 1
  m_RotationCurves: []
  m_CompressedRotationCurves: []
  m_EulerCurves: []
  m_PositionCurves: []
  m_ScaleCurves: []
  m_FloatCurves:
  - curve:
      serializedVersion: 2
      m_Curve:
      - serializedVersion: 3
        time: 0
        value: 0
        inSlope: Infinity
        outSlope: Infinity
        tangentMode: 103
        weightedMode: 0
        inWeight: 0
        outWeight: 0
      - serializedVersion: 3
        time: 0.11666667
        value: 1
        inSlope: Infinity
        outSlope: Infinity
        tangentMode: 103
        weightedMode: 0
        inWeight: 0
        outWeight: 0
      m_PreInfinity: 2
      m_PostInfinity: 2
      m_RotationOrder: 4
    attribute: m_Enabled
    path: 
    classID: 82
    script: {fileID: 0}
  m_PPtrCurves:
  - curve:
    - time: 0
      value: {fileID: 5801907641941593127, guid: 266ff5ff42acec54b9c1c816716560ce,
        type: 3}
    - time: 0.083333336
      value: {fileID: 7768375743176899118, guid: 266ff5ff42acec54b9c1c816716560ce,
        type: 3}
    - time: 0.16666667
      value: {fileID: -1229208809754644845, guid: 266ff5ff42acec54b9c1c816716560ce,
        type: 3}
    - time: 0.25
      value: {fileID: 1404203914188857308, guid: 266ff5ff42acec54b9c1c816716560ce,
        type: 3}
    - time: 0.35
      value: {fileID: 3313040630269743576, guid: 266ff5ff42acec54b9c1c816716560ce,
        type: 3}
    - time: 0.43333334
      value: {fileID: -2116858451716281088, guid: 266ff5ff42acec54b9c1c816716560ce,
        type: 3}
    - time: 0.51666665
      value: {fileID: -4584252521421919079, guid: 266ff5ff42acec54b9c1c816716560ce,
        type: 3}
    - time: 0.6
      value: {fileID: 8977857797070980263, guid: 266ff5ff42acec54b9c1c816716560ce,
        type: 3}
    - time: 0.68333334
      value: {fileID: -1909742682992103953, guid: 266ff5ff42acec54b9c1c816716560ce,
        type: 3}
    - time: 0.78333336
      value: {fileID: -3274317628757795164, guid: 266ff5ff42acec54b9c1c816716560ce,
        type: 3}
    - time: 0.8666667
      value: {fileID: 4436543081996199437, guid: 266ff5ff42acec54b9c1c816716560ce,
        type: 3}
    - time: 0.95
      value: {fileID: -8965676440024329432, guid: 266ff5ff42acec54b9c1c816716560ce,
        type: 3}
    - time: 1.0333333
      value: {fileID: -4012528412876691817, guid: 266ff5ff42acec54b9c1c816716560ce,
        type: 3}
    - time: 1.1166667
      value: {fileID: -5954567721613843307, guid: 266ff5ff42acec54b9c1c816716560ce,
        type: 3}
    - time: 1.2166667
      value: {fileID: 6557928026207668005, guid: 266ff5ff42acec54b9c1c816716560ce,
        type: 3}
    - time: 1.2833333
      value: {fileID: 6763482603715652163, guid: 266ff5ff42acec54b9c1c816716560ce,
        type: 3}
    - time: 1.3833333
      value: {fileID: -5438763374458866441, guid: 266ff5ff42acec54b9c1c816716560ce,
        type: 3}
    - time: 1.4666667
      value: {fileID: -6868364640381489492, guid: 266ff5ff42acec54b9c1c816716560ce,
        type: 3}
    - time: 1.55
      value: {fileID: -6664637106590789963, guid: 266ff5ff42acec54b9c1c816716560ce,
        type: 3}
    - time: 1.6333333
      value: {fileID: 753122788778072946, guid: 266ff5ff42acec54b9c1c816716560ce,
        type: 3}
    - time: 1.7166667
      value: {fileID: -6681090524332857999, guid: 266ff5ff42acec54b9c1c816716560ce,
        type: 3}
    - time: 1.8166667
      value: {fileID: 7278225256506180140, guid: 266ff5ff42acec54b9c1c816716560ce,
        type: 3}
    - time: 1.9
      value: {fileID: -8260844373284057641, guid: 266ff5ff42acec54b9c1c816716560ce,
        type: 3}
    - time: 1.9833333
      value: {fileID: 4620165479104354486, guid: 266ff5ff42acec54b9c1c816716560ce,
        type: 3}
    - time: 2.0666666
      value: {fileID: 2123619751303497971, guid: 266ff5ff42acec54b9c1c816716560ce,
        type: 3}
    - time: 2.15
      value: {fileID: -2616923010515835879, guid: 266ff5ff42acec54b9c1c816716560ce,
        type: 3}
    - time: 2.25
      value: {fileID: 4019354122562940293, guid: 266ff5ff42acec54b9c1c816716560ce,
        type: 3}
    - time: 2.3333333
      value: {fileID: 4457314673331924543, guid: 266ff5ff42acec54b9c1c816716560ce,
        type: 3}
    - time: 2.4166667
      value: {fileID: -3596163234775253534, guid: 266ff5ff42acec54b9c1c816716560ce,
        type: 3}
    - time: 2.5
      value: {fileID: -7694256746992714672, guid: 266ff5ff42acec54b9c1c816716560ce,
        type: 3}
    attribute: m_Sprite
    path: 
    classID: 114
    script: {fileID: 11500000, guid: fe87c0e1cc204ed48ad3b37840f39efc, type: 3}
  m_SampleRate: 60
  m_WrapMode: 0
  m_Bounds:
    m_Center: {x: 0, y: 0, z: 0}
    m_Extent: {x: 0, y: 0, z: 0}
  m_ClipBindingConstant:
    genericBindings:
    - serializedVersion: 2
      path: 0
      attribute: 3305885265
      script: {fileID: 0}
      typeID: 82
      customType: 0
      isPPtrCurve: 0
    - serializedVersion: 2
      path: 0
      attribute: 2015549526
      script: {fileID: 11500000, guid: fe87c0e1cc204ed48ad3b37840f39efc, type: 3}
      typeID: 114
      customType: 0
      isPPtrCurve: 1
    pptrCurveMapping:
    - {fileID: 5801907641941593127, guid: 266ff5ff42acec54b9c1c816716560ce, type: 3}
    - {fileID: 7768375743176899118, guid: 266ff5ff42acec54b9c1c816716560ce, type: 3}
    - {fileID: -1229208809754644845, guid: 266ff5ff42acec54b9c1c816716560ce, type: 3}
    - {fileID: 1404203914188857308, guid: 266ff5ff42acec54b9c1c816716560ce, type: 3}
    - {fileID: 3313040630269743576, guid: 266ff5ff42acec54b9c1c816716560ce, type: 3}
    - {fileID: -2116858451716281088, guid: 266ff5ff42acec54b9c1c816716560ce, type: 3}
    - {fileID: -4584252521421919079, guid: 266ff5ff42acec54b9c1c816716560ce, type: 3}
    - {fileID: 8977857797070980263, guid: 266ff5ff42acec54b9c1c816716560ce, type: 3}
    - {fileID: -1909742682992103953, guid: 266ff5ff42acec54b9c1c816716560ce, type: 3}
    - {fileID: -3274317628757795164, guid: 266ff5ff42acec54b9c1c816716560ce, type: 3}
    - {fileID: 4436543081996199437, guid: 266ff5ff42acec54b9c1c816716560ce, type: 3}
    - {fileID: -8965676440024329432, guid: 266ff5ff42acec54b9c1c816716560ce, type: 3}
    - {fileID: -4012528412876691817, guid: 266ff5ff42acec54b9c1c816716560ce, type: 3}
    - {fileID: -5954567721613843307, guid: 266ff5ff42acec54b9c1c816716560ce, type: 3}
    - {fileID: 6557928026207668005, guid: 266ff5ff42acec54b9c1c816716560ce, type: 3}
    - {fileID: 6763482603715652163, guid: 266ff5ff42acec54b9c1c816716560ce, type: 3}
    - {fileID: -5438763374458866441, guid: 266ff5ff42acec54b9c1c816716560ce, type: 3}
    - {fileID: -6868364640381489492, guid: 266ff5ff42acec54b9c1c816716560ce, type: 3}
    - {fileID: -6664637106590789963, guid: 266ff5ff42acec54b9c1c816716560ce, type: 3}
    - {fileID: 753122788778072946, guid: 266ff5ff42acec54b9c1c816716560ce, type: 3}
    - {fileID: -6681090524332857999, guid: 266ff5ff42acec54b9c1c816716560ce, type: 3}
    - {fileID: 7278225256506180140, guid: 266ff5ff42acec54b9c1c816716560ce, type: 3}
    - {fileID: -8260844373284057641, guid: 266ff5ff42acec54b9c1c816716560ce, type: 3}
    - {fileID: 4620165479104354486, guid: 266ff5ff42acec54b9c1c816716560ce, type: 3}
    - {fileID: 2123619751303497971, guid: 266ff5ff42acec54b9c1c816716560ce, type: 3}
    - {fileID: -2616923010515835879, guid: 266ff5ff42acec54b9c1c816716560ce, type: 3}
    - {fileID: 4019354122562940293, guid: 266ff5ff42acec54b9c1c816716560ce, type: 3}
    - {fileID: 4457314673331924543, guid: 266ff5ff42acec54b9c1c816716560ce, type: 3}
    - {fileID: -3596163234775253534, guid: 266ff5ff42acec54b9c1c816716560ce, type: 3}
    - {fileID: -7694256746992714672, guid: 266ff5ff42acec54b9c1c816716560ce, type: 3}
  m_AnimationClipSettings:
    serializedVersion: 2
    m_AdditiveReferencePoseClip: {fileID: 0}
    m_AdditiveReferencePoseTime: 0
    m_StartTime: 0
    m_StopTime: 2.5166667
    m_OrientationOffsetY: 0
    m_Level: 0
    m_CycleOffset: 0
    m_HasAdditiveReferencePose: 0
    m_LoopTime: 1
    m_LoopBlend: 0
    m_LoopBlendOrientation: 0
    m_LoopBlendPositionY: 0
    m_LoopBlendPositionXZ: 0
    m_KeepOriginalOrientation: 0
    m_KeepOriginalPositionY: 1
    m_KeepOriginalPositionXZ: 0
    m_HeightFromFeet: 0
    m_Mirror: 0
  m_EditorCurves:
  - curve:
      serializedVersion: 2
      m_Curve:
      - serializedVersion: 3
        time: 0
        value: 0
        inSlope: Infinity
        outSlope: Infinity
        tangentMode: 103
        weightedMode: 0
        inWeight: 0
        outWeight: 0
      - serializedVersion: 3
        time: 0.11666667
        value: 1
        inSlope: Infinity
        outSlope: Infinity
        tangentMode: 103
        weightedMode: 0
        inWeight: 0
        outWeight: 0
      m_PreInfinity: 2
      m_PostInfinity: 2
      m_RotationOrder: 4
    attribute: m_Enabled
    path: 
    classID: 82
    script: {fileID: 0}
  m_EulerEditorCurves: []
  m_HasGenericRootTransform: 0
  m_HasMotionFloatCurves: 0
  m_Events: []
