%YAML 1.1
%TAG !u! tag:unity3d.com,2011:
--- !u!1 &1334103668960698052
GameObject:
  m_ObjectHideFlags: 0
  m_CorrespondingSourceObject: {fileID: 0}
  m_PrefabInstance: {fileID: 0}
  m_PrefabAsset: {fileID: 0}
  serializedVersion: 6
  m_Component:
  - component: {fileID: 3047310782353834715}
  m_Layer: 28
  m_Name: prop_box_big
  m_TagString: Untagged
  m_Icon: {fileID: 0}
  m_NavMeshLayer: 0
  m_StaticEditorFlags: 0
  m_IsActive: 1
--- !u!4 &3047310782353834715
Transform:
  m_ObjectHideFlags: 0
  m_CorrespondingSourceObject: {fileID: 0}
  m_PrefabInstance: {fileID: 0}
  m_PrefabAsset: {fileID: 0}
  m_GameObject: {fileID: 1334103668960698052}
  m_LocalRotation: {x: 0, y: 0, z: 0, w: 1}
  m_LocalPosition: {x: 0, y: 0, z: 0}
  m_LocalScale: {x: 1, y: 1, z: 1}
  m_Children:
  - {fileID: 5251796547253866974}
  m_Father: {fileID: 0}
  m_RootOrder: 0
  m_LocalEulerAnglesHint: {x: 0, y: 0, z: 0}
--- !u!65 &5901425429411505007
BoxCollider:
  m_ObjectHideFlags: 0
  m_CorrespondingSourceObject: {fileID: 0}
  m_PrefabInstance: {fileID: 0}
  m_PrefabAsset: {fileID: 0}
  m_GameObject: {fileID: 6837616385038241832}
  m_Material: {fileID: 0}
  m_IsTrigger: 0
  m_Enabled: 1
  serializedVersion: 2
  m_Size: {x: 2, y: 2, z: 2.0001001}
  m_Center: {x: 0, y: 1, z: 0.000050008297}
--- !u!1001 &5721990860649657909
PrefabInstance:
  m_ObjectHideFlags: 0
  serializedVersion: 2
  m_Modification:
    m_TransformParent: {fileID: 3047310782353834715}
    m_Modifications:
    - target: {fileID: -8943865252090501795, guid: 7fa57de861397344f8dad3ec96c08171,
        type: 3}
      propertyPath: m_Materials.Array.data[0]
      value: 
      objectReference: {fileID: 2100000, guid: 0d523d5176b387941bd85c7e772f1a3c, type: 2}
    - target: {fileID: -8679921383154817045, guid: 7fa57de861397344f8dad3ec96c08171,
        type: 3}
      propertyPath: m_RootOrder
      value: 0
      objectReference: {fileID: 0}
    - target: {fileID: -8679921383154817045, guid: 7fa57de861397344f8dad3ec96c08171,
        type: 3}
      propertyPath: m_LocalPosition.x
      value: 0
      objectReference: {fileID: 0}
    - target: {fileID: -8679921383154817045, guid: 7fa57de861397344f8dad3ec96c08171,
        type: 3}
      propertyPath: m_LocalPosition.y
      value: 0
      objectReference: {fileID: 0}
    - target: {fileID: -8679921383154817045, guid: 7fa57de861397344f8dad3ec96c08171,
        type: 3}
      propertyPath: m_LocalPosition.z
      value: 0
      objectReference: {fileID: 0}
    - target: {fileID: -8679921383154817045, guid: 7fa57de861397344f8dad3ec96c08171,
        type: 3}
      propertyPath: m_LocalRotation.w
      value: 1
      objectReference: {fileID: 0}
    - target: {fileID: -8679921383154817045, guid: 7fa57de861397344f8dad3ec96c08171,
        type: 3}
      propertyPath: m_LocalRotation.x
      value: -0
      objectReference: {fileID: 0}
    - target: {fileID: -8679921383154817045, guid: 7fa57de861397344f8dad3ec96c08171,
        type: 3}
      propertyPath: m_LocalRotation.y
      value: -0
      objectReference: {fileID: 0}
    - target: {fileID: -8679921383154817045, guid: 7fa57de861397344f8dad3ec96c08171,
        type: 3}
      propertyPath: m_LocalRotation.z
      value: -0
      objectReference: {fileID: 0}
    - target: {fileID: -8679921383154817045, guid: 7fa57de861397344f8dad3ec96c08171,
        type: 3}
      propertyPath: m_LocalEulerAnglesHint.x
      value: 0
      objectReference: {fileID: 0}
    - target: {fileID: -8679921383154817045, guid: 7fa57de861397344f8dad3ec96c08171,
        type: 3}
      propertyPath: m_LocalEulerAnglesHint.y
      value: 0
      objectReference: {fileID: 0}
    - target: {fileID: -8679921383154817045, guid: 7fa57de861397344f8dad3ec96c08171,
        type: 3}
      propertyPath: m_LocalEulerAnglesHint.z
      value: 0
      objectReference: {fileID: 0}
    - target: {fileID: -7958828657565915619, guid: 7fa57de861397344f8dad3ec96c08171,
        type: 3}
      propertyPath: m_Layer
      value: 28
      objectReference: {fileID: 0}
    - target: {fileID: -7958828657565915619, guid: 7fa57de861397344f8dad3ec96c08171,
        type: 3}
      propertyPath: m_StaticEditorFlags
      value: 4294967295
      objectReference: {fileID: 0}
    - target: {fileID: 919132149155446097, guid: 7fa57de861397344f8dad3ec96c08171,
        type: 3}
      propertyPath: m_Name
      value: box big
      objectReference: {fileID: 0}
    - target: {fileID: 919132149155446097, guid: 7fa57de861397344f8dad3ec96c08171,
        type: 3}
      propertyPath: m_Layer
      value: 28
      objectReference: {fileID: 0}
    - target: {fileID: 919132149155446097, guid: 7fa57de861397344f8dad3ec96c08171,
        type: 3}
      propertyPath: m_StaticEditorFlags
      value: 4294967295
      objectReference: {fileID: 0}
    m_RemovedComponents: []
  m_SourcePrefab: {fileID: 100100000, guid: 7fa57de861397344f8dad3ec96c08171, type: 3}
--- !u!4 &5251796547253866974 stripped
Transform:
  m_CorrespondingSourceObject: {fileID: -8679921383154817045, guid: 7fa57de861397344f8dad3ec96c08171,
    type: 3}
  m_PrefabInstance: {fileID: 5721990860649657909}
  m_PrefabAsset: {fileID: 0}
--- !u!1 &6837616385038241832 stripped
GameObject:
  m_CorrespondingSourceObject: {fileID: -7958828657565915619, guid: 7fa57de861397344f8dad3ec96c08171,
    type: 3}
  m_PrefabInstance: {fileID: 5721990860649657909}
  m_PrefabAsset: {fileID: 0}
