%YAML 1.1
%TAG !u! tag:unity3d.com,2011:
--- !u!1 &117404597736575158
GameObject:
  m_ObjectHideFlags: 0
  m_CorrespondingSourceObject: {fileID: 0}
  m_PrefabInstance: {fileID: 0}
  m_PrefabAsset: {fileID: 0}
  serializedVersion: 6
  m_Component:
  - component: {fileID: 1454334488900778222}
  m_Layer: 0
  m_Name: prop_doorway_broken
  m_TagString: Untagged
  m_Icon: {fileID: 0}
  m_NavMeshLayer: 0
  m_StaticEditorFlags: 0
  m_IsActive: 1
--- !u!4 &1454334488900778222
Transform:
  m_ObjectHideFlags: 0
  m_CorrespondingSourceObject: {fileID: 0}
  m_PrefabInstance: {fileID: 0}
  m_PrefabAsset: {fileID: 0}
  m_GameObject: {fileID: 117404597736575158}
  m_LocalRotation: {x: -0, y: -0, z: -0, w: 1}
  m_LocalPosition: {x: 0, y: 0, z: 0}
  m_LocalScale: {x: 1, y: 1, z: 1}
  m_Children:
  - {fileID: 5733326752112664306}
  - {fileID: 4522285881262384978}
  m_Father: {fileID: 0}
  m_RootOrder: 0
  m_LocalEulerAnglesHint: {x: 0, y: 0, z: 0}
--- !u!1001 &4525087318865724848
PrefabInstance:
  m_ObjectHideFlags: 0
  serializedVersion: 2
  m_Modification:
    m_TransformParent: {fileID: 1454334488900778222}
    m_Modifications:
    - target: {fileID: 1000011396044746, guid: 96b2ec0239d11fa4b9792311efceb8ed, type: 3}
      propertyPath: m_Name
      value: ElectricalSparksEffect
      objectReference: {fileID: 0}
    - target: {fileID: 1568518749535582, guid: 96b2ec0239d11fa4b9792311efceb8ed, type: 3}
      propertyPath: m_IsActive
      value: 0
      objectReference: {fileID: 0}
    - target: {fileID: 4000012832170722, guid: 96b2ec0239d11fa4b9792311efceb8ed, type: 3}
      propertyPath: m_RootOrder
      value: 1
      objectReference: {fileID: 0}
    - target: {fileID: 4000012832170722, guid: 96b2ec0239d11fa4b9792311efceb8ed, type: 3}
      propertyPath: m_LocalPosition.x
      value: 0
      objectReference: {fileID: 0}
    - target: {fileID: 4000012832170722, guid: 96b2ec0239d11fa4b9792311efceb8ed, type: 3}
      propertyPath: m_LocalPosition.y
      value: 2.723
      objectReference: {fileID: 0}
    - target: {fileID: 4000012832170722, guid: 96b2ec0239d11fa4b9792311efceb8ed, type: 3}
      propertyPath: m_LocalPosition.z
      value: 0.645
      objectReference: {fileID: 0}
    - target: {fileID: 4000012832170722, guid: 96b2ec0239d11fa4b9792311efceb8ed, type: 3}
      propertyPath: m_LocalRotation.w
      value: 1
      objectReference: {fileID: 0}
    - target: {fileID: 4000012832170722, guid: 96b2ec0239d11fa4b9792311efceb8ed, type: 3}
      propertyPath: m_LocalRotation.x
      value: 0
      objectReference: {fileID: 0}
    - target: {fileID: 4000012832170722, guid: 96b2ec0239d11fa4b9792311efceb8ed, type: 3}
      propertyPath: m_LocalRotation.y
      value: 0
      objectReference: {fileID: 0}
    - target: {fileID: 4000012832170722, guid: 96b2ec0239d11fa4b9792311efceb8ed, type: 3}
      propertyPath: m_LocalRotation.z
      value: 0
      objectReference: {fileID: 0}
    - target: {fileID: 4000012832170722, guid: 96b2ec0239d11fa4b9792311efceb8ed, type: 3}
      propertyPath: m_LocalEulerAnglesHint.x
      value: 0
      objectReference: {fileID: 0}
    - target: {fileID: 4000012832170722, guid: 96b2ec0239d11fa4b9792311efceb8ed, type: 3}
      propertyPath: m_LocalEulerAnglesHint.y
      value: 0
      objectReference: {fileID: 0}
    - target: {fileID: 4000012832170722, guid: 96b2ec0239d11fa4b9792311efceb8ed, type: 3}
      propertyPath: m_LocalEulerAnglesHint.z
      value: 0
      objectReference: {fileID: 0}
    - target: {fileID: 198000012283690144, guid: 96b2ec0239d11fa4b9792311efceb8ed,
        type: 3}
      propertyPath: prewarm
      value: 0
      objectReference: {fileID: 0}
    - target: {fileID: 198000012283690144, guid: 96b2ec0239d11fa4b9792311efceb8ed,
        type: 3}
      propertyPath: lengthInSec
      value: 0.1
      objectReference: {fileID: 0}
    - target: {fileID: 198000012283690144, guid: 96b2ec0239d11fa4b9792311efceb8ed,
        type: 3}
      propertyPath: autoRandomSeed
      value: 1
      objectReference: {fileID: 0}
    - target: {fileID: 198000012283690144, guid: 96b2ec0239d11fa4b9792311efceb8ed,
        type: 3}
      propertyPath: startDelay.scalar
      value: 0
      objectReference: {fileID: 0}
    - target: {fileID: 198000012283690144, guid: 96b2ec0239d11fa4b9792311efceb8ed,
        type: 3}
      propertyPath: SizeModule.enabled
      value: 1
      objectReference: {fileID: 0}
    - target: {fileID: 198000012283690144, guid: 96b2ec0239d11fa4b9792311efceb8ed,
        type: 3}
      propertyPath: ForceModule.enabled
      value: 0
      objectReference: {fileID: 0}
    - target: {fileID: 198000012283690144, guid: 96b2ec0239d11fa4b9792311efceb8ed,
        type: 3}
      propertyPath: NoiseModule.enabled
      value: 0
      objectReference: {fileID: 0}
    - target: {fileID: 198000012283690144, guid: 96b2ec0239d11fa4b9792311efceb8ed,
        type: 3}
      propertyPath: ShapeModule.enabled
      value: 1
      objectReference: {fileID: 0}
    - target: {fileID: 198000012283690144, guid: 96b2ec0239d11fa4b9792311efceb8ed,
        type: 3}
      propertyPath: TrailModule.enabled
      value: 1
      objectReference: {fileID: 0}
    - target: {fileID: 198000012283690144, guid: 96b2ec0239d11fa4b9792311efceb8ed,
        type: 3}
      propertyPath: EmissionModule.enabled
      value: 1
      objectReference: {fileID: 0}
    - target: {fileID: 198000012283690144, guid: 96b2ec0239d11fa4b9792311efceb8ed,
        type: 3}
      propertyPath: VelocityModule.enabled
      value: 1
      objectReference: {fileID: 0}
    - target: {fileID: 198000012283690144, guid: 96b2ec0239d11fa4b9792311efceb8ed,
        type: 3}
      propertyPath: VelocityModule.x.scalar
      value: 1
      objectReference: {fileID: 0}
    - target: {fileID: 198000012283690144, guid: 96b2ec0239d11fa4b9792311efceb8ed,
        type: 3}
      propertyPath: VelocityModule.y.scalar
      value: 1
      objectReference: {fileID: 0}
    - target: {fileID: 198000012283690144, guid: 96b2ec0239d11fa4b9792311efceb8ed,
        type: 3}
      propertyPath: VelocityModule.z.scalar
      value: 3
      objectReference: {fileID: 0}
    - target: {fileID: 198000012283690144, guid: 96b2ec0239d11fa4b9792311efceb8ed,
        type: 3}
      propertyPath: InitialModule.rotation3D
      value: 0
      objectReference: {fileID: 0}
    - target: {fileID: 198000012283690144, guid: 96b2ec0239d11fa4b9792311efceb8ed,
        type: 3}
      propertyPath: VelocityModule.z.minScalar
      value: 3
      objectReference: {fileID: 0}
    - target: {fileID: 198000012283690144, guid: 96b2ec0239d11fa4b9792311efceb8ed,
        type: 3}
      propertyPath: ClampVelocityModule.enabled
      value: 1
      objectReference: {fileID: 0}
    - target: {fileID: 198000012283690144, guid: 96b2ec0239d11fa4b9792311efceb8ed,
        type: 3}
      propertyPath: InheritVelocityModule.enabled
      value: 0
      objectReference: {fileID: 0}
    - target: {fileID: 198000012283690144, guid: 96b2ec0239d11fa4b9792311efceb8ed,
        type: 3}
      propertyPath: EmissionModule.rateOverTime.scalar
      value: 10
      objectReference: {fileID: 0}
    - target: {fileID: 198000012283690144, guid: 96b2ec0239d11fa4b9792311efceb8ed,
        type: 3}
      propertyPath: InitialModule.startLifetime.scalar
      value: 2
      objectReference: {fileID: 0}
    - target: {fileID: 198000012283690144, guid: 96b2ec0239d11fa4b9792311efceb8ed,
        type: 3}
      propertyPath: InitialModule.startLifetime.minScalar
      value: 0.1
      objectReference: {fileID: 0}
    - target: {fileID: 198000012283690144, guid: 96b2ec0239d11fa4b9792311efceb8ed,
        type: 3}
      propertyPath: startDelay.maxCurve.m_Curve.Array.data[0].value
      value: 0
      objectReference: {fileID: 0}
    - target: {fileID: 198000012283690144, guid: 96b2ec0239d11fa4b9792311efceb8ed,
        type: 3}
      propertyPath: startDelay.maxCurve.m_Curve.Array.data[1].value
      value: 0
      objectReference: {fileID: 0}
    m_RemovedComponents: []
  m_SourcePrefab: {fileID: 100100000, guid: 96b2ec0239d11fa4b9792311efceb8ed, type: 3}
--- !u!4 &4522285881262384978 stripped
Transform:
  m_CorrespondingSourceObject: {fileID: 4000012832170722, guid: 96b2ec0239d11fa4b9792311efceb8ed,
    type: 3}
  m_PrefabInstance: {fileID: 4525087318865724848}
  m_PrefabAsset: {fileID: 0}
--- !u!1001 &5195578578235177241
PrefabInstance:
  m_ObjectHideFlags: 0
  serializedVersion: 2
  m_Modification:
    m_TransformParent: {fileID: 1454334488900778222}
    m_Modifications:
    - target: {fileID: -8679921383154817045, guid: 18fefe1e19e8d10479e4bf76408aab03,
        type: 3}
      propertyPath: m_RootOrder
      value: 0
      objectReference: {fileID: 0}
    - target: {fileID: -8679921383154817045, guid: 18fefe1e19e8d10479e4bf76408aab03,
        type: 3}
      propertyPath: m_LocalPosition.x
      value: 0
      objectReference: {fileID: 0}
    - target: {fileID: -8679921383154817045, guid: 18fefe1e19e8d10479e4bf76408aab03,
        type: 3}
      propertyPath: m_LocalPosition.y
      value: 0
      objectReference: {fileID: 0}
    - target: {fileID: -8679921383154817045, guid: 18fefe1e19e8d10479e4bf76408aab03,
        type: 3}
      propertyPath: m_LocalPosition.z
      value: 0
      objectReference: {fileID: 0}
    - target: {fileID: -8679921383154817045, guid: 18fefe1e19e8d10479e4bf76408aab03,
        type: 3}
      propertyPath: m_LocalRotation.w
      value: 1
      objectReference: {fileID: 0}
    - target: {fileID: -8679921383154817045, guid: 18fefe1e19e8d10479e4bf76408aab03,
        type: 3}
      propertyPath: m_LocalRotation.x
      value: -0
      objectReference: {fileID: 0}
    - target: {fileID: -8679921383154817045, guid: 18fefe1e19e8d10479e4bf76408aab03,
        type: 3}
      propertyPath: m_LocalRotation.y
      value: -0
      objectReference: {fileID: 0}
    - target: {fileID: -8679921383154817045, guid: 18fefe1e19e8d10479e4bf76408aab03,
        type: 3}
      propertyPath: m_LocalRotation.z
      value: -0
      objectReference: {fileID: 0}
    - target: {fileID: -8679921383154817045, guid: 18fefe1e19e8d10479e4bf76408aab03,
        type: 3}
      propertyPath: m_LocalEulerAnglesHint.x
      value: 0
      objectReference: {fileID: 0}
    - target: {fileID: -8679921383154817045, guid: 18fefe1e19e8d10479e4bf76408aab03,
        type: 3}
      propertyPath: m_LocalEulerAnglesHint.y
      value: 0
      objectReference: {fileID: 0}
    - target: {fileID: -8679921383154817045, guid: 18fefe1e19e8d10479e4bf76408aab03,
        type: 3}
      propertyPath: m_LocalEulerAnglesHint.z
      value: 0
      objectReference: {fileID: 0}
    - target: {fileID: -4822164725284810776, guid: 18fefe1e19e8d10479e4bf76408aab03,
        type: 3}
      propertyPath: m_Layer
      value: 16
      objectReference: {fileID: 0}
    - target: {fileID: -4743794585599570332, guid: 18fefe1e19e8d10479e4bf76408aab03,
        type: 3}
      propertyPath: m_Materials.Array.data[0]
      value: 
      objectReference: {fileID: 2100000, guid: c0dd6912c3b97b74d8d93df14d844aeb, type: 2}
    - target: {fileID: -1206606987037950581, guid: 18fefe1e19e8d10479e4bf76408aab03,
        type: 3}
      propertyPath: m_Layer
      value: 16
      objectReference: {fileID: 0}
    - target: {fileID: 919132149155446097, guid: 18fefe1e19e8d10479e4bf76408aab03,
        type: 3}
      propertyPath: m_Name
      value: prop_doorway_broken
      objectReference: {fileID: 0}
    - target: {fileID: 919132149155446097, guid: 18fefe1e19e8d10479e4bf76408aab03,
        type: 3}
      propertyPath: m_Layer
      value: 16
      objectReference: {fileID: 0}
    - target: {fileID: 4209749797355580365, guid: 18fefe1e19e8d10479e4bf76408aab03,
        type: 3}
      propertyPath: m_Layer
      value: 16
      objectReference: {fileID: 0}
    - target: {fileID: 4770016258693741047, guid: 18fefe1e19e8d10479e4bf76408aab03,
        type: 3}
      propertyPath: m_Materials.Array.data[0]
      value: 
      objectReference: {fileID: 2100000, guid: c0dd6912c3b97b74d8d93df14d844aeb, type: 2}
    - target: {fileID: 6552286535977220393, guid: 18fefe1e19e8d10479e4bf76408aab03,
        type: 3}
      propertyPath: m_Materials.Array.data[0]
      value: 
      objectReference: {fileID: 2100000, guid: c0dd6912c3b97b74d8d93df14d844aeb, type: 2}
    m_RemovedComponents: []
  m_SourcePrefab: {fileID: 100100000, guid: 18fefe1e19e8d10479e4bf76408aab03, type: 3}
--- !u!4 &5733326752112664306 stripped
Transform:
  m_CorrespondingSourceObject: {fileID: -8679921383154817045, guid: 18fefe1e19e8d10479e4bf76408aab03,
    type: 3}
  m_PrefabInstance: {fileID: 5195578578235177241}
  m_PrefabAsset: {fileID: 0}
