%YAML 1.1
%TAG !u! tag:unity3d.com,2011:
--- !u!114 &11400000
MonoBehaviour:
  m_ObjectHideFlags: 0
  m_CorrespondingSourceObject: {fileID: 0}
  m_PrefabInstance: {fileID: 0}
  m_PrefabAsset: {fileID: 0}
  m_GameObject: {fileID: 0}
  m_Enabled: 1
  m_EditorHideFlags: 0
  m_Script: {fileID: 11500000, guid: 222bcc92084c1de42b510e253551e2e5, type: 3}
  m_Name: _LevelData_Jerome
  m_EditorClassIdentifier: 
  startingArea: {fileID: 11400000, guid: 97f41d4b6700d5f4791a1cdaea54cab8, type: 2}
  possibleRooms:
  - {fileID: 11400000, guid: 1cac9146518e690478e718d563990b4d, type: 2}
  - {fileID: 11400000, guid: 07dd3e1e6d964544c9cfe0bd7c5d7478, type: 2}
  - {fileID: 11400000, guid: d368efee61a459644b64769a333d7f3e, type: 2}
  - {fileID: 11400000, guid: a5b352c8604b7654c9057d6522d4e136, type: 2}
  - {fileID: 11400000, guid: 86ddc4efa1f2e9348872e78a5a45854f, type: 2}
  minRoomsToEnd: 0100000001000000
  deadEndHoriz: {fileID: 11400000, guid: e47a1c295c3b6954f8cb83184975343a, type: 2}
  midPoint: {fileID: 11400000, guid: 562488a362d129e47a1e5fcc24030f0e, type: 2}
  objPoint: {fileID: 11400000, guid: 3920a6053590a5146b6fef7aa92e7182, type: 2}
  bgm: {fileID: 11400000, guid: 6aee34c25fb414041aa2f00bafe54a69, type: 2}
  player: {fileID: 5246829828585213187, guid: 3ebd86970dbdaeb4694d1fa49f59a25c, type: 3}
  requiredSideRoutes_1: []
  requiredSideRoutes_2: []
  optionalSideRoutes: []
