%YAML 1.1
%TAG !u! tag:unity3d.com,2011:
--- !u!114 &11400000
MonoBehaviour:
  m_ObjectHideFlags: 0
  m_CorrespondingSourceObject: {fileID: 0}
  m_PrefabInstance: {fileID: 0}
  m_PrefabAsset: {fileID: 0}
  m_GameObject: {fileID: 0}
  m_Enabled: 1
  m_EditorHideFlags: 0
  m_Script: {fileID: 11500000, guid: e9d3705dae0eedb4489c86b2fbb481fe, type: 3}
  m_Name: room_hallway_long
  m_EditorClassIdentifier: 
  prefab: {fileID: 5239977855084963412, guid: f1fe13b4085c2b0428f89084dba8da61, type: 3}
  minNumRooms: 1
  maxNumRooms: 1
  invalidNextRooms:
  - {fileID: 11400000}
