%YAML 1.1
%TAG !u! tag:unity3d.com,2011:
--- !u!114 &11400000
MonoBehaviour:
  m_ObjectHideFlags: 0
  m_CorrespondingSourceObject: {fileID: 0}
  m_PrefabInstance: {fileID: 0}
  m_PrefabAsset: {fileID: 0}
  m_GameObject: {fileID: 0}
  m_Enabled: 1
  m_EditorHideFlags: 0
  m_Script: {fileID: 11500000, guid: 210df663d717bd04caf008c804ab5d62, type: 3}
  m_Name: Side Level Data Ralf 1
  m_EditorClassIdentifier: 
  branchingRoom: {fileID: 11400000, guid: a45aab42a5dfdc44db4d59c693847bcf, type: 2}
  endRoom: {fileID: 11400000, guid: 9be41fc6a0ee37748924d95f698895f7, type: 2}
  possibleRooms:
  - {fileID: 11400000, guid: 5641ae00fb30bdf43a7d8f2a4cb0cf90, type: 2}
  - {fileID: 11400000, guid: d2ef0612f814dae47b4b3f89f381134d, type: 2}
  - {fileID: 11400000, guid: d26cb2849d42c794bb3aa6ccbf593744, type: 2}
  - {fileID: 11400000, guid: 986e13beb41405249af4e9397cfd2f72, type: 2}
  - {fileID: 11400000, guid: 2d0e4072e453c0749a565032822463d1, type: 2}
  - {fileID: 11400000, guid: 5332b7ae9e9dcd0429c176e8fa0f751f, type: 2}
  minRooms: 1
  maxRooms: 1
  minToStart: 1
  maxToStart: 5
  occurenceRate: 1
  maxOccurences: 1
